// 285.txt
// 　　ファイルナンバー２８５　・・・　衣装が完成
// 　　　　　　登場　・・・　４優衣、５歩美
// 　　　　７月６日（金）　午後３時３０分　被服室
// 歩美好感度が規定値に達していない、もしくは分岐で歩美ルートに進まなかった場合。歩美以外のルートに進む。

大悟「それじゃあ、気を付けてね」
$k

#center,0.5,ayumi_seifuku_021.png,0
$voice,28503105
歩美「うん」
$k

夏なのでこの時刻でも日は十分に高い。女の
子が一人で歩いても、全然心配する必要はな
い。
$k

#character,0.5,yui_seifuku_003.png,erase,ayumi_seifuku_001.png,0
$voice,28503205
歩美「本当にどうもありがとう、大悟君、優
　衣ちゃん」
$k

大悟「こちらこそありがとう、歩美ちゃん」
　
$k

#left,0.5,yui_seifuku_169.png,0
優衣「（ぺこり）」
$k

最後にもう一度お礼を言って、その場は解散
となった。
$k

……。
$k

#hide,0.5

// ＢＧＭストップ。
$bgm,stop,YES

// 次のファイルへ。
$next,287i_0706_mi
