﻿// １５５の選択肢２。

大悟「但是有些遗憾，没有实现啊」
$k

#center,0.5,kana_suit_141.png,0
$voice,15502402
华奈「诶……」
$k

看到我一副垂头丧气吐露着的模样，华奈姐的
表情也开始变得沮丧起来。
$k

#center,0.5,kana_suit_002.png,0
$voice,15502502
华奈「那，今年的愿望要是能实现就好了呢」
$k

大悟「嗯」
$k

#center,0.5,kana_suit_022.png,0
$voice,15502602
华奈「我也给你许愿。『让小悟的愿望实现吧』
怎么样」
$k

大悟「啊哈哈…谢了，华奈姐」
$k

#center,0.5,kana_suit_001.png,0
…两人之后便并肩向学校加速。
$k

华奈姐为了我而许下愿望么…。
$k

不过，那个愿望其实和华奈姐有关，本人肯定
无从知晓的吧……。
$k

$next,102i_155i_9
