// １７３の選択肢１。
// 選択肢１を選んだ場合。（『うちの父さんの教え子だから……』）

大悟「那…那是因为……美知留老师她……」
$k

大悟「啊，不对…海堂老师她，是我父亲的得
意门生，而且因为这个关系总是使唤我，所以
说啊……」
$k

$voice,17305305
歩美「我不介意哟，用『美知留老师』来称呼」
$k

大悟「呜呜〜……」
$k

若槻怎么看都在绷着张脸。难道说了什么得罪
了她的话了吗。
$k

$next,114i_173i_3
