// １７３の選択肢２つ目１。華奈好感度＋１
$pfplus,20,1

大悟「那是…我和华奈姐是青梅竹马，家也靠
的比较很近的原因啦。这件事若槻同学不也是
知道的吗？」
$k

$voice,17305705
步美「不过倒是经常听说，看到两位这一对正
在商店街购物呢」
$k

大悟「那…那也是，华奈姐的请求……因为是邻
居嘛，帮忙提一些东西也是人之常情……」
$k

$next,117i_173i_2_3
