// 選択肢２を選んだ場合。（『もちろん、聞きたいことは山ほどあるよ』）步美好感度＋１。
$pfplus,50,1

大悟「当然，想听的事可是像山一样多哦」
$k

我带着多多少少有些捉弄她的心情，面向若槻
义正言辞的作出回答。
$k

#center,0.5,ayumi_seifuku_021.png,0
$voice,17307105
步美「欸呵呵…真是光荣之至呢，能被二宫君
这么说 」
$k

#center,0.5,ayumi_seifuku_001.png,0
$voice,17307205
步美「『对对方抱有兴趣，是小小恋情的开始
』，二宫教授也是这么说的。我可以有所期待
吗？」
$k

大悟「不是说这个意思啦，真是的」
$k

#center,0.5,ayumi_seifuku_021.png,0
$voice,17307305
步美「欸呵呵♪」
$k

若槻看着嘴上生气的我，不由得咯咯的笑出声
来。
$k

#center,0.5,ayumi_seifuku_001.png,0
$voice,17307405
步美「…那，有什么想知道的呢？」
$k

她便依然维持着刚才的表情，双眼就这样目不转睛的凝视着我。
$k

大悟「那〜个…我想问啊……」
$k

步美「……」
$k

大悟「有没有，男朋友？」
$k

#center,0.5,ayumi_seifuku_004.png,0
$voice,17307605
步美「诶？」
$k

听了我的问题，她的眼睛惊成了点状。
$k

刚才一直在彻底的挖掘关于我这方面的隐私。
现在以牙还牙也是天经地义的吧。
$k

#center,0.5,ayumi_seifuku_141.png,0
$voice,17307705
步美「那…那个〜……」
$k

和预想的一样，若槻脸上绽开朵朵绯红，视线
也左右浮动着。和刚才的那副模样完全相反，
真是新奇。
$k

$voice,17307805
步美「二宫君，的话…那个……」
$k

…一边强忍着害羞 ，她轻轻地开了口。
$k

#center,0.5,ayumi_seifuku_150.png,0
$voice,17307905
步美「如果我回答『有』的话…会感到，沮丧
么…？」
$k

大悟「诶？」
$k

#center,0.5,ayumi_seifuku_141.png,0
$voice,17308005
步美「……」
$k

大悟「……」
$k

突然丢出微妙得有些不自然的重大的问题，食
堂当中好像只有我们周围的空间被与附近隔断
开来。
$k

#center,0.5,ayumi_seifuku_026.png,0
$voice,17308105
步美「啊…请…请不要在意！ 都怪我、说了
奇怪的话！」
$k

大悟「啊、嗯……」
$k

无法承受如此微妙的气氛，若槻像想糊弄过去
似的拼命摇着小手。…当然，从心情上来讲我
确实也想这么做。
$k

#center,0.5,ayumi_seifuku_003.png,0
$voice,17308205
步美「是啊，男朋友呢…」
$k

#center,0.5,ayumi_seifuku_002.png,0
$voice,17308305
步美「现在倒是没有。因为比起和一个男孩子
交往，和很多女孩子们一起谈天说地会更加开
心吧」
$k

大悟「啊…这样啊」
$k

#center,0.5,ayumi_seifuku_022.png,0
$voice,17308405
步美「…好了，到此结束！ 现在再也不接受任
何询问了〜！」
$k

#center,0.5,ayumi_seifuku_001.png,0
若槻就这样说着强行结束了对话。
$k
仔细思考的话，果然是突然问道『有男朋友吗
？』这种问题的我太失礼了呐…
$k

$next,120i_173i_3_3
