// １７４の選択肢集結。

#center,0.5,michiru_hakui_001.png,0
$voice,17401703
美知留「那么…差不多是华奈登场的时间了呐」
$k

习以为常的唇枪舌战也适当的告一段落，美知
留老师把身子转至床铺的方向。
$k

// ６６０１：優衣、华奈の朗読を聞く（华奈がいない）ワイプ。
#background,1.0,00006601.jpg,same,0
$cfinto,0,1

$voice,17401903
美知留「优衣〜〜〜不好意思啊，今天也请让
新人英语老师陪着你吧」
$k

优衣「……」
$k

// 効果音：５８００：ノック。
$se,00005800,NO
（咚咚）
$k

$voice,17402703
美知留「哦，说曹操曹操到了哟」
$k

// BGM ストップ。
$bgm,stop,YES

// ＢＧＭスタート。
$bgm,03,YES

// 保健室（昼）ワイプ。华奈スーツ。
#background,1.0,gakuen_hokenshitsu_hiru.jpg,same,0
#center,0.5,kana_suit_002.png,0
$voice,17402902
华奈「Hello〜小悟〜〜〜」
$k

大悟「华奈姐」
$k

轻敲房门后，快活的笑声在保健室内漾起涟漪。
$k

完全没有感受到一周的疲劳，华奈姐今天也是
兴致满满的将几本书本抱在胸前来到了这里。
$k

// 美知留白衣（左）。华奈スーツ（右）。
#character,0.5,michiru_hakui_001.png,erase,kana_suit_001.png,0
$voice,17403003
美知留「辛苦了」
$k

#right,0.5,kana_suit_002.png,0
$voice,17403102
华奈「小美，辛苦咯〜」
$k

#right,0.5,kana_suit_001.png,0
随后华奈姐便继续维持着刚才的笑容，和神山
攀谈了起来。
$k

// ＢＧＭストップ。
$bgm,stop,YES

// ＢＧＭスタート。
$bgm,07,YES

// ６６００：優衣、华奈の朗読を聞く（华奈がいる）。
#background,1.0,00006600.jpg,same,0
$cfinto,0,1

$voice,17404702
华奈「你好，小优」
$k

优衣「……」
$k

$voice,17404902
华奈「今天也来一起读这本书哦」
$k

优衣「……」
$k

$voice,17405102
华奈「我看〜看，昨天读到这里了……那我们
今天就从这一页开始哦」
$k

优衣「……」
$k

$voice,17405302
华奈「那么，开始咯」
$k

优衣「……」
$k

安适的空气中，回荡着华奈姐柔和的声音，和
书本翻页的声音相呼应。
$k

随着流畅的旋律吐出正确的发音。这和我们在
教室上课时候听到的别无二致。
$k

// 保健室（昼）。美知留（白衣）
#background,1.0,gakuen_hokenshitsu_hiru.jpg,same,0
#center,0.5,michiru_hakui_003.png,0
$voice,17405503
美知留「接下来…做些什么好呢……」
$k

看着这幅平和的光景，美知留老师也无法一如
往常只能叹了一口气。
$k

大悟「有什么挂心的事吗？」
$k

#center,0.5,michiru_hakui_004.png,0
$voice,17405603
美知留「不是，也算不上什么担心的事就是了」
$k

#center,0.5,michiru_hakui_003.png,0
$voice,17405703
美知留「…今天从学园长那里知会到无法保证
优衣能得到学分了」
$k

大悟「诶!? 这和之前说的不是不一样吗!?」
$k

即便压抑住声音，也不禁吃惊的反问起美知留
老师来。
$k

我知道的只是，神山的考试成绩良好的话就能
得到学分的。即便没有在课堂上出席也是。
$k

#center,0.5,michiru_hakui_004.png,0
$voice,17405803
美知留「我也，进行了反驳了呢」
$k

和焦急不已的我相反，美知留老师的语气意外
的很冷静。
$k

#center,0.5,michiru_hakui_003.png,0
$voice,17405903
美知留「实际上即便允许这种事，舆论貌似也
不会放过大做文章的样子」
$k

$voice,17406003
美知留「除此之外，其他学校也有同样情况的
学生申请编入学生序列的话，也会变得没有办
法拒绝的」
$k

$voice,17406103
美知留「…这样的话，这间保健室就会爆胎了
呐」
$k

大悟「……」
$k

…当然，这种问题并不重要。美知留老师的话
只是单纯地在挖苦而已。
$k

#center,0.5,michiru_hakui_004.png,0
$voice,17406203
美知留「所以…就算第一个学期睁一只眼闭一
只眼，从第二个学期开始还是希望能接受课程
教学的」
$k

#center,0.5,michiru_hakui_003.png,0
$voice,17406303
美知留「说到底还是希望为了不产生『例外』
做一些努力……这就是作为学园长所期望的」
$k

大悟「『为了不产生例外』吗……」
$k

$voice,17406403
美知留「虽然不能否定这确是理想的情况…不
过仔细认清下现实啊」
$k

美知留老师边说着这些变把目光投向华奈姐的
方向。
$k

从某种意义上来说，那种情形确实是『理想』
也说不定。毕竟就连华奈姐和美知留老师都无
法想象，更不用说其他的老师了。
$k

大悟「没有任何办法吗？」
$k

心中怀抱着不安的我，只能向美知留老师询问
了。
$k

#center,0.5,michiru_hakui_004.png,0
$voice,17406503
美知留「虽然不所知道会不会奏效，不过还是
有方法可以试试看的」
$k

#center,0.5,michiru_hakui_003.png,0
美知留老师大大的叹了一口气，抓了抓自己秀
丽的发丝。
$k

$voice,17406603
美知留「首先第一步非要弄得水落石出的事情
就是」
$k

#center,0.5,michiru_hakui_004.png,0
$voice,17406703
美知留「在优衣以前的学园生活当中，完全没
有找到任何原因给她造成了压力这件事」
$k

大悟「造成压力的因素一个都没有发现…？」
$k

#center,0.5,michiru_hakui_003.png,0
$voice,17406803
美知留「…当然，那是在『同班同学的正言一
概属实』的假定情况下的结果」
$k

$voice,17406903
美知留「优衣十分谨慎而且为人认真又诚实，
按打听到的来看决不是会被人厌恶的类型」
$k

#center,0.5,michiru_hakui_004.png,0
$voice,17407003
美知留「更不要说有那种成绩了。包括和人之
间的交往，完全不会在学园生活中感到有压力
的才对」
$k

大悟「确实……」
$k

这一席话在介绍神山的时候已经听过，同班同
学的话也是可以能充分的信任的不是吗。
$k

#center,0.5,michiru_hakui_003.png,0
$voice,17407103
美知留「那么，可以想到的可能性只有一个」
$k

美知留老师冲着我竖起了她的食指。
$k

#center,0.5,michiru_hakui_004.png,0
$voice,17407203
美知留「带给优衣压力的，是家庭问题啊」
$k

大悟「家庭吗…？」
$k

#center,0.5,michiru_hakui_003.png,0
$voice,17407303
美知留「某位学者的报告曾提到过，拒绝上学
的原因会有和朋友及老师关系恶化的可能」
$k

$voice,17407403
美知留「而说道招致『关系恶化』的原因，好
像就是家庭关系的不安定」
$k

$voice,17407503
美知留「就是说双亲不和，马马虎虎对待子女
的家庭里，是无法学到人际关系的技巧的道理
啊」
$k

大悟「原来如此」
$k

#center,0.5,michiru_hakui_004.png,0
$voice,17407603
美知留「所以拒绝到校生会从家庭离开，会和
有相同境遇的人一起过合宿生活。」
$k

#center,0.5,michiru_hakui_003.png,0
$voice,17407703
美知留「在那当中可以学习人际交往的技巧，
更能从家庭带来的压力当中解放出来」
$k

$voice,17407803
美知留「可以正常到校…这种事例好像很多」
$k

大悟「嗯〜」
$k

美知留老师的话让我频频点头称是。
$k

确实这种理论好像有它的合理性。因为归根到
底对人来说压力的最大来源还是人际关系。
$k

如果没有充分掌握便步入社会的话，会变得更
加强烈的感到压力的存在。
$k

…然而，可是。
$k

大悟「不过，神山的家庭里会造成这种压力吗
？ 明明是那么富裕的家族」
$k

#center,0.5,michiru_hakui_004.png,0
$voice,17407903
美知留「嘛，有钱人也会有有钱人的烦恼不是
吗。一般的庶民是无法理解的呢」
$k

大悟「这方面的情况还真是一清二楚呢，美知
留老师」
$k

#center,0.5,michiru_hakui_003.png,0
$voice,17408003
美知留「一清二楚就免了。这种情形不给我仔
细思考怎么行」
$k

大悟「是是」
$k

#center,0.5,michiru_hakui_004.png,0
$voice,17408103
美知留「…总而言之，想办法改变优衣所处的
环境是有必要的」
$k

#center,0.5,michiru_hakui_003.png,0
$voice,17408203
美知留「所幸的是考试已经结束，之后只需要
迎接暑假就行了。趁此机会进行『合宿』不是
刚刚好吗？」
$k

大悟「『合宿』是吗……」
$k

…双手抱肘稍稍考虑了下。
$k

原则上要进行『合宿』的话，应该就是在深山
的寺庙里生活啊、在没有水电气的场地野营啊
什么的吧……
$k

$voice,17408303
美知留「嘛，就算不像『合宿』那样大费周章
，在其他人的家里借宿的话也可以就是了。」
$k

大悟「那样的话，住在美知留老师的家里不就
好了嘛？」
$k

#center,0.5,michiru_hakui_002.png,0
$voice,17408403
美知留「教她赛马看看好了。那小家伙的话说
不定意外的能发笔横财呢」
$k

大悟「…会问这种事的我是个蠢货」
$k

看到放声狂喜的美知留老师，我深深认识到我
的提案是何等愚蠢。那已经不是引发压力那种
等级的问题了。
$k

// ＢＧＭストップ。
$bgm,stop,YES

// ＢＧＭスタート。
$bgm,17,YES

#center,0.5,kana_suit_002.png,0
$voice,17408502
华奈「那，我家怎么样？」
$k
大悟「诶？」
$k

华奈姐竟一副若无其事的样子插话进来。
$k

大悟「我们的谈话，听见了么？」
$k

#center,0.5,kana_suit_001.png,0
$voice,17408602
华奈「嗯，因为好像很有趣啊」
$k

…这么说着的华奈姐无忧无虑的露出了笑容。
嘛，『住下来』这种程度的事确实很有意思
就是。
$k

#center,0.5,kana_suit_002.png,0
$voice,17408702
华奈「那么，怎么样呢，来我家的话」
$k

大悟「你说『家里』的话，就要拜托今井叔叔
和阿姨了吧……」
$k

#center,0.5,michiru_hakui_003.png,0

我一边在脑海中浮现出那两人的面孔，一边开
始对美知留老师进行说明。
$k

大悟「…这主意意外的不错哟。华奈姐的双亲
，今井叔叔和阿姨他们都是很亲切的人呢そ」
$k

大悟「只要说明事情原委应该就能理解的，房
间的话，就用华奈姐之前使用的就好了」
$k

$voice,17408803
美知留「哼……」
$k

#center,0.5,kana_suit_003.png,0

$voice,17408902
华奈「不对哟，小悟〜」
$k

大悟「哈？」
$k

明明是自己的提案，可华奈姐却反而看上去有
些生气了。
$k

$voice,17409002
华奈「我说的『家里』可不是说『我的老家』
哦」
$k

$voice,17409102
华奈「是现在，我们住的家里面」
$k

大悟「现在，我们住的家…？」
$k

#center,0.5,kana_suit_004.png,0
$voice,17409202
华奈「所以啦〜是说现在，我和小悟住的，二
宫家的屋子啦」
$k

大悟「诶！？」
$k

#center,0.5,michiru_hakui_002.png,0

$voice,17409303
美知留「就这么定了！！」
$k

完全不给我考虑的时间，美知留老师作出了神
速裁断。
$k

华奈姐脸上也是笑开了花，照这个情形已经由
不得我提出反对了…
$k

……
$k

#hide,0.5

// ＢＧＭストップ。
$bgm,stop,YES

$next,175i_0629_mi
