// １８３の選択肢１。优衣好感度＋１
// 選択肢１を選んだ場合。（取り出す必要はない。）
$pfplus,40,1

#center,0.5,yui_outer_003.png,0
大悟「 这些，我想没有必要拿出来吧。来这个
家又不是为了进行学习合宿」
$k

优衣「……」
$k

温和的对她笑了笑，慢慢的抚摸着小优的小脑
瓜。
$k

也不是想否定学习的积极性，只不过也不能不
考虑华奈姐的心情。
$k

优衣「……」
$k

…接下来，我和华奈姐的想法能得到理解吗。
$k

$next,126i_183i_3
