// １８３の選択肢２。
// 選択肢２を選んだ場合。（優衣の意志に任せる。）

#center,0.5,yui_outer_003.png,0
大悟「你觉得该怎么办，小优？」
$k

还是应该由她的想法决定，我开始询问小优。
$k

优衣「……」
$k

过了许久。
$k

恐怕她的内心里，也有各种各样的考虑的迷惑
吧……
$k

$next,126i_183i_3
