// １９４の選択肢２。
// 選択肢２を選んだ場合。（洗濯を二回に分ける。）

大悟「衣服分成两次去洗好了。现是小优和美
知留老师的份，然后是我和华奈姐的份」
$k

大悟「这样行吗？」
$k

#center,0.5,yui_inner_003.png,0
优衣「（摇头摇头）」
$k

大悟「诶？」
$k

自己觉得还算是个好主意的，不过好像小优不
太喜欢就是了。
$k

大悟「难道说，讨厌自己的内衣被别人碰倒么
……」
$k

大悟「我想也不至于有这种程度的洁癖呢…如
果那样的话，只有自己来洗了……」
$k

优衣「……」
$k

#center,0.5,yui_inner_169.png,0
优衣「（点头）」
$k

大悟「哦？」
$k

我正叽里咕噜的嘟囔着的时候，小优捎带羞涩
的点了点头。
$k

大悟「自己来洗吗？」
$k

#center,0.5,yui_inner_003.png,0
优衣「（点头）」
$k

这一次比之前点头的强度还要强烈。
$k

大悟「这样的话，小优要洗的衣服就拜托小优
了呢」
$k

虽然还不太清楚她想说什么，总之暂且用这种
方式解决掉好了。
$k

$next,129i_194i_3

