// 選択肢２を選んだ場合。（步美のテクニックが見られないから。）
// 步美好感度（＋１）
$pfplus,50,1

大悟「看不到小步美的粗缝技术了不是吗。明明是了解手工部王牌实力的机会的」
$k

#center,0.5,ayumi_seifuku_021.png,0
$voice,20904105
步美「诶呵呵…怎么会，反正又做不出什么特别的东西哟」
$k

小步美用开心的微笑回答了我夸张的遗憾。
$k

#center,0.5,ayumi_seifuku_002.png,0
$voice,20904205
步美「实际上制作的时候要听我的指示，大悟君和小优听从指示就行了」
$k

大悟「明白」
$k

#center,0.5,ayumi_seifuku_001.png,0
$voice,20904305
步美「也不是什么很困难的工作，所以想做很快就能成功的……」
$k

$voice,20904405
步美「…总之，看今天的裁剪了呢。如果这部分能圆满完成的话，粗缝就没有什么好辛苦的了」
$k

小步美的表情稍稍严肃了起来。
$k

既然我来给她帮忙，工作不好好完成可不行呐。
$k

$next,135i_209i_3
