﻿// １５２：同棲の経緯　６月２８日（木）　午前７時００分　华奈の部屋
#screen,1.0,eye_background.jpg,eye_day_0628.png,eye_time_am07.png,eye_loc_kana_heya.png,eye_min_00.png,0
$k

// 日付設定。
$pfinto,1,6
$pfinto,2,28

$bgm,13,YES

// 华奈の部屋（昼）
#background,1.0,kana_heya_hiru.jpg,erase,0
#show,0.5

大悟「……」
$k

$voice,15200002
华奈「嗬〜…，呼〜……」
$k

大悟「……」
$k

$voice,15200102
华奈「嗬〜〜…、呼〜〜……」
$k

大悟「…唉」
$k

听着身旁睡得正香的吐吸，只能从心底
发出一次大大的叹息。
$k

眼前的，正是太阳晒屁股也雷打不动
睡得醉生梦死的华奈姐。
$k

大悟「华奈姐，早晨了，快起来！」
$k

$voice,15200002
华奈「嗬〜…、呼〜……」
$k

大悟「早晨了，快 起 来 ！」
$k

$voice,15200102
华奈「嗬〜〜…、呼〜〜……」
$k

大悟「……」
$k

…毫无反一个脑。即使在耳边大声嘶吼，
打乱如此规整的鼻息的可能性依旧为零。
$k

大悟「真是败给你了…明明今天也有测验的……」
$k

一边和平日清晨一样感到无力，
一边忽然回想起至今为止发生的事。
$k

对，从自己还是孩子时所知道的七夕
之夜开始，到现在在这里深深叹息的
我存在于此的经纬履历都……。
$k

// 全面白。
#background,1.0,white.jpg,same,0

小时候觉得我很可爱的邻居的大姐姐。
$k

名字叫今井华奈（いまい・かな），自
懂事起就一直在一起。
$k

虽然不知道是因为原本彼此家族成员有过交往，
还是因为我和华奈姐的关系连带发展家族友谊
的缘故，
$k

不管怎么说我和华奈姐就像亲姐弟一般关系良
好，同时二宫家（我家）和今井家也是深交。
$k

…当华奈姐告诉我为了成为英语老师而要到县
外的大学就读时，是那个七夕祭典的夜晚。
$k

只是为了追逐这个梦想所以我没有更为详细的
打听，只是记得，华奈姐的眼中没有一丝犹豫
和迷惘。
$k

于是，第二年的春天。
$k

华奈姐漂亮的被志愿大学录取，从这条街启程
了。
$k

…当然，决不是从此以后再也无法和她见面了
的意思。

$k

就算说是『县外的大学』，在交通工具发达的
现在也不是什么太长的距离，充其量不过是新
干线几站的车程而已。
$k

华奈姐正月和盂兰盆会一定会回家归省，看到
正处在成长期的我也『又长高了不少呢』地夸
奖了很多次。
$k

…以我的立场来说，看到每次回来都变得更加
好看的她，思春期的胸口的心跳便会愈为加速。
$k

就这样日历翻过了四年的岁月。
$k

华奈姐如愿以偿获得了教职，作为英语老师回
到这条街道。
$k

而且赴任地就是我就读的青叶（あおば）学园。
还追加教授我们班英语课程这样的惊喜。
$k

那么，…究竟是该说幸运呢，还是该说不幸呢。
$k

我和华奈姐的关系变化，绝非仅此而已。
$k

$bgm,stop,YES

$bgm,17,YES

// 自宅の玄関（夜）。华奈（春服）。
#background,1.0,jitaku_genkan_yoru.jpg,shiro_waku.png,0
#center,0.5,kana_harufuku_003.png,0

$voice,15200802
华奈「这下可不得了了呢，小悟！」
$k

大悟「唔…嗯」
$k

$voice,15200902
华奈「二宫的叔叔和阿姨，不是把小悟一
　个人丢下来去美国了吗？ 让人吓了一跳了
　呢，真是」
$k

大悟「嘛，虽然我也吃了一惊……」
$k

这就是，华奈姐回到这条街的首先对我说的
第一句话。
$k

我的双亲突然到海外赴任，传入亲交甚深的
今井家人耳中也不是什么令人奇怪的事。
$k

#center,0.5,erase,0

我的父亲，是国内小有名气的心理学教授，而
母亲则是他的助手。
$k

两人的研究成果多少都以论文和著书的形式发
表，被称为是在今后大有作为的学者。
$k

…于是，这两位接受了美国某大学聘为客座教
授的邀请。
$k

无论是父亲还是母亲都非常开心，完全无视亲
爱的独子在今年春天奔赴那所大学去了。
$k

当然，我也不时小孩子了，双亲的事由我也十
分理解，虽然一个人生活什么的倒也没什么问
题……
$k

…不过为什么今井的叔叔和阿姨，好像比亲生的还
要担心我的样子。
$k

// キャラ登場。
#character,0.5,same,kana_harufuku_001.png,same,0

$voice,15201002
华奈「从现在开始由我来照顾你了呢，小悟」
$k

两人要说服我让华奈姐和我同居。
$k

大悟「没…没问题的啦、我一个人也能做些事
　的……」
$k

#character,0.5,same,kana_harufuku_004.png,same,0

$voice,15201102
华奈「才不是没问题哟。因为一人生活可是比小
　悟想象的还要麻烦很多的」
$k

$voice,15201202
华奈「打扫卫生、清洗衣物、比价购物、解决
　伙食……有一大堆非做不可的事情哟？」
$k

大悟「话、话是这么说……」
$k

#character,0.5,same,kana_harufuku_001.png,same,0

$voice,15201302
华奈「所以…呐，小悟」
$k

$voice,15201402
华奈「不要那么异常的客气，全 部包在我的
身上就好了哟！」
$k

大悟「唔…嗯……」
$k

没想过要『异常客气』的。
因为自己也有做不到的事情，想想还是受今井
家照顾吧。
$k

但是，那就突然『和华奈姐同居』实在是
有点…和『青梅竹马的姐姐幼なじみのお姐』一起
生活的话……。
$k

…想不要去意识到这种事着实有些勉强。因为现在，
只要和她双目相接胸口就像要裂开似的鼓动。
$k

#character,0.5,same,kana_harufuku_002.png,same,0

$voice,15201502
华奈「那么，这就去准备做饭喽」
$k

大悟「嗯，拜托你了」
$k

不论我的思慕是否被知晓，华奈姐可爱的微笑
依旧出现在二宫家的屋内。
$k

// 全面黒。
#background,1.0,black.jpg,erase,0

…然而，就在感受到胸口的鼓动仅仅数小时后。
$k

我，知道了这同居生活所隐藏着的真正的意图。
$k

// 自宅の食卓（夜）白枠。
#background,1.0,jitaku_shokutaku_yoru.jpg,shiro_waku.png,0

$voice,15201602
华奈「呀——！」
$k

大悟「发生什么事了！？」
$k

// キャラ登場。
#character,0.5,same,kana_harufuku_150.png,same,0

$voice,15201702
华奈「火…，火……开始嘭得炸开了！嘭嘭的！」
$k

大悟「……没事的，冷静下来的话，就这种程度而已」
$k

#character,0.5,same,kana_harufuku_176.png,same,0

$voice,15201802
华奈「呀——！」
$k

#character,0.5,same,kana_harufuku_150.png,same,0

$voice,15201902
华奈「掀起来了、掀起来了！　锅盖被
　咕嘟咕嘟地掀起来了呀！」
$k

大悟「把火力调小一点就没关系啦」
$k

// 効果音：２００７：ガラス割れる（１）
$se,00002007,NO
（噶当！）
$k

#character,0.5,same,kana_harufuku_176.png,same,0

$voice,15202002
华奈「啊呀ーっ！」
$k

大悟「啊啊，不要靠近很危险的！」
$k

#character,0.5,same,kana_harufuku_141.png,same,0

$voice,15202102
华奈「对不起……」
$k

大悟「没事的，一个两个杯子而已。
　不管这个，手没有被割伤吧？要用创口贴包
  一下吗？」
$k

#character,0.5,same,kana_harufuku_001.png,same,0

$voice,15202202
华奈「（摇头）没关系的。谢谢你，小悟…」
$k

#background,1.0,black.jpg,erase,0
//$wait,1.0

// 自宅の食卓（夜）。华奈（春服）。白枠。
#background,1.0,jitaku_shokutaku_yoru.jpg,shiro_waku.png,0
// キャラ登場。
#character,0.5,same,kana_harufuku_001.png,same,0

$voice,15202302
华奈「好了，快点吃吧！」
$k

大悟「……」
$k

华奈「……」
$k

大悟「华奈姐，提一个问题可以么？」
$k

#character,0.5,same,kana_harufuku_021.png,same,0

$voice,15202502
华奈「什么呢？」
$k

大悟「味道…尝过了么？」
$k

#character,0.5,same,kana_harufuku_003.png,same,0

华奈「……」
$k

#character,0.5,same,kana_harufuku_002.png,same,0

$voice,15202702
华奈「…稍微，咸了一点吧？」
$k

大悟「不是那种程度的问题……」
$k

#character,0.5,same,kana_harufuku_162.png,same,0

$voice,15202802
华奈「实在是对不起……」
$k

食桌上陈尸着飘着焦臭味的黑色团块。
华奈姐脸上浮现出反省中的表情，而我的脸
则是有些微微的抽搐。
$k

宛如暴风过境的厨房景象，好像在如实地讲
述华奈姐的料理水准。
$k

#background,1.0,jitaku_ima_yoru.jpg,same,0

不用说，其他的情况下也是……。
$k

$voice,15202902
华奈「咿呀——! 浴盆的水满出来了啊——！」
$k

大悟「……」
$k

$voice,15203002
华奈「咿呀——!被褥从壁橱里掉出来了啊！」
$k

大悟「……」
$k

$voice,15203102
华奈「咿呀——! 厕纸全部用完了啦！！」
$k

大悟「……」
$k

$voice,15203202
华奈「咿呀——! 热水瓶里的热水没有了啦！」
$k

大悟「……」
$k

…每当她的悲鸣飚起，我的推测离真相就更近了一步。
$k

// 全面黒。
#background,1.0,black.jpg,erase,0
//$wait,1.0

// 自宅の居間（夜）。华奈（春服）。白枠。
#background,1.0,jitaku_ima_yoru.jpg,shiro_waku.png,0
// キャラ登場。
#character,0.5,same,kana_harufuku_003.png,same,0

大悟「华奈姐，没有做过什么家务事的吧？」
$k

#character,0.5,same,kana_harufuku_162.png,same,0

$voice,15203302
华奈「对不起……」
$k

虽然我的质问略显失礼，不过华奈姐没有任何
反驳，只是老老实实的点头而已。
$k

大悟「大学时代不是一个人生活的吗？」
$k

#character,0.5,same,kana_harufuku_002.png,same,0

$voice,15203402
华奈「（摇头），住的是学生宿舍哟。虽然真
  的很想一个人生活的，可是母亲强制性的把
  入住手续办好了」
$k

大悟「…这判断是何等英明，今井阿姨大人……」
$k

#character,0.5,same,kana_harufuku_021.png,same,0

$voice,15203502
华奈「但是呢，我想什么都不做肯定是不好的，
  所以只要有时间就给女舍监帮忙的呢」
$k

大悟「『帮忙』是指？」
$k

#character,0.5,same,kana_harufuku_002.png,same,0

$voice,15203602
华奈「尝料理的味道啊，擦桌子啊，喊着『开饭
  喽』来招呼大家吃饭啊」
$k

大悟「…这判断也是何等英明，女舍监大人……」
$k

虽然华奈姐是那么愉快的诉说自己的经历，对
于内容我却只能致以深深的叹息。
$k

大悟「总之，家务事由我负责。即便是华奈姐，
  工作开始以后也会变得很忙的」
$k

#character,0.5,same,kana_harufuku_141.png,same,0

$voice,15203702
华奈「对不起，小悟…」
$k

#character,0.5,same,kana_harufuku_026.png,same,0

$voice,15203802
华奈「还有，谢谢……」
$k

华奈姐一边脸上一副抱歉的样子，一边稍微安
心似的叹了口气轻轻的低下了头。
た。
$k

肯定会感到有些不安的吧。作为年长的女性和
步入社会的成人来说不定有些过于奋力拼搏了。
$k

任谁都会有一两件不擅长的事物，宁愿将它在
另一人前暴露出来，至少说明两者有着一定程
度的亲密感情作为前提。

$k

…我就以这样的理由让自己内心接受现实，并
开始对和华奈姐一起的新生活充满了期待。
$k

话虽如此，但是啊……。
$k

$bgm,stop,YES

// 全面白。
#background,1.0,white.jpg,erase,0

$bgm,13,YES

// 华奈の部屋（昼）
#background,1.0,kana_heya_hiru.jpg,same,0

$voice,15200002
华奈「嗬〜…，呼〜……」
$k

大悟「……」
$k

$voice,15200102
华奈「嗬〜〜…、呼〜〜……」
$k

大悟「…唉」
$k

…只有这个，对我来说是个大麻烦。
$k

不会做家事就算了，不会做料理我
也能接受。
$k

反正只要我带头做的话就能完成的，事到如今
多多少少也感受到可以能在生活上支持华奈姐
的充实感。
$k

…不过，和她在一起的生活真正的麻烦，就在
这里。
$k

每天清晨看到这幅光景，打从心底起的郁闷便
无法平复。
$k

那是因为，没错……，
$k

华奈姐总是异常的『早晨迷糊』。
换言之，是抓狂到极限都不为过的『起床恶习』。
$k

恐怕今井的叔叔和阿姨，就是因为这个缘故把女儿
『强推』给了我吧。
$k

绝对是为了让自己从这份苦差事中逃出升天，
利用『同居生活』之类的甜言蜜语逃避责任。
$k

之前，在街上偶然和今井阿姨碰了面，那个时
候也是被回以那种真不好意思的谄笑。
$k

虽然，长年受这种情形所苦可以理解……不过
现在，对阿姨的印象除了恩断义绝的恶鬼以外
别无其他。
$k

简直就是『千年之恋凋于一瞬』。
$k

如果实现愿望需要代价的话，我现在，确实是
正在支付它不是么。
$k

$next,153i_0628_ka
