﻿// １５７　・・・　期末テスト　６月２８日（木）　午前８時４０分　教室
#screen,1.0,eye_background.jpg,eye_day_0628.png,eye_time_am08.png,eye_loc_gakuen_kyoushitsu.png,eye_min_40.png,0
$k

$bgm,15,YES

// 教室（昼）。
#background,1.0,gakuen_kyoushitsu_hiru.jpg,erase,0
#show,0.5

$voice,15700007
数学教师「好了各位，请快点就坐，马上开始
进行日本史考试。」
$k

$voice,15700107
数学教师「限定时间为60分钟，请各位不要
放弃全力坚持到最后一刻！」
$k

$voice,15700207
数学教师「那么，开始」
$k

老师的凛然宣言话音刚落，教室内瞬间弥漫着
焦躁的紧张感。
$k

期末考试的第四天，就是最后一天。今天的测
试科目是日本史和化学。
$k

自动铅笔刷刷的游走声，和橡皮擦咯哧咯哧的
嘶鸣交相呼应。
$k

平常耳中绝不会在意的声响，在这安静的环境
中却难免有些意识过剩。
$k

为了所谓考试所创造的非日常的空间，剑拔弩
张的氛围，和学生们不怕死的信念。
$k

…此刻却在我埋头于一个个问题的时候深深地
刺激着我的皮肤。
$k

// 全面白。
#background,1.0,white.jpg,same,0
//$wait,1.0

// 教室（昼）
#background,1.0,gakuen_kyoushitsu_hiru.jpg,same,0

$voice,15700307
数学教师「好了，到此为止」
$k

（呼〜〜〜）
$k

大家都合着老师的信号发出一声长叹，教室内
的紧张氛围也稍微和缓了下来。
$k

环顾周围的情况，虽然是有因为答题栏全部填
满而沉浸在满足感中的家伙，有为自己学习不
力而怨天尤人的人等等的一幅众生相。
$k

可考试还有一门，为了集中精力，也总不能纠
结于这门日本史的考试结果吧。
$k

……于是乎，今天的考试也按着它的节奏有序
的进行着。
$k

// 全面白。
#background,1.0,white.jpg,same,0
//$wait,1.0

// 教室（昼）
#background,1.0,gakuen_kyoushitsu_hiru.jpg,same,0

// 効果音：４２００：チャイム
$se,00004200,NO
（噔ー咚ー噔ー咚ー）
$k

$voice,15700505
国语教师「好了，时间到。诸位真是辛苦了」
$k

（啊〜〜〜）
$k

第二门化学考试也顺利结束，发出的叹息声到
目前为止也是最大的一次。
$k

$voice,15700705
国语教师「唉…虽说考试答卷从明天开始就会
依次返还」
$k

$voice,15700805
国语教师「不过达不到一定成绩的人要接受补
考，如果补考也失利的话还需要在暑假接受补
习。」
$k

$voice,15700905
国语教师「关于这方面的预定计划会在下一周
发表，有自知之明的人请注意下日程安排」
$k

（好〜〜〜）
$k

暂时放下心来的学生们，听到的却是讲坛上女
老师很等严厉的威慑。现在好像还不是沉浸在
自由的解放感当中的时候。
$k

…嘛，总而言之，就此期末考试日程已经全部
结束。
$k

不论是从时间上还是精神上来说，真正的夏天
已经开始。
$k

……。
$k

#hide,0.5

$bgm,stop,YES

$next,158i_0628_mi



