﻿// １６０　・・・　华奈の個人授業　６月２８日（木）　午後１時３０分　保健室

// 効果音：５８００：ノック
$se,00005800,NO
（咚咚）
$k

#center,0.5,michiru_suit_001.png,0
$voice,16000103
美知留「哦哦，说曹操曹操就到」
$k

#center,0.5,erase,0

// ＢＧＭスタート。
$bgm,03,YES

#center,0.5,kana_suit_002.png,0
$voice,16000302
华奈「Hallo〜，小悟」
$k

大悟「华奈姐」
$k

心情很好的华奈姐抱着几本书走了进来。
$k

之前一直为美知留老师的毒气所毒害的保健室
里，现在感觉好像有一缕圣光照射了进来。
$k

// 美知留スーツ（左）。华奈スーツ（右）
#character,0.5,michiru_suit_001.png,erase,kana_suit_001.png,0
$voice,16000403
美知留「哦哦，辛苦了，华奈」
$k

#right,0.5,kana_suit_021.png,0
$voice,16000502
华奈「小美，辛苦了〜」
$k

#left,0.5,michiru_suit_002.png,0
$voice,16000603
美知留「今天做些什么啊？」
$k

#right,0.5,kana_suit_001.png,0
$voice,16000702
华奈「那〜个嘛〜…喏，看呀看呀」
$k

大悟「嗯？」
$k

华奈姐为了回答美知留老师的疑问，将胸前抱
着的书拿到了眼前。
$k

书的封面上所写着的标题是……。
$k

#left,0.5,michiru_suit_003.png,0
$voice,16000803
美知留「『As you Like it』　……。威廉・莎
士比亚的『皆大欢喜』吗」
$k

#right,0.5,kana_suit_022.png,0
$voice,16000902
华奈「没〜错！ 今天要和小优一起读这个的
哟〜！」
$k

大悟「『皆大欢喜』……这个确实在莎士比亚的
作品中也是以喜剧闻名的呢」
$k

#right,0.5,kana_suit_002.png,0
$voice,16001002
华奈「嗯。所以，我想小优肯定会喜欢的吧〜」
$k

『皆大欢喜』，在莎士比亚作品种也算是极具代
表性的喜剧。
$k

讲述的是以奥兰多和罗瑟琳为中心，在阿登森
林展开的恋爱故事。结局不用说，当然是大团
圆的Happy End。
$k

#right,0.5,kana_suit_001.png,0
$voice,16001102
华奈「那么，我们差不多可以开始了吧？」
$k

华奈姐很高兴得说道，同时再次将那本书很宝贵
似的抱在胸前。
$k

#left,0.5,michiru_suit_021.png,0
$voice,16001203
美知留「哦，请多关照」
$k

美知留就这样轻轻抚摸着华奈姐的头，就像对待可爱的
妹妹般露出了温柔的笑容。
$k

#right,0.5,kana_suit_022.png,0
$voice,16001302
华奈「我来打搅咯〜〜〜」
$k

// ６６００：优衣、华奈の朗読を聞く（华奈がいる）
#background,1.0,00006600.jpg,same,0
$cfinto,0,1

$voice,16001402
华奈「你好，小优」
$k

优衣「……」
$k

$voice,16001602
华奈「今天想和小优看这本书，就从图书馆借
过来了哟。」
$k

优衣「……」
$k

$voice,16001802
华奈「你看，这是莎士比亚的『As you like 
it』。小优有没有读过？」
$k

优衣「……」
$k

$voice,16002002
华奈「虽然读过很多次译本，不过读原版我还
是第一次呢」
$k

优衣「……」
$k

$voice,16002202
华奈「果然原版和译本有很多不同呢…呵呵，
觉得有些期待呢不是吗，小优♪」
$k

优衣「……」
$k

$voice,16002402
华奈「那我就要开始咯。如果有什么听不懂的
地方的话，尽管可以问我哦」
$k

优衣「……」
$k

$voice,16002602
华奈「『As you like it』William 
Shakespears．．．」
$k

// ＢＧＭストップ。
$bgm,stop,YES

// 全面白ワイプ。
#background,1.0,white.jpg,same,0

// ＢＧＭスタート。
$bgm,07,YES

// ６６００：优衣、华奈の朗読を聞く（华奈がいる）
#background,1.0,00006600.jpg,same,0
$cfinto,0,1

在连时间仿佛都要停止般的宁静中，只有华奈
姐清澈的嗓音在轻轻的回响着。
$k

准确无误的发音和流动着的旋律。那显然是和
平常截然不同的，英语教师时的身影。
$k

…华奈姐的个人授课。
$k

那是为了继续到保健室就学的神山同学而进行
的。
$k

通常，对待保健室就学者的话，一般的教职员
都会与其保持一定的距离。要说为什么的话，
那是因为这是件还没有被世人所认同的事。
$k

保健室就学者是每次来到学校都会报告身体不
适，而且将自己困在保健室里无法脱身的人。
$k

他们，她们确实肯定有着因某些事物造成的创
伤…但可悲的是，现在的教育环境将其作为包
袱来对待。
$k

特别是非义务教育的课程的话，也听说过有学
校劝其自主退学的事情发生。
$k

即便是物理性质上来到学校，授课时没有出席
便会作旷课处理，届时也就没有办法获得毕业
所必需的学分。
$k

…站在学校的角度来看的话着这种学生毫无存
在价值，只会指导一些像保健室就学之类的其
他的途径。
$k

如果是那样的话，神山同学的情况又会是如何
呢。
$k

她和其他类型的保健室就学者相比，可以说是
得天独厚到远远的好过这些人。
$k

要说为什么的话……。
$k

// 保健室（昼）。美知留（白衣）。
#background,1.0,gakuen_hokenshitsu_hiru.jpg,same,0
#center,0.5,michiru_hakui_003.png,0
$voice,16002703
美知留「这些，想看看吗？」
$k

大悟「是什么？」
$k

……听到这句悄悄话突然拾起目光的我所看到
的，是美知留老师递到我眼前的几份文件。
$k

$voice,16002803
美知留「优衣的期末答卷。从各科老师那里拿
来试卷，在这里参加考试的」
$k

大悟「……」
$k

答题纸上排列着一排排小小的文字。仔细的写
着算式、英文、说明文……。
$k

…只就我的判断看来，那些都没有错误。
$k

大悟「几乎都是满分嘛…」
$k

#center,0.5,michiru_hakui_004.png,0
$voice,16002903
美知留「…没错吧？」
$k

即便尽可能的压低声音，还是忍不住说出充满
惊讶和感叹的话语。
$k

另一边，看看美知留老师……
$k

#center,0.5,michiru_hakui_003.png,0
$voice,16003003
美知留「……」
$k

…既没有满足感，也没有摆出一副十分惊讶的
面孔。只是托腮让手指戳着脸颊，将视线投在
其他的地方。
$k

大悟「怎么会有这样的事，不会是作弊得来的
分数吧…」
$k

#center,0.5,michiru_hakui_004.png,0
$voice,16003103
美知留「当然啦，我也有好好监督着的」
$k

大悟「同班同学应该也不会在事前就把问题告
诉她的吧……」
$k

#center,0.5,michiru_hakui_003.png,0
$voice,16003203
美知留「优衣是和其他人按相同的日程安排参
加考试的。泄题这种事业根本不可能发生啊。」
$k

大悟「……」
$k

就算尝试找出可能性，还是没有办法去解释。
$k

如果真的有唯一的正确答案的话，那就是这次
考试是仅凭神山同学自己的能力解答的。她的
这样的学力可以说已经十分突出了。
$k

即使不出席课堂也毫无影响，还能得到近乎完
美的解答，她简直就像是天才一样。
$k

大悟「…不过，这样对美知留老师不觉得是一
件好事吗？」
$k

我多多少少还有些兴奋，边向眼前的美知留老
师提出问题。
$k

大悟「确实只要考试成绩不错的话就能拿到学
分了不是吗？ 这个分数的话，其他的老师也
不会有什么异议吧」
$k

$voice,16003303
美知留「……」
$k

$voice,16003403
美知留「…嘛，应该是这样吧」
$k

大悟「诶？」
$k

为什么美知留老师的表情没有高兴起来。在她
看来，这种情形的展开明明应该是十分理想的
才对。
$k

#center,0.5,erase,0
…之前也说明过了，一般情况下，保健室就学
者无法得到学分。要问为什么，自然是因为教
师授课被全部旷掉了。
$k

可话又说回来，实际上这也不是用明文规定下
来的事项。说到底还是凭习惯上的经验进行决
定的。
$k

关于最终学分是否发放的问题…还是由各校的
代表人物负责裁决的，到现在为止也有各种各
样的案例。
$k

只是，最近果然还是将保健室就学者作旷课处
理的情形比较多，神山虽然好像也会受到这种
对待的……
$k

…不过教师群中有一人提出了反对，那就是美
知留老师。
$k

在职员会议上强调保健室就学的意义…同时把
其他学校将其作为拒绝学生就学和中途劝退之
前的防波堤的例子进行说明，
$k

既拿其它教师的弱点进行威胁，又凭借自傲的
口才和腕力强迫其他人就范……
$k

#center,0.5,michiru_hakui_006.png,0
$voice,16003503
美知留「…那边的，不要给我夸张过程，扭曲
事实」
$k

大悟「不过到哪儿都能听见这种传闻就是了」
$k

#center,0.5,michiru_hakui_005.png,0
$voice,16003603
美知留「『美知留老师热心的说服让其他老师
阵容潸然泪下』…至少给我这么去讲」
$k

大悟「好的好的」
$k

#center,0.5,erase,0
…虽说有些多余的插曲插入，但不管怎么说多
亏了美知留老师的『热心说服』，可以获得一项
保证。
$k

也就是说……
$k

『定期考试的成绩良好的话，可以让神山同学
获得学分』这件事。
$k

即是说一般情况下必须要在课程中出席才能获
得的学分，她只需要通过考试就可以获得了。
$k

和其它拒绝来校和保健室就学的事例想必，这
可以说已经是得到了不少的恩惠。
$k

所以这一次美知留老师应该对这一次的考试结
果非常满意，也可以傲气十足的大吹大擂一番
才对……
$k

#center,0.5,michiru_hakui_003.png,0
$voice,16003703
美知留「……」
$k

…她的脸上，却看不到这种时候的表情。
$k

不能说是不满，用不安来形容亦不合适……
也无法用语言表达，脸上夹杂着的是如此复杂
的表情。
$k

大悟「有什么担心的事么…？」
$k

#center,0.5,michiru_hakui_004.png,0
$voice,16003803
美知留「啊…没有，不是这个意思啊」
$k

美知留老师即便是被我询问，也是和平常不同
句尾有些含糊。
$k

#center,0.5,michiru_hakui_003.png,0
$voice,16003903
美知留「考试的结果…还是不要给华奈看到比
较好吧」
$k

大悟「诶？」
$k

$voice,16004003
美知留「不论是谁，都会去相信自己的行动是
有意义的」
$k

大悟「……」
$k

// ６６００：优衣、华奈の朗読を聞く（华奈がいる）ワイプ。
#background,1.0,00006600.jpg,same,0
$cfinto,0,1

…静静地将目光转向华奈姐。
$k

和先前一样，以正确的发音和流动般的旋律朗
读着书本。怎么看都像是比神山还要着迷的样
子。
$k

…虽然之前已经说明了美知留老师为神山同学所做
出的努力，
$k

不过与之相比，华奈姐却是以完全不同的方法守护
着神山同学。
$k

华奈姐知道校内有保健室就学者这件事。已经足够
让这位新任教师的热情熊熊燃烧了。
$k

如果是因为某些理由无法进入教室，因而旷课而无
法完成学业的话……
$k

// 全面黒。
#background,1.0,black.jpg,same,0
$voice,16004102
华奈『大家去保健室，给神山同学上课怎么样
？』
$k

（哈 哈 哈 哈……）
$k

…从美知留老师那里听说，华奈姐的发言好像
让老手教师群体不禁失笑。
$k

当然，华奈姐也不是开玩笑的意思，而是表现
对教育的真挚的认真态度，
$k

可是却没有得到其他教师的理解。
$k

只有一个人，只有美知留老师吗……
$k

$voice,16004303
美知留『正合我意哟，今井老师。有空闲的话
就好过来给优衣上课吧』
$k

$voice,16004402
华奈『啊…好的，请多指教，海堂老师！』
$k

// ６６００：优衣、华奈の朗読を聞く（华奈がいる）フェード。
#background,1.0,00006600.jpg,same,0
$cfinto,0,1

自那之后，每天华奈姐便开始在下课后到保健
室来。
$k

不过即便说是个人授课，也只不过是听华奈姐
朗读课本和课外书籍而已。神山同学也没有什
么变化。
$k

这种行为真的有意义吗…果真帮得上神山同学
的忙吗……。
$k

…就现状来说，很难做出答复。
$k

// 保健室（昼）フェード。美知留（白衣）。
#background,1.0,gakuen_hokenshitsu_hiru.jpg,same,0
#center,0.5,michiru_hakui_003.png,0
大悟「…是说，这一次的考试结果吗」
$k

#center,0.5,michiru_hakui_004.png,0
$voice,16004503
美知留「至少在学习能力方面有点那个呐」
$k

美知留老师虽然用的措辞十分含糊，不过想说
的事我是理解得很清楚的。
$k

#center,0.5,michiru_hakui_003.png,0
$voice,16004603
美知留「我喜欢华奈这个人」
$k

$voice,16004803
美知留「经常在想如果有机会的话就夺去那水
润的双唇呢」
$k

大悟「那…那种事，不要一脸认真地大放厥词
啊！」
$k

#center,0.5,michiru_hakui_001.png,0
$voice,16004903
美知留「…所以嘛」
$k

看着面对突然到来的爆炸性宣言而手忙脚乱的
我，美知留老师稍微松了松嘴角继续说道。
$k

$voice,16005003
美知留「至于优衣，在下次考试之前非要教会
她『对待他人的方式』不可呢」
$k

大悟「哦……」
$k

#center,0.5,michiru_hakui_002.png,0
$voice,16005103
美知留「那么，差不多也到时间了咯。华奈」
$k

$voice,16005202
华奈「好〜〜〜的」
$k

瞥了一眼始终，美知留老师便慢慢站起。与此
同时，从床铺那里也传来了华奈姐满足似的声
音。
$k

// ６６００：优衣、华奈の朗読を聞く（华奈がいる）ワイプ。
#background,1.0,00006600.jpg,same,0
$cfinto,0,1

$voice,16005302
华奈「今天就到这里结束吧，小优」
$k

优衣「……」
$k

$voice,16005502
华奈「真有趣呢，罗瑟琳竟然女扮男装了诶」
$k

优衣「……」
$k

$voice,16005702
华奈「那么明天也要一起读哟♪」
$k

优衣「……」
$k

// 保健室（昼）ワイプ。
#background,1.0,gakuen_hokenshitsu_hiru.jpg,same,0

// 効果音：５８００：ノック
$se,00005800,NO
（咚咚）
$k

大悟「啊…来了」
$k

估算授课结束的时间，敲门声今天第三次让保
健室内的空气为之振动。
$k

#center,0.5,maid_normal_003.png,0
$voice,16005906
女仆「我来迎接优衣小姐的」
$k

大悟「你好…辛苦了」
$k

敲门的正是神山家的女仆。简直就像透视房内
情况一般掌握好了来保健室的时间。
$k

// 美知留白衣（左）。女仆（右）。
#character,0.5,michiru_hakui_001.png,erase,maid_normal_003.png,0
$voice,16006003
美知留「您辛苦了」
$k

和对待我的态度完全是两码事，美知留老师一
本正经的和女仆寒暄起来。
$k

$voice,16006106
女仆「请问有没有出现什么异常吗？」
$k

$voice,16006203
美知留「没、并没有什么特别的……」
$k

#right,0.5,maid_normal_169.png,0
$voice,16006306
女仆「这样啊」
$k

感觉她的声音仿佛就像用机械音回答一般。可
能是不允许露出表情的吧。
$k

// 优衣制服（左）。女仆（右）。
#character,0.5,yui_seifuku_003.png,same,maid_normal_003.png,0
$voice,16006406
女仆「优衣小姐」
$k

而且女仆就这样一直保持面无表情的状态，向
床铺走去。
$k

优衣「……」
$k

神山则静静的下床，只有在这个时候，我才能
感知到她不是人偶这件事实。
$k

#right,0.5,maid_normal_169.png,0
$voice,16006606
女仆「那么我就告辞了。今天也是非常感谢」
$k

#character,0.5,erase,same,erase,0

女仆向我们深深行了一礼，便和神山同学一起
离开了保健室。
$k

空气中暂时弥漫着一股紧张的气氛。就连时针
跳动的声响也能稍稍听到。
$k

那就是，神山家的氛围吧。
$k

……。
$k

#hide,0.5

// ＢＧＭストップ。
$bgm,stop,YES

$next,161i_0628_mi
