// １９４　・・・　优衣と居残り　７月１日（日）　午前１０時００分　自宅の居間
#screen,1.0,eye_background.jpg,eye_day_0701.png,eye_time_am10.png,eye_loc_jitaku_ima.png,eye_min_00.png,0
$k

// ＢＧＭスタート。
$bgm,15,YES

// 自宅の居間（昼）
#background,1.0,jitaku_ima_hiru.jpg,erase,0
#show,0.5

大悟「接下来就来洗衣服吧」
$k

#center,0.5,yui_inner_003.png,0
优衣「……」
$k

大悟「小优，有没有要洗的衣服啊？ 就放到
脱衣间的篮子里吧，衣服我来洗好了。」
$k

#center,0.5,yui_inner_441.png,0
优衣「……」
$k

大悟「…额，诶？」
$k

无意中说出来的话，不知为何让小优害羞了起
来。
$k

虽然在学园里的时候完全无法揣摩她的感情，
不过这样一起生活以后总觉得可以稍微理解她
了。
$k

大悟「也没什么好害羞的哟。华奈姐和美知留
老师的也会一起洗的」
$k

优衣「……」
$k

大悟「不如说我会更难为情些吧，万花丛中一
点绿什么的…」
$k

大悟「哈哈哈哈……」
$k

#center,0.5,yui_inner_462.png,0
优衣「……」
$k

…就算我放大音量用笑声遮掩羞涩，她还是难
为情的低着头一声不吭。
$k

虽然就普通的女孩子来说，这说不定是理所当
然的反应。不过就这样僵持下去的话完全没办
法继续洗衣服。
$k

大悟「那样的话…没办法呐」
$k

小小的叹了口气的瞬间，我看向小优的眼瞳。
$k

$select,让她自己洗好了。,127i_194i_1
$select,衣物分成两次去清洗。,128i_194i_2
$select,（美知留说过要让优衣怎样去做的呢？）,hint
$k

