// 204.txt
// 　　ファイルナンバー２０４　・・・　优衣の教室で
// 　　　　　　登場　・・・　４优衣、９男
// 　　　　７月２日（月）　午前８時２５分　学校廊下
// （アイキャッチなし）

// 白
#background,1.0,white.jpg,same,0

// ＢＧＭスタート。
$bgm,07,YES

// 廊下（昼）ワイプ。
#background,1.0,gakuen_rouka_hiru.jpg,same,0
大悟「这里吗……」
$k

#center,0.5,yui_seifuku_141.png,0
优衣「……」
$k

在走廊漫步的小优，在一间教室前止步。
$k

那是早晨充满喧嚣的一年级学生的班级。从教室的铭牌来看，确实是小优所属的班级没错。
$k

大悟「没事吗…？」
$k

优衣「……」
$k

…表情倒是看不出有什么变化，不过肩膀在微微的震动这点还是看得出来的。
$k

对本人来说阔别一个月的教室，即便自己有所觉悟，周围也没办法立即接受不是吗。
$k

大悟「啊…对了」
$k

#center,0.5,yui_seifuku_004.png,0
忽然想到了，我看向她的脸庞。
$k

大悟「小优，手机有带吗？」
$k

#center,0.5,yui_seifuku_003.png,0
优衣「（点头）」
$k

大悟「稍微借用一下」
$k

#center,0.5,yui_seifuku_169.png,0
回应我的话语，小优从自己的包包内拿出了手机。
$k

#center,0.5,yui_seifuku_003.png,0
这也是女仆小姐准备的东西吧。虽然没有什么装饰，机能确实相当强劲的机种。
$k

大悟「嘿嘿〜实际上我也带着哟〜」
$k

自己也从口袋里拿出构造看似简单的手机。虽然没有频繁的使用过，不过这依旧是现代人所必须的道具。
$k

大悟「把小优的电话号码和邮箱地址输入进去。我也会输入到小优的手机里去的」
$k

#center,0.5,yui_seifuku_169.png,0
优衣「（点头）」
$k

#center,0.5,yui_seifuku_003.png,0
互相交换手机，登录电话号码和邮箱地址。
$k

操作已经很熟练了么，小优的手毫不犹豫地在键盘上飞舞结束了工作。
$k

大悟「寂寞的话随时可以发邮件给我的哟。马上就会回复的」
$k

大悟「啊…不过，上课的时候使用手机可是不行的知道吗？」
$k

#center,0.5,yui_seifuku_001.png,0
优衣「（微笑）」
$k

微微漾起的笑容，看样子总算是平息了肩上的颤动。
$k

大悟「那就先失陪了，加油啊」
$k

轻轻摸着小优的头试着鼓励她。
$k

#center,0.5,yui_seifuku_169.png,0
她轻轻地做了一次呼吸，静静的将手放在拉门的把手上，于是……。
$k

// ＢＧＭストップ。
$bgm,stop,YES

// 教室（昼）ワイプ。
#background,1.0,gakuen_kyoushitsu_hiru.jpg,same,0

// 効果音：２２０３：教室の戸が開く。
$se,00002203,NO
（哗啦）
$k

（喧闹、喧闹……）
$k

#center,0.5,yui_seifuku_003.png,0
优衣「……」
$k

（吡嗒）
$k

…瞬时间，空气为之一变。
$k

感觉时间的流动都已然静止。
$k

不过，即便如此……。
$k

#center,0.5,erase,0
（喧闹、喧闹……）
$k

…就在数拍之后，时间再一次开始了流动。
$k

是不敢接触吗，还是她自身背后所存在的『神山』的力量的缘故吗，这个虽然不从得知…
$k

不过起码在现在的时间点，小优就走进教室，在自己的位子上先放下心来吧。
$k

因为少女和上一周的她相比确实有所改变。
$k

……。
$k

#hide,0.5

// 次のファイルへ。
$next,205i_0702_ka
