// 210.txt
// 　　ファイルナンバー２１０　・・・　覗き見している美知留
// 　　　　　　登場　・・・　３美知留、４优衣、５步美
// 　　　　７月２日（月）　午後５時００分　廊下
// （アイキャッチなし）

// 廊下（昼）ワイプ。
#background,1.0,gakuen_rouka_hiru.jpg,same,0
大悟「已经是这个时间了么…。完全没有注意到呐……」
$k

把事情做完，再次看向自己手表确认时间，指针告诉我刚好是午后5点。
$k

虽然现在是夏季，日落也稍许有些晚，不过校舍内已经完全感觉不到人气了。
$k

集中在工作中，时间转瞬而逝。而得到的我想就是社团活动给予的充实感吧。
$k

大悟「…诶、咦？」
$k

忽然注意到，被服室门前有个人影。
$k

苗条的身姿和随便披上当作便装的白衣。不过和平时的模样不同，这次是弓着背在那里鬼鬼祟祟的。
$k

大悟「在做什么啊，美知留老师？」
$k

// ＢＧＭスタート。
$bgm,05,YES

#center,0.5,michiru_hakui_004.png,0
$voice,21000003
美知留「呜哦！？」
$k

冷不防打了声招呼，只见她带着莫名的有些害怕的表情回过头来。她打着坏主意，估计谁都看得出来吧。
$k

#center,0.5,michiru_hakui_169.png,0
$voice,21000103
美知留「咳…嗯哼」
$k

美知留老师像是为了重振精神般轻轻干咳了几声。
$k

#center,0.5,michiru_hakui_002.png,0
$voice,21000203
美知留「哎呀，这不是大悟君嘛。好久不见呐」
$k

大悟「两小时前才刚刚见过面的哟」
$k

#center,0.5,michiru_hakui_001.png,0
$voice,21000303
美知留「『两小时』之后说『好久不见』已经足够了。毕竟这期间我的心脏已经鼓动几千回了哦」
$k

大悟「…这边没有想吐糟的心情，所以也没必要特地胡说八道来回答的」
$k

果然是有些紧张，不管怎么看美知留老师都心里有鬼。
$k

大悟「那…虽然基本上想象得到，你在这里干什么？」
$k

#center,0.5,michiru_hakui_004.png,0
$voice,21000403
美知留「什么呀，能『想象得到』话就容易多了」
$k

#center,0.5,michiru_hakui_001.png,0
$voice,21000503
美知留「我是来确认和你醉生梦死的女人，究竟是哪位才过来的」
$k

大悟「……」
$k

话锋一转，这回美知留老师能堂堂正正的用这种态度大放厥词。这性格真是相当的恶劣。
$k

$voice,21000603
美知留「若槻步美。身高162公分，胸围84、腰围56、臀围85」
$k

#center,0.5,michiru_hakui_002.png,0
$voice,21000803
美知留「是均衡健康的体型，而且运动神经也不错」
$k

#center,0.5,michiru_hakui_001.png,0
$voice,21000903
美知留「穿着泳装的话那吹弹可破的肉体，任谁都是会被夺人心魄的不是吗」
$k

大悟「（噗）」
$k

大悟「到…到底在说什么啊，这么突然！？」
$k

#center,0.5,michiru_hakui_004.png,0
$voice,21001003
美知留「说这话可真是意外呐，年轻人。我明明提供给你真正需要的情报了呢」
$k

大悟「…反正不过是把差不多的数字罗列了一下而已不是吗？」
$k

#center,0.5,michiru_hakui_001.png,0
$voice,21001103
美知留「呵呵…可不要小看保健教师哟？」
$k

#center,0.5,michiru_hakui_024.png,0
$voice,21001203
美知留「在我的这个脑袋里，可是记录了学园内所有女子的身体尺寸啊！ 当然，教职员也包括在内！」
$k

大悟「唉……」
$k

美知留老师把白衣当作披风般舞动，活脱脱一个黑道头目的模样。真是看见就会让人不禁叹气扶额。
$k

#center,0.5,michiru_hakui_001.png,0
$voice,21001603
美知留「再说…华奈也好若槻也罢，你还真是个大胃口呢」
$k

大悟「『大胃口』什么的，我才没有那种意思……」
$k

#center,0.5,michiru_hakui_002.png,0
$voice,21001703
美知留「没关系没关系，年轻人做什么事都是要挑战的」
$k

#center,0.5,michiru_hakui_001.png,0
$voice,21001803
美知留「过去人们不是也经常说不是吗？　捡芝麻和西瓜，说不定还能捡到大南瓜呢」
$k

#center,0.5,michiru_hakui_022.png,0
$voice,21001903
美知留「哈 哈 哈 哈！」
$k

大悟「那种俗语绝对不存在」
$k

#center,0.5,michiru_hakui_003.png,0
$voice,21002003
美知留「…嘛，把这件事放一边不谈 」
$k

忽然美知留老师不再支着肩膀，用认真地表情轻吸了一口气。
$k

#center,0.5,michiru_hakui_004.png,0
$voice,21002103
美知留「怎样，优衣的状态如何？」
$k

大悟「啊…没什么好担心的唷。作业也有正常的在做，和若槻同学关系也很好」
$k

#center,0.5,michiru_hakui_169.png,0
$voice,21002203
美知留「是、嘛……」
$k

大悟「反过来，上课时的情况如何？」
$k

#center,0.5,michiru_hakui_003.png,0
$voice,21002303
美知留「这边也没有异常。今天也是一整天都在教室上课的」
$k

大悟「那样的话不是最好吗。美知留老师的『见解』完全应验了呢」
$k

$voice,21002403
美知留「……」
$k

#center,0.5,michiru_hakui_169.png,0
$voice,21002503
美知留「…真是如此，就好了」
$k

大悟「诶？」
$k

和声调上扬难掩兴奋得我相反，美知留老师的模样好像有些担心。
$k

#center,0.5,michiru_hakui_003.png,0
然后凑近我的耳边，轻轻说道。
$k

#center,0.5,michiru_hakui_004.png,0
$voice,21002603
美知留「不觉得效果有些过好了么？」
$k

大悟「效果过好了…？」
$k

#center,0.5,michiru_hakui_003.png,0
$voice,21002703
美知留「只是几天，离开家庭优衣就能发生如此大的变化」
$k

$voice,21002803
美知留「…所以，这里面说不定有什么问题哦」
$k

大悟「啊……」
$k

#center,0.5,michiru_hakui_169.png,0
$voice,21002903
美知留「现在要做的就是维持当前的生活呐」
$k

美知留老师一边说着一边拍拍我的肩膀。那仿佛就是在说『拿回平常心』的意思般。
$k

#center,0.5,michiru_hakui_002.png,0
$voice,21003103
美知留「不要担心，年轻人。只考虑恋爱的事情是不会让脑袋变迟钝的」
$k

$voice,21003303
美知留「更不用说年轻人应该更积极一些。没有女朋友而造成压力本来就不会生利息的」
$k

大悟「…突、突然间说些什么呢！？」
$k

#center,0.5,michiru_hakui_001.png,0
$voice,21003403
美知留「那可是对女生也通用的哟，若槻你说呢？」
$k

// 効果音：３２００：心臓鼓動音
$se,00003200,NO
大悟「（心跳）」
$k

#center,0.5,ayumi_seifuku_141.png,0
$voice,21003505
步美「……」
$k

回过神来，小步美正红着脸站在那里。
$k

大悟「从…从什么时候开始待在那里的！？」
$k

#center,0.5,ayumi_seifuku_004.png,0
$voice,21003605
步美「啊…对、对不起！　也不是…我可没有想偷听啊！」
$k

#center,0.5,ayumi_seifuku_141.png,0
$voice,21003705
步美「只是，那个……在想回来的还真慢啊…听到走廊有你的声音就……」
$k

$voice,21003805
步美「啊，不过内容完全没有听到…所以好奇到底在说什么……」
$k

// 美知留白衣（左）。步美制服（右）。
#character,0.5,michiru_hakui_001.png,erase,ayumi_seifuku_141.png,0
$voice,21003903
美知留「放心吧，若槻」
$k

在难为情地说着理由的小步美面前，诸恶根源之人站了出来。
$k

$voice,21004103
美知留「我正在给这位多愁善感的青年进行恋爱咨询」
$k

#left,0.5,michiru_hakui_024.png,0
$voice,21004203
美知留「绝对不是告诉他若槻的三围，邀请约会的技巧什么的话题哦」
$k

#right,0.5,ayumi_seifuku_004.png,0
$voice,21004305
步美「（嘎〜〜〜）」
$k

大悟「真是的 ，哪里都好快点走人啊，美知留老师！」
$k

#character,0.5,erase,michiru_hakui_024.png,erase,0
$voice,21004403
美知留「哈 哈哈，祝你武运昌隆哦，年轻人！」
$k

#center,0.5,erase,0

// ＢＧＭストップ。
$bgm,stop,YES

…美知留老师就这洋高笑着迈步消失在走廊深处。
$k

虽然注意到小步美所以才用刚才的玩笑唬弄过去，不过还是希望能选择下方法。
$k

// ＢＧＭスタート。
$bgm,09,YES

#center,0.5,ayumi_seifuku_141.png,0
$voice,21004505
步美「大悟，君……」
$k

大悟「（呃）」
$k

留在这里的，是脸色更加潮红的小步美。
$k

$voice,21004605
步美「虽然三围还是有些不好意思…」
$k

$voice,21004705
步美「要约会的话…会把手机号码告诉你的……」
$k

大悟「……」
$k

#center,0.5,ayumi_seifuku_162.png,0
$voice,21004805
步美「……」
$k

…一切都停止了。
$k

我也说不定，此刻也和她一样脸红吧。
$k

#center,0.5,erase,0
（戳 戳）
$k

大悟「嗯？」
$k

#center,0.5,yui_seifuku_003.png,0
优衣「……」
$k

被轻轻的刺激转身看去，是跟着小步美从被服室出来的小优。
$k

#center,0.5,ayumi_seifuku_004.png,0
$voice,21005005
步美「啊…休、休息时间已经到了再不快一点的话！」
$k

抓准时机，小步美拍了拍手。
$k

大悟「也、也对呢！ 总不能一直休息下去啊！」
$k

虽然多少有些乱来，不过我还是附和她这样大声喊道。
$k

#center,0.5,yui_seifuku_004.png,0
优衣「……？」
$k

没有事先知会也无眼神交流的我们，在小优眼力看来好像很不可思议地同步了的样子就是了。
$k

……。
$k

#hide,0.5

// ＢＧＭストップ。
$bgm,stop,YES

// 次のファイルへ。
$next,211i_0702_ayu
