// 212.txt
// 　　ファイルナンバー２１２　・・・　华奈と美知留とも交換する
// 　　　　　　登場　・・・　２华奈、３美知留、４优衣
// 　　　　７月２日（月）　午後６時４０分　保健室
#screen,1.0,eye_background.jpg,eye_day_0702.png,eye_time_pm06.png,eye_loc_gakuen_hokenshitsu.png,eye_min_40.png,0
$k

// ＢＧＭスタート。
$bgm,03,YES

// 保健室（夜）。华奈スーツ。
#background,1.0,gakuen_hokenshitsu_yoru.jpg,erase,0
#center,0.5,kana_suit_003.png,0
#show,0.5

$voice,21200002
华奈「真好啊〜真好啊〜。小悟和小优可以一起玩」
$k

带着小优来到保健室，见看见下班了的华奈姐不高兴的嘟起了嘴。
$k

$voice,21200102
华奈「尽和小悟在一起好狡猾哟。我也想和小优说说话〜」
$k

大悟「不是，这不是玩而是被若槻同学拜托帮忙制作服装所以…」
$k

// 美知留スーツ（左）。华奈スーツ（右）。
#character,0.5,michiru_suit_001.png,erase,kana_suit_003.png,0
$voice,21200203
美知留「以『制作服装』为名的密室恋爱游戏嘛」
$k

大悟「…请不要说些很难听得话」
$k

美知留老师一副『通情达理』的表情插话进来。再被讨厌的视线缠上我可不要……。
$k

#left,0.5,michiru_suit_022.png,0
$voice,21200303
美知留「好了好了，回去咯，华奈。我肚子饿了」
$k

…不过，这次很意外的她站在了我这一边。
$k

#right,0.5,kana_suit_176.png,0
$voice,21200402
华奈「是〜」
$k

即便现在还闹着别扭，华奈姐听了美知留老师的话还是老实的点头
$k

#character,0.5,erase,yui_seifuku_003.png,erase,0
优衣「……」
$k

小优肚子也饿了吗，回家的收拾准备已经就绪了。
$k

// 通学路（夜）ワイプ。
#background,1.0,tsuugakuro_yoru.jpg,same,0
大悟「…啊，话说回来」
$k

// 美知留スーツ（左）。华奈スーツ（右）。
#character,0.5,michiru_suit_003.png,same,kana_suit_003.png,0
$voice,21200602
华奈「嗯？」
$k

$voice,21200703
美知留「怎么了？」
$k

四人步行回家的路上，我突然想起了那件事，大家也停下了脚步。
$k

大悟「不过…在此之前先向小优确认一下比较好吧……」
$k

#character,0.5,erase,yui_seifuku_004.png,erase,0
优衣「……」
$k

靠近在发愣的小优，在耳边打起了电话。
$k

大悟「虽然告诉我手机号码和邮箱地址了…告诉那两位也可以吗……？」
$k

#center,0.5,yui_seifuku_003.png,0
优衣「……」
$k

#center,0.5,yui_seifuku_169.png,0
优衣「（点头）」
$k

大悟「谢谢，小优」
$k

她确实点头回应了我的问题。肯定自己也觉得『那样更好』吧。
$k

// 美知留スーツ（左）。华奈スーツ（右）。
#character,0.5,michiru_suit_003.png,erase,kana_suit_003.png,0
大悟「华奈姐，美知留老师」
$k

从口袋里取出手机，递到两人的面前。
$k

大悟「实际上几天，小优给了我手机号码和邮箱地址」
$k

大悟「所以我想华奈姐和美知留是也知道比较好呢」
$k

#right,0.5,kana_suit_002.png,0
$voice,21201102
华奈「哇哇，真的吗？」
$k

听到我的说明，华奈姐马上就高兴得叫出声来。
$k

#character,0.5,erase,michiru_suit_003.png,erase,0
$voice,21201203
美知留「手机吗……」
$k

…相反的，美知留老师脸色不太好看。
$k

大悟「没必要吗？」
$k

#center,0.5,michiru_suit_004.png,0
$voice,21201303
美知留「不是，也不是这个意思…。我对手机的存在本身不是太喜欢」
$k

#center,0.5,michiru_suit_003.png,0
$voice,21201403
美知留「确实，我知道因为工作关系非有不可」
$k

$voice,21201503
美知留「不过每次来电音响起的时候，想起自己被这种小东西束缚着就觉得火大」
$k

大悟「…心情却是可以理解，不过还请快点登录好哦」
$k

美知留老师一边自言自语的嘟嘟哝哝，一边拿出手机飞快的操作着。
$k

虽然和她之前已经交换过手机号码和邮件地址，不过那个时候好像也这么说过的样子。
$k

#center,0.5,kana_suit_001.png,0
$voice,21201602
华奈「我也要♪」
$k

大悟「好，发送了哟」
$k

华奈姐也取出手机，把我放送过去的小优的资料登录进去。
$k

顺便一提，手机是少数华奈姐能使用的家用电器之一。不过完全是通话专用的就是了。
$k

// 华奈スーツ（左）。优衣制服（右）。
#character,0.5,kana_suit_001.png,erase,yui_seifuku_003.png,0
$voice,21201702
华奈「小优也是，把我的电话号码也告诉你比较好呢」
$k

优衣「……」
$k

#left,0.5,kana_suit_022.png,0
$voice,21201902
华奈「给，小优♪」
$k

毫无疑问的，华奈姐没有用邮件发送而是直接把液晶画面递了过去。
$k

#right,0.5,yui_seifuku_004.png,0
优衣「……」
$k

小优就靠着微微的背光灯光，凝视着屏幕把号码登录到了自己的手机上。
$k

#left,0.5,michiru_suit_003.png,0
$voice,21202103
美知留「邮件发送过去了哟，优衣」
$k

美知留老师还是挂着那副很伤脑筋似的表情看向小优的液晶屏。
$k

#right,0.5,yui_seifuku_003.png,0
优衣「……」
$k

这次是小优在啪嚓啪嚓的按着键盘登录资料。这下这里所有人的号码和油箱都交换过了。
$k

#left,0.5,kana_suit_001.png,0
$voice,21202302
华奈「这样和小优随时都能说话了呢」
$k

#right,0.5,yui_seifuku_004.png,0
优衣「……」
$k

华奈姐高兴的喜不自禁，轻轻地握起小优的手。
$k

#left,0.5,michiru_suit_001.png,0
$voice,21202503
美知留「…嘛，确实比较方便了」
$k

#right,0.5,yui_seifuku_001.png,0
优衣「……」
$k

站在华奈姐的另一侧，美知留老师轻轻地摸着小优的头。
$k

今天一天感觉发生了很多事，觉得小优的封口稍微松了一些。
$k

……。
$k

#hide,0.5

// ＢＧＭストップ。
$bgm,stop,YES

// 次のファイルへ。
$next,220i_0703_yui

