// 240.txt
// 　　ファイルナンバー２４０　・・・　７月４日みちるが起こしに来る
// 　　　　　　登場　・・・　３みちる、４優衣
// 　　　　７月４日（水）　午前６時４５分　自分の部屋
#screen,1.0,eye_background.jpg,eye_day_0704.png,eye_time_am06.png,eye_loc_jibun_heya.png,eye_min_45.png,0
$k

// 日付設定。
$pfinto,1,7
$pfinto,2,4

// 自分の部屋（昼）。
#background,1.0,jibun_heya_hiru.jpg,erase,0
#show,0.5

// 効果音：５８００：ノック
$se,00005800,NO
（こんこんっ）
$k

大悟「はぁ〜い」
$k

７月４日水曜日の朝。
$k

一日の始まりは、今日も優衣ちゃんの鳴らす
ノックの音……、
$k

// ＢＧＭスタート。
$bgm,05,YES

#center,0.5,michiru_seisou_001.png,0
$voice,24000003
みちる「おはよう、大悟」
$k

大悟「み…、みちる先生っ！？」
$k

…俺の予想及び期待に反して、ノックをして
いたのは彼女だった。
$k

しかも今朝は女性用のスーツに身を包み、き
りりと身なりを整えている。いつものだらだ
らした格好とは大違いだ。
$k

大悟「どうしちゃったんですか…？　スーツ
　なんか着て……」
$k

#center,0.5,michiru_seisou_004.png,0
$voice,24000103
みちる「どうしたも何も、ワークショップに
　は正装で出なければならないのでな」
$k

大悟「ワークショップ？」
$k

#center,0.5,michiru_seisou_003.png,0
$voice,24000203
みちる「教員や研究者が集まる研修会みたい
　なもんだ。今日の出張の目的は、それに参
　加することにある」
$k

大悟「…あ、そう言えばそうでしたね」
$k

みちる先生が出張することは、昨日のうちか
ら聞いている。その目的や内容まで理解する
のは難しいけれど。
$k

#center,0.5,michiru_seisou_004.png,0
$voice,24000303
みちる「じゃあ、そろそろ行かせてもらうぞ
　」
$k

大悟「あ…、朝ご飯は？」
$k

#center,0.5,michiru_seisou_003.png,0
$voice,24000403
みちる「適当に何か買って食べる。のんびり
　してたら電車の時間に遅れてしまうからな
　」
$k

$voice,24000503
みちる「それと、夕飯も外で食べてくるつも
　りだ。もしかすると、帰りは多少遅くなる
　かもしれん」
$k

大悟「了解です」
$k

#center,0.5,michiru_seisou_002.png,0
$voice,24000603
みちる「じゃあ、今日も一日勉学に励めよ、
　青年」
$k

大悟「は〜い」
$k

#center,0.5,michiru_seisou_021.png,0
$voice,24000703
みちる「優衣もな」
$k

// みちる正装（左）。優衣室内着（右）。
#character,0.5,michiru_seisou_021.png,erase,yui_inner_004.png,0
優衣「……」
$k

気が付くと、…おそらく俺を起こしに来たの
だろう、優衣ちゃんが部屋の入り口でそっと
佇んでいた。
$k

#character,0.5,erase,michiru_seisou_002.png,erase,0
$voice,24000903
みちる「行ってくるぞ」
$k

大悟「いってらっしゃ〜い」
$k

#center,0.5,erase,0
みちる先生は優衣ちゃんの頭を一撫でして、
出張へと出掛けていった。
$k

ああして凛々しくしている姿はなかなか様に
なっているが、普段が普段なだけに簡単には
信じられない光景である。
$k

#center,0.5,yui_inner_004.png,0
優衣「……」
$k

優衣ちゃんも同じことを考えているのか、し
ばらく呆気に取られたような表情をしていた
。
$k

大悟「さ、俺達も働こうか、優衣ちゃん」
$k

#center,0.5,yui_inner_169.png,0
優衣「（こくり）」
$k

俺も彼女の頭を軽く撫で、階下へと向かった
。
$k

……。
$k

#hide,0.5

// ＢＧＭストップ。
$bgm,stop,YES

// 次のファイルへ。
$next,242i_0704_ka
