// 242.txt
// 　　ファイルナンバー２４２　・・・　もう行っちゃったの？
// 　　　　　　登場　・・・　２華奈、４優衣
// 　　　　７月４日（水）　午前７時３０分　自宅の食卓
#screen,1.0,eye_background.jpg,eye_day_0704.png,eye_time_am07.png,eye_loc_jitaku_shokutaku.png,eye_min_30.png,0
$k

// ＢＧＭスタート。
$bgm,03,YES

// 食卓（昼）。華奈スーツ。
#background,1.0,jitaku_shokutaku_hiru.jpg,erase,0
#center,0.5,kana_suit_004.png,0
#show,0.5

$voice,stock_24200002
華奈「あれ…、みっちゃん、もう行っちゃっ
　たの？」
$k

食卓の上に三人分しか食事が並べられていな
いのを見て、華奈姉さんは驚いたように言っ
た。
$k

大悟「うん、俺が起きるのと同じ時間に出発
　したよ」
$k

#center,0.5,kana_suit_003.png,0
$voice,24200102
華奈「みっちゃん、薄情だなぁ〜。一言くら
　い、私に声を掛けていってくれればいいの
　に」
$k

大悟「…そんなことしてたら、電車に乗り遅
　れてしまいます」
$k

#center,0.5,erase,0
『俺が起きるのと同じ時間』とは即ち『華奈
姉さんの熟睡していた時間』であり、
$k

さらに『華奈姉さんを起こす時間』を加える
と、長大なタイムロスが生じてしまう。
$k

…つまりは、みちる先生が華奈姉さんは放っ
といて、俺だけに声を掛けに来たのは賢明な
判断だった。
$k

#center,0.5,kana_suit_003.png,0
大悟「ところで、今日は華奈姉さんが保健室
　の仕事をやってくれるんでしょ？」
$k

#center,0.5,kana_suit_002.png,0
$voice,24200202
華奈「うん、そうだよ。今日は授業が少ない
　から、普通のお仕事はその空き時間にやっ
　ちゃって」
$k

#center,0.5,kana_suit_022.png,0
$voice,24200302
華奈「放課後からは、保健室の先生になるの
　〜」
$k

大悟「授業の時間は誰が保健室にいるの？」
$k

#center,0.5,kana_suit_001.png,0
$voice,24200402
華奈「体育科の先生達が交代で入るのかなあ
　。みっちゃんが岩倉先生とそんなお話をし
　てたから」
$k

大悟「なるほど」
$k

#center,0.5,erase,0
『岩倉先生』とは、保健体育の教科主任のこ
とだ。以前にもみちる先生が出張の時は何度
か頼ったことがある。
$k

体育科の教師陣はほとんどが運動部の顧問な
ので、打ち身や切り傷などには十分対処でき
るし、
$k

疾病関係なら、すぐに近所の医者を呼べば済
むことだ。その程度のことは体育教師でなく
たってできるだろう。
$k

だから、学生が授業を受けている間は大丈夫
だと思うが……。
$k

#center,0.5,kana_suit_022.png,0
$voice,24200502
華奈「たっのしみ、たっのしみ〜♪　今日は
　〜、ほけ〜んし〜つの〜、華奈先生♪」
$k

大悟「うわっ…、やっぱり不安だ……」
$k

#center,0.5,kana_suit_002.png,0
$voice,24200602
華奈「大丈夫だよ、心配しなくたって。私、
　英語の先生が駄目だったら保健室の先生に
　なろうと思ってたんだから」
$k

大悟「……」
$k

今さらながら本当に良かったと思う。華奈姉
さんが英語の教員試験に受かってくれて。
$k

// 優衣制服（左）。華奈スーツ（右）。
#character,0.5,yui_seifuku_003.png,erase,kana_suit_001.png,0
$voice,24200702
華奈「優衣ちゃんも、遠慮なく保健室に遊び
　に来てね♪」
$k

#left,0.5,yui_seifuku_141.png,0
優衣「……」
$k

はっきりとは表さないまでも、彼女も不安に
思っているようだった。
$k

ともかく、天に祈ろう。
$k

今日は、ケガ人や病人が出ませんように——
。
$k

……。
$k

#hide,0.5

// ＢＧＭストップ。
$bgm,stop,YES

// 次のファイルへ。
$next,243i_0704_ka
