// 選択肢１を選んだ場合。（優衣に会っていくように言う。）
// 優衣好感度（＋１）
$pfplus,40,1

大悟「優衣ちゃんに会っていってくれません
　か？　今の時間は被服室にいますから」
$k

#center,0.5,maid_normal_162.png,0
メイド「……」
$k

#center,0.5,maid_normal_003.png,0
$voice,24704406
メイド「海堂様から禁じられておりますので
　」
$k

『その厚意だけは受け取る』といった意味が
含まれているのだろうか、彼女の声は穏やか
だった。
$k

$next,252i_247i_3
