// 集結。

#center,0.5,maid_normal_169.png,0
$voice,24704606
メイド「それでは、失礼いたします」
$k

大悟「どうもありがとうございました」
$k

$voice,24704702
華奈「ありがとうございました」
$k

#center,0.5,erase,0
そして丁寧に一礼して、メイドさんは帰って
いった。
$k

不意に静けさの増す保健室。さっきまでの大
混雑が嘘のようである。
$k

#center,0.5,kana_suit_001.png,0
$voice,24704802
華奈「片付けよっか、だいちゃん」
$k

大悟「…うん、そうだね」
$k

それから後は他愛のない話をしながら、華奈
姉さんと一緒に室内の整理と清掃に励んだ。
$k

……。
$k

#hide,0.5

// ＢＧＭストップ。
$bgm,stop,YES

// 次のファイルへ。
$next,248i_0704_ayu

