// 集結。
#center,0.5,ayumi_seifuku_002.png,0
$voice,26401805
歩美「それじゃあ、チーズケーキなんてどう
　？　甘さを抑えて、男の子の口にも合うよ
　うにしてあげるわ」
$k

大悟「あ、それもいいかも」
$k

#center,0.5,ayumi_seifuku_001.png,0
$voice,26401905
歩美「今の季節は桃のタルトなんかもいいわ
　ね。桃はこれからが旬だから」
$k

大悟「それもおいしそうだなぁ〜」
$k

#center,0.5,ayumi_seifuku_022.png,0
$voice,26402005
歩美「あ〜、何だか私も食べたくなってきち
　ゃったわ」
$k

次第に恍惚感を増す歩美ちゃんの目。お菓子
作りでは『自分で食べる』というのも大きな
楽しみなのだろう。
$k

#center,0.5,ayumi_seifuku_001.png,0
$voice,26402105
歩美「チーズケーキにする？　桃のタルトに
　する？」
$k

大悟「歩美ちゃんの好きなほうでいいよ」
$k

#center,0.5,ayumi_seifuku_006.png,0
$voice,26402205
歩美「駄目よぉ、そういう言い方は。それじ
　ゃああなたの好きなものがわからないもの
　」
$k

大悟「じゃ…、じゃあ、桃のタルトにしよう
　かな」
$k

#center,0.5,ayumi_seifuku_022.png,0
$voice,26402305
歩美「了解っ♪」
$k

歩美ちゃんは満面の笑みを浮かべながら、戯
けるように敬礼のポーズを取った。
$k

これで何とか、さっきの授業のことも忘れて
くれたかな。
$k

……。
$k

#hide,0.5

// ＢＧＭストップ。
$bgm,stop,YES

// 次のファイルへ。
$next,265i_0705_mi
