// 選択肢１を選んだ場合。（マニアックなご趣味で。）

マニアックなご趣味で。
$k

…などと言ったら思いっ切り殴られてしまう
だろう。この目の前で不機嫌そうにしている
人に。
$k

#center,0.5,michiru_hakui_006.png,0
$voice,26500803
みちる「…んで、お前もその類か？」
$k

大悟「違いますよっ！」
$k

#center,0.5,michiru_hakui_003.png,0
$voice,26500903
みちる「じゃあ何だ？　若槻に飽きて、保健
　室の仕事をやりたくなったか？」
$k

大悟「それも違います……」
$k

人聞きの悪いことを平然と言ってくるみちる
先生。これは機嫌の良し悪しは全く関係ない
ようだ。
$k

$next,274i_264i_3
