// 287.txt
// 　　ファイルナンバー２８７　・・・　できあがったのか？（歩美ルートに行かない）
// 　　　　　　登場　・・・　３みちる、４優衣
// 　　　　７月６日（金）　午後５時００分　保健室
#screen,1.0,eye_background.jpg,eye_day_0706.png,eye_time_pm05.png,eye_loc_gakuen_hokenshitsu.png,eye_min_00.png,0
$k

// ＢＧＭスタート。
$bgm,05,YES

// 保健室（昼）。みちる白衣。
#background,1.0,gakuen_hokenshitsu_hiru.jpg,erase,0
#center,0.5,michiru_hakui_002.png,0
#show,0.5

$voice,28700003
みちる「おう、お疲れ、大悟」
$k

大悟「お疲れさまです」
$k

#center,0.5,michiru_hakui_001.png,0
$voice,28700103
みちる「できあがったのか？　例の、若槻に
　コスプレさせる魔女っ娘の衣装とやらは」
$k

大悟「そんなものは作ってないですけど、と
　りあえず衣装はできました」
$k

優衣ちゃんを連れて一旦保健室にやって来る
と、さっそくみちる先生のからかいの言葉。
$k

七夕祭りの衣装作りから歩美ちゃんのコスプ
レにまで飛躍するとは、みちる先生もなかな
か考えたものである。
$k

#center,0.5,michiru_hakui_022.png,0
$voice,28700203
みちる「いいなあ、魔女っ娘は。ロリな子供
　から妖艶な美女まで、誰にでも似合うコス
　プレだ」
$k

$voice,28700303
みちる「しかも無邪気な元気娘はもちろん、
　ミステリアスな怪人物にも対応できる」
$k

#center,0.5,michiru_hakui_001.png,0
$voice,28700403
みちる「まさに高低左右自由自在、ストライ
　クゾーンを目一杯使った軟投派のベテラン
　投手だな」
$k

大悟「…どういうたとえですか、それは」
$k

何を想像してか、薄笑いを浮かべながらうむ
うむと頷くみちる先生。あまり相手にしたく
ない雰囲気である。
$k

#center,0.5,michiru_hakui_004.png,0
$voice,28700503
みちる「…んで、どうするんだ、明日は？」
$k

大悟「はい？」
$k

$voice,28700603
みちる「七夕祭り、行くんだろ？」
$k

大悟「あぁ…、そうでしたね」
$k

いよいよ明日に迫った七夕祭り。クラスメイ
ト関係とは特に約束していないが……。
$k

大悟「まあ、俺と華奈姉さんとみちる先生と
　優衣ちゃん…、この四人で行くのがいいん
　じゃないですか？」
$k

#center,0.5,michiru_hakui_001.png,0
$voice,28700703
みちる「ふぅ〜〜〜ん」
$k

大悟「な…、何ですか、その目はっ！？」
$k

#center,0.5,michiru_hakui_002.png,0
$voice,28700803
みちる「…いいや、別に〜」
$k

無難な答えをしたにも関わらず、みちる先生
はニヤニヤと笑みを浮かべている。
$k

『本当は華奈と二人だけで行きたいんだろ？
』
$k

…その言葉を連想するのは容易かった。
$k

#center,0.5,michiru_hakui_001.png,0
$voice,28700903
みちる「ま、華奈がそれで良いと言うのなら
　、私達も従おう」
$k

// みちる白衣（左）。優衣制服（右）。
#character,0.5,michiru_hakui_021.png,erase,yui_seifuku_003.png,0
$voice,28701003
みちる「優衣もいいよな？」
$k

#right,0.5,yui_seifuku_169.png,0
優衣「（こくり）」
$k

#left,0.5,michiru_hakui_002.png,0
$voice,28701203
みちる「これで委任契約が成立だ。後はお前
　と華奈の二人で決めてくれたまえ」
$k

大悟「何を期待してるのかわかりませんけど
　、そう簡単にことは運びませんよ」
$k

#character,0.5,erase,same,erase,0
…確かに華奈姉さんとは、五年前のあの日の
ように二人きりで行きたいけれど、
$k

優衣ちゃんの浴衣を見て大はしゃぎしてたし
、みちる先生とのこういう機会も大切にした
いだろうし。
$k

結局は、四人で行くことになっちゃうのかな
……。
$k

……。
$k

#hide,0.5

// ＢＧＭストップ。
$bgm,stop,YES

// 次のファイルへ。
$next,289i_0706_ka
