// 405.txt
// 　　ファイルナンバー４０５　・・・　歩美の短冊
// 　　　　　　登場　・・・　５歩美、６メイド、７茜
// 　　　　７月７日（土）　午後９時００分　土手の遊歩道
#screen,1.0,eye_background.jpg,eye_day_0707.png,eye_time_pm09.png,eye_loc_yuuhodou.png,eye_min_00.png,0
$k

// ＢＧＭスタート。
$bgm,15,YES

// 土手の遊歩道（祭り暗い）
#background,1.0,dote_matsuri_2.jpg,erase,0
#show,0.5

幾分か興奮も収まり、今は人影まばらな土手
の遊歩道。
$k

川からの風に色とりどりの短冊がそよぎ、そ
れに常夜灯の光が反射して得も言われぬロマ
ンチックな雰囲気が漂っている。
$k

大悟「もう来るかな……」
$k

…そっと時刻を確認し、小さく息をつく。
$k

パレードの終了後、程なくして歩美ちゃんか
らこんな連絡があった。
$k

// 全面白フェード。
#background,1.0,white.jpg,same,0

// 白枠表示。
// 商店街（祭り）
#background,1.0,shoutengai_matsuri.jpg,shiro_waku.png,0

// 効果音：４６１２：携帯バイブレーション
$se,00004612,NO
（ぶるぶるっ、ぶるぶるっ）
$k

大悟「はい、二宮です」
$k

$voice,40500005
歩美「あ、大悟君？」
$k

大悟「歩美ちゃんっ！」
$k

大悟「さっきはびっくりしたよ！　いきなり
　織姫になっちゃってるんだから！」
$k

$voice,40500105
歩美「あ〜、その話はあとあと」
$k

$voice,40500205
歩美「もうちょっとで片付くから、…そうね
　え、９時頃に遊歩道のさっきの場所で待っ
　ててくれる？」
$k

大悟「う…、うん、わかった」
$k

$voice,40500305
歩美「じゃ、よろしく〜♪」
$k

// 白枠隠す。
// 全面白。
#background,1.0,white.jpg,same,0

// 土手の遊歩道（祭り暗い）
#background,1.0,dote_matsuri_2.jpg,erase,0

大悟「妙にテンションが高かったよな、歩美
　ちゃんも」
$k

あの弾むような口調を思い出し、自然と笑み
がこぼれる。
$k

彼女がそんな気持ちになる理由はよくわかる
が、ほんの数週間前までの自分だったら大い
に驚いたことだろう。
$k

学園内での彼女は、品行方正、学業優秀、明
朗快活の優等生で通っているのだから。
$k

そんな評判しか聞いたことのない者にとって
は、今日の歩美ちゃんの姿は信じられないも
のだっただろうし、
$k

…彼女をよく知る者にとっては、大いに胸を
ときめかせるものだったと思う。
$k

// ＢＧＭストップ。
$bgm,stop,YES

$voice,40500405
？？「お待たせ、大悟君」
$k

そんな物思いに耽っていると、背後から掛け
られる軽快な声が一つ。
$k

// ＢＧＭスタート。
$bgm,09,YES

#center,0.5,ayumi_outer_022.png,0
$voice,40500505
歩美「やっほ〜♪」
$k

大悟「歩美ちゃん……」
$k

その笑顔を見て、ほっと安堵するものを覚え
た。
$k

さっきはまるで夢の世界の人だったような彼
女も、今は普段通りの姿。昼間、確かに俺と
一緒にいた歩美ちゃんだ。
$k

#center,0.5,ayumi_outer_001.png,0
$voice,40500605
歩美「はい、お土産」
$k

大悟「ん？」
$k

つい見とれてしまった俺に構わず、歩美ちゃ
んはその手にあった白いビニール袋を差し出
した。
$k

#center,0.5,ayumi_outer_002.png,0
$voice,40500705
歩美「たこ焼き、鯛焼き、焼きそば、お好み
　焼きの豪華お祭りフルセット。婦人会のお
　ばさん達からもらったの」
$k

大悟「ははは…、そうなんだ」
$k

#center,0.5,ayumi_outer_021.png,0
$voice,40500805
歩美「それと、ジュースもね」
$k

食べ物の熱が移らないことを考えてか、ジュ
ースは別の袋に入れてあった。しかも二人分
が同じレーベルで。
$k

#center,0.5,ayumi_outer_001.png,0
$voice,40500905
歩美「ちょっと遅くなっちゃったけど、私達
　もお祭り気分を楽しみましょ」
$k

大悟「うん」
$k

そして俺達は、近くにあったベンチの並んで
腰掛けた。
$k

// ＢＧＭストップ。
$bgm,stop,YES

// ＢＧＭスタート。
$bgm,17,YES

#center,0.5,ayumi_outer_002.png,0
$voice,40501005
歩美「それでは、七夕パレードの無事成功を
　祝しまして」
$k

$voice,40501105
歩美「乾杯！」
$k

大悟「かんぱ〜い！」
$k

気取った仕草でジュースを掲げる歩美ちゃん
に、俺も飲み口を軽く合わせることで応える
。
$k

#center,0.5,ayumi_outer_169.png,0
$voice,40501205
歩美「んくっ、んくっ、んくっ、んくっ……
　」
$k

#center,0.5,ayumi_outer_002.png,0
$voice,40501305
歩美「ふぅ〜〜〜」
$k

何回かのどが動いた後にこぼれた大きなため
息。それは彼女がようやく感じた安堵だった
のかもしれない。
$k

#center,0.5,ayumi_outer_001.png,0
$voice,40501405
歩美「写真、撮れた？」
$k

大悟「あ…、うん、何とか」
$k

#center,0.5,ayumi_outer_002.png,0
$voice,40501505
歩美「うふふっ…、一生の記念ね。孫の代ま
　でずっと大切にしまっておくわ」
$k

大悟「あはは、それだけの価値があるかもし
　れないね、あの姿には」
$k

…実は密かに後悔もしていた。もっとちゃん
としたカメラで写せば良かったと。
$k

もう少し早くわかっていれば、家に取りに帰
ることもできたのに。そのことだけは悔やん
でも悔やみ切れない。
$k

大悟「それにしても…、本当に驚いたよ。歩
　美ちゃんがいきなり織姫の衣装を着てるん
　だから」
$k

適当に折を見て、おもむろに本題を切り出す
。
$k

#center,0.5,ayumi_outer_026.png,0
$voice,40501605
歩美「うん…、私もそうするように言われた
　時は驚いたわ」
$k

その表情には小さな苦笑いが浮かんでいた。
$k

#center,0.5,ayumi_outer_003.png,0
$voice,40501705
歩美「結局、あの衣装を直すことはできなか
　ったの。本来の人と代理の人とは、身長か
　らしてだいぶ違ってたから」
$k

$voice,40501805
歩美「また別の人を呼ぶには時間がないし、
　もう『織姫抜きでやろうか』っていう意見
　まで出てたんだけど……」
$k

// 全面白。
#background,1.0,white.jpg,same,0

$voice,40501908
女性１「それなら、あなたがやってみない？
　」
$k

$voice,40502005
歩美「えっ！？　わ…、私ですか！？」
$k

$voice,40502107
女性２「あら、いいじゃない、それって。サ
　イズは同じなんでしょう？」
$k

$voice,40502205
歩美「で…、でも、そんな…、私が織姫なん
　て……」
$k

$voice,40502308
女性１「大丈夫大丈夫。ほら、ちょうどぴっ
　たりじゃない」
$k

$voice,40502407
女性２「顔のほうも申し分ないわ。最近のア
　イドルにいるわよねえ、こういう子って」
　
$k

$voice,40502508
女性１「何なら、彦星はこの間の彼氏にする
　？　そうすれば少しは気が楽になるでしょ
　う？」
$k

$voice,40502607
女性２「それもいいわねえ。あの子もなかな
　かかわいかったし」
$k

$voice,40502708
女性１「やぁだ、奥さんったら。若い子が好
　きなんだからぁ」
$k

$voice,40502807
女性２「それはお互い様でしょう？　一緒に
　目の保養をしましょうよぉ」
$k

$voice,40502905
歩美「……」
$k

// 土手の遊歩道（祭り暗い）。歩美外出着。
#background,1.0,dote_matsuri_2.jpg,same,0
#center,0.5,ayumi_outer_026.png,0

$voice,40503005
歩美「そういうことで話がトントン拍子に進
　んで…、私もうまく乗せられちゃって、こ
　うなったのよ」
$k

大悟「俺も危なかったのか……」
$k

歩美ちゃんの織姫はともかく、俺の彦星なん
てとんでもない。知り合いにでも見られたら
、大笑いされてしまうだろう。
$k

#center,0.5,ayumi_outer_001.png,0
$voice,40503105
歩美「…でも、ちょっとうれしかったかな」
$k

大悟「ん…？」
$k

常夜灯の光に、彼女の頬がほんのり赤く染ま
っているのがわかった。
$k

#center,0.5,ayumi_outer_021.png,0
$voice,40503205
歩美「だって、七夕祭りの織姫は女の子の憧
　れだもの」
$k

#center,0.5,ayumi_outer_003.png,0
$voice,40503305
歩美「毎年たくさんの応募者の中から、たっ
　た一人だけが厳正なる審査で選ばれて…」
$k

$voice,40503405
歩美「お化粧をして、衣装を着て、お祭りの
　夜に大勢の見物客の中を練り歩く……」
$k

#center,0.5,ayumi_outer_002.png,0
$voice,40503505
歩美「…これって、本当にお姫様みたいだと
　思わない？」
$k

大悟「うん…、そうだね」
$k

#center,0.5,ayumi_outer_001.png,0
$voice,40503605
歩美「そんな織姫に私が…、ちょっとした事
　情があったとは言え、なれたんだもの。天
　にも昇るような気持ちだったわ」
$k

大悟「……」
$k

…この胸がまた騒ぎ出したように感じた。
$k

星空を見上げる歩美ちゃんの横顔。元々学内
では評判の彼女だけれど、今夜はさらに魅力
的になっている。
$k

自分の仕事を立派に成し遂げた後の充実感と
、織姫の姿が重なる艶やかさ。
$k

それを見ることのできる距離にいる自分が、
とても幸せな人間だと思う。
$k

大悟「…本当、良かったね」
$k

再び見とれてしまったのをごまかすように、
言葉を発する。
$k

#center,0.5,ayumi_outer_021.png,0
$voice,40503705
歩美「ありがとう、大悟君」
$k

#center,0.5,ayumi_outer_003.png,0
歩美ちゃんは視線を戻して、不意にかしこま
ったような表情になった。
$k

#center,0.5,ayumi_outer_004.png,0
$voice,40503805
歩美「あの時、あなたが行くように言ってく
　れなかったら、後悔してたと思う」
$k

#center,0.5,ayumi_outer_003.png,0
$voice,40503905
歩美「もし全て他人任せにしていたら、今の
　こんな気持ちにはなれなかったもの」
$k

$voice,40504005
歩美「織姫のことは関係なしに、あの時、あ
　の場所でみんなの手助けをすることができ
　て、本当に良かったと思うわ」
$k

大悟「そんな…、俺は何もしてないよ。全部
　歩美ちゃんの努力の結果だと思うよ」
$k

#center,0.5,ayumi_outer_169.png,0
$voice,40504105
歩美「ううん、あなたのおかげよ」
$k

大悟「あ……」
$k

#center,0.5,ayumi_outer_001.png,0
$voice,40504205
歩美「……」
$k

…その瞬間、そっと重なる二人の手。
$k

それは余計な言葉を消し去り、素直な気持ち
だけを伝えてくれた。
$k

#center,0.5,ayumi_outer_162.png,0
$voice,40504305
歩美「…怖かったわ」
$k

大悟「えっ？」
$k

#center,0.5,ayumi_outer_141.png,0
$voice,40504405
歩美「デートの途中で抜け出すような女の子
　なんて、嫌われるんじゃないかと思ってた
　」
$k

大悟「……」
$k

大悟「…そんなことないよ」
$k

#center,0.5,ayumi_outer_162.png,0
歩美「……」
$k

大悟「歩美ちゃんだもん」
$k

#center,0.5,ayumi_outer_001.png,0
$voice,40504605
歩美「……」
$k

#center,0.5,ayumi_outer_021.png,0
$voice,40504705
歩美「…うん」
$k

小さくてかわいらしい頷き。そこに込められ
た思いは、計り知れない。
$k


#center,0.5,ayumi_outer_002.png,0
$voice,40504805
歩美「感想…、聞いてもいい？」
$k

大悟「『感想』って？」
$k

…しばらくゆったりとした時間が流れた後、
歩美ちゃんはそっと目を上げた。
$k

#center,0.5,ayumi_outer_001.png,0
$voice,40504905
歩美「だから、私の織姫の感想。まだあなた
　の口から聞いてなかったと思うわ」
$k

大悟「あぁ…、そういうことか」
$k

彼女の表情に戻る茶目っ気。それは照れ隠し
のようなものなのかもしれないが。
$k

// 織姫の感想は…？
$select,『綺麗だったよ』,469i_405i_1
$select,『よく似合ってたよ』,470i_405i_2
$select,（女の子の憧れなのですから……）,hint
$k


