// 426.txt
// 　　ファイルナンバー４２６　・・・　歩美と一緒に入浴する
// 　　　　　　登場　・・・　５歩美
// 　　　　７月１０日（火）　午後９時００分　自宅の浴室
#screen,1.0,eye_background.jpg,eye_day_0710.png,eye_time_pm09.png,eye_loc_jitaku_yokushitsu.png,eye_min_00.png,0
$k

// ＢＧＭスタート。実際には歩美オルゴール。
$bgm,10,YES

// ３９４０：歩美、一緒に入浴する（表情まじまじと）
#background,1.0,00003940.jpg,erase,0
$cfinto,28,1
#show,0.5

$voice,42600005
歩美「……」
$k

大悟「……」
$k

$voice,42600105
歩美「……」
$k

大悟「……」
$k

…まずは、何がどうなってこのような状況に
なっているのか説明しなければならないだろ
う。
$k

みちる先生から伝授された、幼なじみの極意
。
$k

そのメチャクチャな論説は様々な分野に及び
、中には思わず頷いてしまうようなものもあ
ったのだが、
$k

…結局、辿り着いた結論はこれだった。
$k

そして俺と歩美ちゃんはその勢いに負けて、
こういう状況を作ってしまっていた。
$k

つまり、一緒にお風呂に入ること。
$k

しかも歩美ちゃんに水着の着用は許されず、
…と言うより、そういう発想すら忘れて、今
の彼女はタオル一枚になっていた。
$k

さらにみちる先生からは、その発展系である
もう一つの課題が与えられていて……、
$k

…それが即ち、俺の背中を流すことである。
$k

$voice,42600205
歩美「ね…、ねえ、大悟君……」
$k

// 効果音：３２００：心臓鼓動音（１回）
$se,00003200,NO
大悟「（どきっ）」
$k

大悟「な、何かな…、歩美ちゃん…？」
$k

ただ声を掛けられただけでも胸が大きく高鳴
り、汗がだくだくと流れ落ちてしまう。
$k

$voice,42605605
歩美「あったまった…？」
$k

大悟「う…、うん……、あったまったよ……
　」
$k

大悟「あ、でも夏だから、そんなに長湯する
　必要はないかな……」
$k

$voice,42605705
歩美「……」
$k

大悟「温泉とかだったら、また別なんだろう
　けどね…」
$k

大悟「あは…、あははは……」
$k

$voice,42605805
歩美「……」
$k

…虚しく響く俺の笑い声。会話が噛み合って
いるのかどうかさえもわからない。
$k


大悟「…あ、そうだ！　俺、先に出るからさ
　、歩美ちゃんはゆっくりお風呂に入ってて
　いいよ！」
$k

$voice,42605905
歩美「えっ？」
$k

大悟「じゃあ、お先に！」
$k

$voice,42606005
歩美「あ…、大悟君っ！」
$k

そのぎこちない空気に耐えられるはずもなく
、俺は歩美ちゃんを残して浴室から飛び出た
。
$k

……。
$k

#hide,0.5

// ＢＧＭストップ。
$bgm,stop,YES

// 次のファイルへ。
$next,427i_0710_mi
