// 431.txt
// 　　ファイルナンバー４３１　・・・　歩美バッドエンド
// 　　　　　　登場　・・・　５歩美
// 　　　　７月１３日（金）　午後７時００分　住宅街
// アイキャッチなし。

// BGM ストップ。
$bgm,stop,YES

大悟「しばらく、『幼なじみ』でもいいかな
　……」
$k

// ６９５１：歩美、大悟に負ぶさる（ちょっと驚く）
#background,1.0,00006951.jpg,same,0
$cfinto,0,0

$voice,43100005
歩美「えっ？」
$k

大悟「あ…、え〜っと、その……、お互いを
　知る時間っていうのは、やっぱりそれなり
　に必要だからね」
$k

大悟「あは…、あはは……」
$k

$voice,43100105
歩美「……」
$k

…それ以上は言えなかった。
$k

自分がちょっと情けなく感じながらも、そう
やって愛想笑いをすることしかできなかった
。
$k

// ６９５５：歩美、大悟に負ぶさる（視線を下げてしょんぼり）
#background,1.0,00006955.jpg,same,0
$cfinto,0,0

$voice,43100205
歩美「…意気地なし」
$k

大悟「えっ…？」
$k

うまく聞き取れなかったが、その声の調子は
どうも拗ねているようだった。
$k

// ６９５３：歩美、大悟に負ぶさる（表情普通）
#background,1.0,00006953.jpg,same,0
$cfinto,0,0

$voice,43100305
歩美「まあいいわ。別に私も結論を急がせよ
　うとは思ってないもの」
$k

$voice,43100405
歩美「それより、夏休み中はあなたの家にい
　させてもらうわね。誰が何と言ったって、
　私、絶対に帰らないんだから」
$k

大悟「え〜〜っ、そんな〜〜〜っ！」
$k

あと一ヶ月はあのドタバタとした生活が続く
のかと思うと、気が重くなるばかりだった…
。
$k

……。
$k

（若槻歩美　バッドエンド）
$k

#hide,0.5
$wait,1.0

// 全面フェード。
#background,1.0,black.jpg,same,0

// シナリオ終了。
$end
