// 選択肢２を選んだ場合。（『歩美ちゃんがかわいい』と言う。）
// 歩美好感度（＋１）
$pfplus,50,1

大悟「うん、すごくかわいいと思うよ」
$k

#center,0.5,ayumi_outer_022.png,0
$voice,40001205
歩美「うふふっ…、ありがと♪　そう言って
　くれると、この服を選んだ甲斐があったと
　言うものだわ」
$k

大悟「あ…、いや、そういう意味じゃなくて
　」
$k

#center,0.5,ayumi_outer_004.png,0
$voice,40001305
歩美「えっ？」
$k

大悟「歩美ちゃんが、かわいいな…、と思っ
　て……」
$k

#center,0.5,ayumi_outer_141.png,0
$voice,40001405
歩美「……」
$k

バクバクとする心臓の鼓動。触らなくてもわ
かる、頬の熱い火照り。
$k

彼女の側も俺の一言に動きを止め、その顔が
みるみるうちに紅潮していった。
$k

#center,0.5,ayumi_outer_026.png,0
$voice,40001505
歩美「や…、やだ、そんな……、冗談ばっか
　り……」
$k

僅かに視線を逸らしながらも、満更でもない
様子の歩美ちゃん。
$k

大悟「冗談なんかじゃないよ。本当に今日の
　歩美ちゃんはかわいいな、と思って」
$k

#center,0.5,ayumi_outer_002.png,0
$voice,40001605
歩美「もぉ…、口ばっかりうまくなっても駄
　目だゾ、大悟君♪」
$k

大悟「あっ……」
$k

#center,0.5,ayumi_outer_021.png,0
戯けた仕草で俺の鼻の頭に触れる彼女の人差
し指。それはまるで照れ隠しをしているかの
ように。
$k

$next,462i_400i_3
