// 集結。

#center,0.5,ayumi_outer_001.png,0
$voice,40001705
歩美「じゃあ、そろそろ行きましょうか」
$k

大悟「うん、そうだね」
$k

#center,0.5,ayumi_outer_002.png,0
$voice,40001805
歩美「お昼はどこにする？　私、ジャンボフ
　ルーツパフェがおいしいとこ、知ってるん
　だけどなぁ〜」
$k

大悟「あはは…、じゃあ、そこにしようか」
$k

#center,0.5,ayumi_outer_022.png,0
$voice,40001905
歩美「うんっ♪」
$k

#center,0.5,ayumi_outer_001.png,0
…そして自然と、だけど控え目に絡む腕と腕
。
$k

その距離は『友達同士』のものなのか、それ
とも『それ以上』のものなのかはわからない
けど、
$k

今の俺と歩美ちゃんの関係を示すには丁度良
く、そして余計な緊張や気遣いを程良く取り
除いてくれるものだった。
$k

……。
$k

#hide,0.5

// ＢＧＭストップ。
$bgm,stop,YES

// 次のファイルへ。
$next,401i_0707_ayu
