// ＢＧＭストップ。
$bgm,stop,YES

// 選択肢２を選んだ場合。（君に任された仕事だからだよ。）
大悟「君に任された仕事だからだよ」
$k

#center,0.5,ayumi_outer_004.png,0
$voice,40205705
歩美「えっ…？」
$k

意を決して発した言葉に、彼女は小さな驚き
の声を上げた。
$k

大悟「織姫の衣装作りは歩美ちゃんの仕事じ
　ゃないか。それなら最後まで責任持ってや
　り切らないと」
$k

#center,0.5,ayumi_outer_141.png,0
$voice,40205805
歩美「……」
$k

大悟「もし織姫が間に合わずにパレードが中
　止にでもなったら、君を責める人だって出
　てくるかもしれない」
$k

大悟「だから、せめて……、いくら無茶なこ
　とでも、頑張ろうとする意志は見せないと
　」
$k

#center,0.5,ayumi_outer_162.png,0
$voice,40205905
歩美「……」
$k

…しばらく歩美ちゃんは考え込んでいた。
$k

少しきついことを言ってしまっただろうか。
未だ彼女の頬に血の気は戻らず、その心の迷
いも消え去っていない。
$k

しかし、それでも彼女は……、
$k

#center,0.5,ayumi_outer_003.png,0
$voice,40206005
歩美「…わかったわ」
$k

…小声でありながらも、ゆっくりと頷いた。
$k

$voice,40206105
歩美「織姫の衣装製作の責任者は私ですもの
　。それなら、…どんな結果になろうとも、
　最後まで見届けないと」
$k

大悟「うん……」
$k

#center,0.5,ayumi_outer_021.png,0
$voice,40206205
歩美「それに実物を見たら、案外楽にできる
　かもしれないし。必ず可能性は残されてい
　るはずだわ」
$k

ふっと歩美ちゃんの顔に浮かぶ小さな笑み。
$k

それは強がりとも無理しているようにも見え
るが、…そんな気持ちさえも持てなかった状
態よりは遥かに良い。
$k

#center,0.5,ayumi_outer_001.png,0
$voice,40206305
歩美「それじゃあ、行ってきます」
$k

覚悟を決めたように、彼女の目が上を向く。
$k

#center,0.5,ayumi_outer_002.png,0
$voice,40206405
歩美「あ…、そうだ。何かあったら連絡する
　から、ケータイはオンにしといてね」
$k

大悟「うん、わかった」
$k

#center,0.5,ayumi_outer_022.png,0
$voice,40206505
歩美「じゃあね、大悟君」
$k

#center,0.5,erase,0
そして歩美ちゃんは、急いで公民館へと向か
っていった。
$k

今の時刻は午後３時。パレードが始まるのは
午後７時。
$k

作業のために残された時間は僅かだけれど…
、もし間に合わなくても誰も文句は言わない
だろう。
$k

今回の件はまさに『不慮の事態』であり、歩
美ちゃんもそれに対して精一杯の努力はして
くれるのだから。
$k

……。
$k

#hide,0.5

$next,468i_402i_3
