// 選択肢２を選んだ場合。（…やっぱり言えない。）

大悟「…やっぱり、秘密」
$k

#center,0.5,kana_inner_006.png,0
$voice,40703602
華奈「え〜、どうして〜？」
$k

#center,0.5,kana_inner_005.png,0
人差し指を震わせながらも、それを口先に持
っていく俺の仕草を見て、華奈姉さんは思い
っ切り不満顔だった。
$k

でも…、わかってほしい、華奈姉さん。
$k

これは『今』を維持するためには必要なこと
なんだ。『今』、この生活を破壊することは
できないのだから。
$k

大悟「…また今度言うよ。だから今日は…、
　ね？」
$k

心の内で罪悪感に苛まれながらも、華奈姉さ
んを何とかなだめるが……。
$k

#center,0.5,kana_inner_006.png,0
$voice,40703702
華奈「私の目を見てください！」
$k

大悟「…うっ」
$k

…出てしまった。華奈姉さんのお説教モード
が。
$k

#center,0.5,kana_inner_005.png,0
$voice,40703802
華奈「私の目を真っ直ぐ見ることができます
　か？　見られなかったら、だいちゃんは悪
　い子さんだよ？」
$k

大悟「あうぅ〜……」
$k

小さい頃からこれに弱いんだよな、俺って…
。『年上の大きいお姉さん』の記憶が脳裏に
鮮やかに甦ってくる……。
$k

$voice,40703902
華奈「……」
$k

大悟「……」
$k

見詰め合ったまま、時間だけが虚しく過ぎて
いく。
$k

違う意味でこういう状況になったら、それは
それでかなりうれしいのだけれど……。
$k

$next,477i_407i_3
