// 集結。
……。
$k

#center,0.5,erase,0

// ＢＧＭストップ。
$bgm,stop,YES

$voice,40704004
？？「若槻…、さん……」
$k

大悟「えっ？」
$k

$voice,40704102
華奈「ふえっ？」
$k

…意外にも、そんな膠着状態を破ったのは彼
女だった。
$k

#center,0.5,yui_inner_001.png,0
$voice,40704204
優衣「若槻さん…、ですよね。二宮さんのお
　相手は」
$k

// ＢＧＭスタート。
$bgm,20,YES

#character,0.5,yui_inner_001.png,erase,kana_inner_022.png,0
$voice,40704302
華奈「優衣ちゃ〜〜〜んっ！」
$k

その瞬間、華奈姉さんは彼女に思いっ切り飛
び付いた。
$k

#right,0.5,kana_inner_002.png,0
$voice,40704402
華奈「優衣ちゃんがしゃべったぁ〜！　優衣
　ちゃんが声を出してくれたよぉ〜〜〜っ！
　」
$k

#left,0.5,yui_inner_021.png,0
$voice,40704504
優衣「（にこり）」
$k

#left,0.5,michiru_inner_001.png,0
$voice,40704603
みちる「ほぉ〜」
$k

感心しながら、先ほどとは違う意味の微笑を
浮かべるみちる先生。
$k

#left,0.5,michiru_inner_002.png,0
$voice,40704703
みちる「こらこら、華奈。そんな大げさに騒
　ぐようなことでもないだろ」
$k

#right,0.5,kana_inner_022.png,0
$voice,40704802
華奈「だってだって、みっちゃん！　優衣ち
　ゃんが初めてしゃべってくれたんだもん、
　私、すっごくうれしいよぉ〜！」
$k

#right,0.5,kana_inner_002.png,0
$voice,40704902
華奈「ふぇ〜、優衣ちゃんってこんなに綺麗
　な声だったんだぁ〜。ちょっとうらやまし
　いなぁ〜」
$k

#left,0.5,michiru_inner_001.png,0
$voice,40705003
みちる「…ふふっ、そうだな」
$k

#left,0.5,yui_inner_001.png,0
満面の笑みで優衣ちゃんを抱き締める華奈姉
さん。その光景に心和ませる俺とみちる先生
。
$k

この一週間は優衣ちゃんにとって決して無駄
な時間ではなかったんだ。そして俺達のして
きたことも間違いではなかったんだ。
$k

良かった…、本当に良かった……。
$k

うれし涙さえもこぼれてしまいそうな、感動
の一瞬……。
$k

……。
$k

// ＢＧＭストップ。
$bgm,stop,YES

// ＢＧＭスタート。
$bgm,15,YES

// みちる室内着（左）。華奈室内着（右）。
#left,0.5,michiru_inner_004.png,0
$voice,40705103
みちる「…で、大悟君の『大切なお友達』の
　件だが」
$k

#right,0.5,kana_inner_004.png,0
$voice,40705202
華奈「あ…、そうそう」
$k

// 効果音：４０００：倒れ込む。
$se,00004000,NO
大悟「（がんっ）」
$k

二人のあっさりとした声が、俺を現実世界へ
と引き戻した。
$k

// 優衣室内着（左）。華奈室内着（右）。
#character,0.5,yui_inner_003.png,same,kana_inner_003.png,0
$voice,40705302
華奈「『若槻さん』って、歩美ちゃんのこと
　？」
$k

華奈姉さんは俺ではなく、敢えて優衣ちゃん
に向かって問い掛けた。
$k

#left,0.5,yui_inner_169.png,0
$voice,40705404
優衣「はい…、若槻さんと二宮さんは、お互
　いに好意を抱いていると思います」
$k

#right,0.5,kana_inner_004.png,0
$voice,40705502
華奈「えええええ〜〜〜〜〜っ！」
$k

大悟「だ…、駄目だよ、優衣ちゃんっ！」
$k

今は彼女のほうこそ小悪魔のよう。せっかく
開いた口も、再び固く閉ざしてしまいたい気
分である。
$k

#character,0.5,erase,kana_inner_004.png,erase,0
$voice,40705602
華奈「わ…、わわわ……」
$k

…そして茫然とする華奈姉さん。
$k

$voice,40705702
華奈「だいちゃんって…、そうだったの…？
　」
$k

大悟「……」
$k

$voice,40705802
華奈「だいちゃんって……、歩美ちゃんと付
　き合ってたの……？」
$k

大悟「そ…、それは……、その……」
$k

#center,0.5,erase,0
…それ以上、言葉が続かない。
$k

いや…、言うのが怖い。
$k

華奈姉さんがいくら鈍くても、今までの生活
の中で多少は意識していたはず。そしてそれ
が当たり前だと思っていたはず。
$k

その『当たり前』の崩壊は、きっと華奈姉さ
んにとってはかなりショックであり、
$k

今にもその目から大粒の涙がぽろぽろとこぼ
れ落ちてきて……。
$k

……。
$k

// ＢＧＭストップ。
$bgm,stop,YES

// ＢＧＭスタート。
$bgm,19,YES

#center,0.5,kana_inner_002.png,0
$voice,40705902
華奈「わあぁ〜〜〜、おめでとう、だいちゃ
　ん！」
$k

大悟「えっ？」
$k

…俺の予想に反して、華奈姉さんは少女マン
ガの主人公のように目をきらきらさせてきた
。
$k

#center,0.5,kana_inner_022.png,0
$voice,40706002
華奈「だいちゃんと歩美ちゃんって、お似合
　いのカップルだよぉ〜！　いいなぁ〜、い
　いなぁ〜、うらやましいなぁ〜！」
$k

#center,0.5,kana_inner_001.png,0
$voice,40706102
華奈「あのね、実は私も、歩美ちゃんってす
　っごくかわいいなぁ〜、って思ってたの」
$k

#center,0.5,kana_inner_022.png,0
$voice,40706202
華奈「だからぁ〜、だいちゃんの彼女になっ
　てくれて、とってもうれしい♪」
$k

大悟「……」
$k

華奈姉さんの性格からして、それらの言葉は
全て本音だろう。彼女に建前や強がりを言う
器用さはない。
$k

ああ…、やっぱり俺って、華奈姉さんにとっ
ては『弟』だったんだな……。それ以上でも
それ以下でもなかったんだな……。
$k

// みちる室内着（左）。優衣室内着（右）。
#character,0.5,michiru_inner_141.png,erase,yui_inner_141.png,0
$voice,40706303
みちる「大悟……」
$k

…その目は同情してくれていた。ある意味、
大笑いしてくれたほうがまだ救われるが。
$k

$voice,40706404
優衣「……」
$k

何となく申し訳なさそうな顔付き。
$k

気にすることはないよ、優衣ちゃん…。君は
正しいことをしたんだ、謝ることなんて何も
ない……。
$k

#character,0.5,erase,kana_inner_002.png,erase,0
$voice,40706502
華奈「お祝いしよ、お祝い！　ほら、お寿司
　もまだいっぱいあるよっ！」
$k

#center,0.5,kana_inner_022.png,0
$voice,40706602
華奈「メニー、メニー、メニー、コングラチ
　ュレーションズ、だいご、ア〜ンド、あゆ
　〜み！　いえ〜〜〜いっ！」
$k

大悟「あ…、ありがとう、華奈姉さん……」
　
$k

// みちる室内着（左）。優衣室内着（右）。
#character,0.5,michiru_inner_024.png,erase,yui_inner_003.png,0
$voice,40706703
みちる「よぉ〜っし！　今夜は騒ぐぞ、大悟
　〜っ！」
$k

#right,0.5,yui_inner_169.png,0
$voice,40706804
優衣「…お付き合いします」
$k

大悟「……」
$k

こうして、なぜか異様な盛り上がりの中で七
夕の夜は更けていった…。
$k

……。
$k

#hide,0.5

// ＢＧＭストップ。
$bgm,stop,YES

// 次のファイルへ。
$next,408i_0708_yui
