// 501.txt
// 　　ファイルナンバー５０１　・・・　みちるからの妙な質問
// 　　　　　　登場　・・・　３みちる
// 　　　　７月７日（土）　午後４時１５分　自宅の居間
// アイキャッチなし

// ＢＧＭスタート。
$bgm,05,YES

#center,0.5,michiru_inner_004.png,0
$voice,50100003
みちる「あれ？　華奈は？」
$k

二人と入れ違いになるように、今度はみちる
先生が居間にやって来る。
$k

大悟「優衣ちゃんと一緒に実家のほうに行き
　ましたよ。浴衣の着付けをしてもらうため
　に」
$k

#center,0.5,michiru_inner_003.png,0
$voice,50100103
みちる「あぁ…、そう言えばそんなことを言
　ってたな」
$k

#center,0.5,michiru_inner_169.png,0
小さく伸びをしつつ、ソファーに腰を下ろす
みちる先生。自分の部屋で昼寝でもしていた
のか、その目はどことなく眠たげだ。
$k

大悟「何か用事でもあったんですか？」
$k

#center,0.5,michiru_inner_003.png,0
$voice,50100203
みちる「いや、華奈に用があったわけじゃな
　い。むしろ二人がこの場にいなくて好都合
　だ」
$k

大悟「えっ？」
$k

不意に彼女の表情が引き締まる。ほんの数秒
前の気怠そうな雰囲気が嘘のように。
$k

#center,0.5,michiru_inner_004.png,0
$voice,50100303
みちる「お前…、優衣のことをどう思う？」
$k

大悟「優衣ちゃんのこと…？」
$k

#center,0.5,michiru_inner_003.png,0
$voice,50100403
みちる「別に好きだとか嫌いだとか、そうい
　うことを聞いてるんじゃないぞ」
$k

$voice,50100503
みちる「純粋に人間として、優衣がお前の目
　にどう映っているのか。それを率直に答え
　てもらいたい」
$k

大悟「い…、いきなり難しいことを聞いてき
　ますね……」
$k

一旦は冗談のようなことを言いながらも、俺
を真正面から捉えるみちる先生の視線。それ
は恋愛談義をするためのものではない。
$k

大悟「まあ…、真面目な性格だと思いますよ
　。家事だってマメにやってくれてますから
　」
$k

俺はこの一週間の彼女の様子を思い返しつつ
、みちる先生にそう答えた。
$k

大悟「あ、それと普通の女の子っぽいところ
　もあると思います。俺と若槻さんの会話を
　にこにこしながら聞いてましたから」
$k

大悟「案外、『この二人は怪しいぞ』なんて
　思ってるのかもしれませんね」
$k

大悟「…な〜んて、自分で言うのもおかしい
　ですけど」
$k

$voice,50100603
みちる「……」
$k

大悟「一応断っておきますけど、俺と若槻さ
　んはそういう関係じゃありませんからね」
$k

大悟「だいたいみちる先生が変なことばかり
　言うから、優衣ちゃんも影響されちゃうん
　ですよ。俺にとっては大迷惑です」
$k

#center,0.5,michiru_inner_169.png,0
$voice,50100703
みちる「……」
$k

大悟「…って、あれ？」
$k

本題からはずれて愚痴に移ったにも関わらず
、みちる先生はツッコミを入れようとはしな
かった。
$k

それどころか、眉間にしわを寄せて深く考え
込むような顔。俺の答えの中に、何か気にな
ることでもあったのだろうか。
$k

大悟「どうしたんですか、みちる先生？」
$k

$voice,50100803
みちる「……」
$k

大悟「みちる先生〜〜〜っ！」
$k

#center,0.5,michiru_inner_003.png,0
$voice,50100903
みちる「…ん？」
$k

#center,0.5,michiru_inner_002.png,0
$voice,50101003
みちる「あぁ…、悪い悪い。続けてくれ」
$k

大悟「『続けてくれ』って…、もうこれ以上
　はありませんよ」
$k

大声での呼び掛けで彼女はようやく目を上げ
たが、会話はどこか噛み合っていなかった。
$k

#center,0.5,michiru_inner_001.png,0
$voice,50101103
みちる「何でもいいんだぞ？　『もう少し胸
　が大きければ良かったのに』とか『いや、
　あのサイズが丁度良いんだ』とか」
$k

大悟「そういうことをさらっと言わないでく
　ださい。及び、人の趣味を探らないでくだ
　さい」
$k

// ＢＧＭストップ。
$bgm,stop,YES

#center,0.5,michiru_inner_006.png,0
$voice,50101203
みちる「…彼女は、どうなんだ？」
$k

大悟「えっ…？」
$k

その言い方が、俺の胸をざわつかせた。
$k

// ＢＧＭスタート。
$bgm,21,YES

#center,0.5,michiru_inner_005.png,0
$voice,50101303
みちる「『彼女』とは何度か話しているのか
　？」
$k

大悟「……」
$k

$voice,50101403
みちる「いつだったか…、確か前にも一度、
　お前は優衣と話したと言っていたな」
$k

#center,0.5,michiru_inner_006.png,0
$voice,50101503
みちる「それも『彼女』だったのか？」
$k

大悟「…言ってる意味がわからないんですけ
　ど……」
$k

#center,0.5,michiru_inner_005.png,0
$voice,50101603
みちる「……」
$k

大悟「……」
$k

不意に訪れる静寂。
$k

みちる先生は詰問しているわけでも、責めて
いるわけでもない。その声はあくまで淡々と
、そして冷静だ。
$k

…しかし、それは裏を返せば、彼女自身も『
わかっていない』『自信がない』ということ
だろう。だから俺に強く言えないのだ。
$k

#center,0.5,michiru_inner_169.png,0
$voice,50101703
みちる「昨日話していたのは、誰だったんだ
　…？」
$k

その言葉は俺に問い掛けているのでもあり、
自らが迷っているようでもあった。
$k

大悟「聞こえてたんですか？　俺と優衣ちゃ
　んが話していたのが」
$k

#center,0.5,michiru_inner_004.png,0
$voice,50101803
みちる「あぁ…、ちょっと庭に涼みに出たら
　、ベランダからお前と優衣の声が聞こえて
　きたんだ」
$k

#center,0.5,michiru_inner_003.png,0
$voice,50101903
みちる「盗み聞きするのも悪いと思ったが、
　しばらく話を聞かせてもらったぞ」
$k

大悟「…そう言うってことは、俺の話し相手
　が優衣ちゃんだったことがわかってる、っ
　てことじゃないですか」
$k

#center,0.5,michiru_inner_004.png,0
$voice,50102003
みちる「まあ、それはそうだが」
$k

#center,0.5,michiru_inner_169.png,0
みちる「……」
$k

// ＢＧＭストップ。
$bgm,stop,YES

#center,0.5,michiru_inner_003.png,0
$voice,50102203
みちる「…ふぅ」
$k

大悟「…？？」
$k

俺の言葉に小さく息をつくみちる先生。それ
はちょうど、聞き分けのない子供を前にした
教師のように。
$k

…しかし、そんな態度を取られても、俺には
彼女の言いたいことが全く理解できない。逆
にこちらがため息をつきたいくらいだ。
$k

// ＢＧＭスタート。
$bgm,05,YES

#center,0.5,michiru_inner_002.png,0
$voice,50102303
みちる「…ま、いいや」
$k

ふっとみちる先生は表情を崩し、腰を前にず
らしてだらしない座り方になった。
$k

#center,0.5,michiru_inner_001.png,0
$voice,50102403
みちる「私も確信があるわけじゃないからな
　。無理に結論を急ぐこともなかろう」
$k

大悟「…結局、何を言いたかったんですか？
　」
$k

#center,0.5,michiru_inner_002.png,0
$voice,50102503
みちる「あまり深く考えるな、青年。単にお
　前をからかっていただけだ」
$k

#center,0.5,michiru_inner_022.png,0
$voice,50102603
みちる「ほら、コーヒー入れてくれ、コーヒ
　ー。暑いからってアイスにする必要はない
　ぞ」
$k

大悟「はいはい」
$k

#center,0.5,erase,0
釈然としないものを感じながらも、俺はコー
ヒーの用意をするべくソファーから立ち上が
った。
$k

『からかっていた』とは言っても、彼女から
は決してそのような感情は見て取れない。
$k

むしろ尋常ではないほど真面目に、そして深
刻になっていたとも思えるのだが……。
$k

#center,0.5,michiru_inner_004.png,0
$voice,50102703
みちる「…なあ、大悟」
$k

大悟「はい？」
$k

居間から出ようとしたところで、一度みちる
先生が呼び止める。
$k

#center,0.5,michiru_inner_003.png,0
$voice,50102803
みちる「さっきの話、誰にもしゃべるなよ」
　
$k

#center,0.5,michiru_inner_004.png,0
$voice,50102903
みちる「…と言うより、お前も忘れていい。
　忘れろ」
$k

大悟「『忘れる』以前に、全然意味がわかり
　ませんでしたから。誰かに話しても、変人
　扱いされるだけですよ」
$k

#center,0.5,michiru_inner_021.png,0
$voice,50103003
みちる「それでいい」
$k

愚痴にも似た俺の返事に満足したのか、みち
る先生は軽く口許を緩めながら小さく頷いた
。
$k

そこまで言われてしまえば、俺もそれ以上の
追及をする気にはなれないのだけれど。
$k

……。
$k

#hide,0.5

// ＢＧＭストップ。
$bgm,stop,YES

// 次のファイルへ。
$next,502i_0707_ka
