// 515.txt
// 　　ファイルナンバー５１５　・・・　みちるが突然現れる
// 　　　　　　登場　・・・　３みちる、５歩美
// 　　　　７月９日（月）　午後５時００分　保健室

#center,0.0,erase,0

// 効果音：６８０１：ぽかっ
$se,00006801,NO
（ぽかっ）
$k

$voice,51500005
歩美「きゃっ！？」
$k

// ＢＧＭスタート。
$bgm,05,YES

// みちるスーツ（左）。歩美制服（右）。
#character,0.5,michiru_suit_006.png,same,ayumi_seifuku_162.png,0
$voice,51500103
みちる「何やっとるか、お前は！」
$k

#right,0.5,ayumi_seifuku_004.png,0
$voice,51500205
歩美「か、海堂先生っ！？」
$k

突然歩美ちゃんの背後に、気配すら感じさせ
ずに現れた彼女。無論、その表情は大いなる
怒りに満ちていた。
$k

$voice,51500303
みちる「どけ！　返せ！　ひれ伏せ！」
$k

#right,0.5,ayumi_seifuku_162.png,0
$voice,51500405
歩美「きゃんっ！？　ごめんなさい、ごめん
　なさ〜いっ！」
$k

容赦なく歩美ちゃんの頭を叩き続けるみちる
先生。こうなってしまっては、歩美ちゃんも
素直に謝るしかない。
$k

#character,0.5,erase,michiru_suit_005.png,erase,0
$voice,51501003
みちる「特注品なんだぞ、この椅子は。まだ
　社会にも出ていないガキには、座るどころ
　か触ることすら許されない代物だ」
$k

大悟「あ…、あの、みちる先生……」
$k

#center,0.5,michiru_suit_006.png,0
$voice,51501103
みちる「何だ？　お前も座ったのか？」
$k

大悟「ま、まさか、そんなことはっ！」
$k

ぎろりと睨む彼女の目に思わず震え上がって
しまうが、
$k

…それでも俺は心に引っ掛かっていたことを
問い掛けた。
$k

大悟「その手紙……、誰からなんですか…？
　」
$k

#center,0.5,michiru_suit_003.png,0
みちる「……」
$k

#center,0.5,michiru_suit_021.png,0
$voice,51501303
みちる「…お前、さっきもそんなこと言った
　な」
$k

小さく肩をすくめながらのみちる先生の返事
。その口許には僅かな笑みすら浮かんでいる
ようにも見える。
$k

// みちるスーツ（左）。歩美制服（右）。
#character,0.5,michiru_suit_001.png,erase,ayumi_seifuku_002.png,0
$voice,51501405
歩美「この前テレビに出てた人ですよね！　
　見ましたよ、私！」
$k

恐縮する様から一転して、歩美ちゃんは目を
輝かせてみちる先生に詰め寄った。
$k

$voice,51501505
歩美「すごく素敵な人でした。知的で真面目
　そうで、それでいてルックスも良くて、笑
　顔がさわやかで……」
$k

#left,0.5,michiru_suit_004.png,0
$voice,51501603
みちる「何だ、テレビに出ていたのか。それ
　は初耳だな」
$k

#right,0.5,ayumi_seifuku_003.png,0
$voice,51501705
歩美「あれ？　知らなかったんですか？」
$k

#left,0.5,michiru_suit_003.png,0
$voice,51501803
みちる「そういう話は聞いたことがない。も
　しかしたら、同姓同名の人間かもしれんぞ
　」
$k

#right,0.5,ayumi_seifuku_004.png,0
$voice,51501905
歩美「えっ…？」
$k

大悟「…そうですよね、そういうことって意
　外とありますよね」
$k

いかにも『興味がない』と言った感じであし
らうみちる先生に、歩美ちゃんは何とも拍子
抜けした顔になった。
$k

そして俺は、ほっと胸を撫で下ろした。
$k

#right,0.5,ayumi_seifuku_003.png,0
$voice,51502005
歩美「でもでも、その名字って結構珍しいと
　思いますけど……」
$k

#left,0.5,michiru_suit_004.png,0
$voice,51502103
みちる「ほら、用がなかったらとっとと帰れ
　。ここは暇人の来るところじゃないぞ」
$k

#right,0.5,ayumi_seifuku_004.png,0
$voice,51502205
歩美「わ、わわわっ」
$k

歩美ちゃんはなおも食い下がろうとしたが、
みちる先生はさっと彼女の背後に回ってその
両肩を掴んだ。
$k

$voice,51502305
歩美「ちょ、ちょっと……、助けてよ〜、大
　悟く〜んっ！」
$k

大悟「素直に従ったほうがいいよ、歩美ちゃ
　ん」
$k

#left,0.5,michiru_suit_005.png,0
$voice,51502403
みちる「そういうことだ」
$k

#right,0.5,ayumi_seifuku_176.png,0
$voice,51502505
歩美「うわぁ〜〜〜んっ！」
$k

駄々をこねるように抵抗する彼女も、結局は
みちる先生には勝てず。ついに出口まで追い
やられてしまう。
$k

#left,0.5,michiru_suit_004.png,0
$voice,51502603
みちる「おお、そうだ、若槻」
$k

#right,0.5,ayumi_seifuku_003.png,0
$voice,51502705
歩美「はい？」
$k

#left,0.5,michiru_suit_001.png,0
$voice,51502803
みちる「優衣のこと、サンキュな。あいつに
　とって、衣装作りは貴重な経験になったと
　思うぞ」
$k

#right,0.5,ayumi_seifuku_002.png,0
$voice,51502905
歩美「あ…、いえ、そんなお礼なんて……。
　逆に私のほうこそ、手伝ってもらって助か
　りました」
$k

#left,0.5,michiru_suit_002.png,0
$voice,51503003
みちる「じゃあな、気を付けて帰れよ」
$k

#right,0.5,erase,0
$voice,51503105
歩美「あああ〜〜〜っ！」
$k

ふっと見せた優しい顔に油断したのか、歩美
ちゃんは最後の一押しで容易く廊下へと追い
出されてしまった。
$k

まだまだ好奇心は収まっていないだろうが、
まさか廊下で騒ぎ立てることもできず。彼女
の声と気配はすぐに消えていった。
$k

#left,0.5,erase,0
大悟「ちょっとイタズラが過ぎたかな、歩美
　ちゃんも」
$k

多少は気の毒だと思いつつも、彼女がいなく
なったことで自分の心も平静さを取り戻す。
$k

#center,0.5,michiru_hakui_002.png,0
$voice,51503203
みちる「さて、少し仕事でもするか」
$k

みちる先生は再び白衣姿となり、やる気を感
じさせる言葉を発するが……、
$k

#center,0.5,michiru_hakui_001.png,0
$voice,51503303
みちる「いよっ…、と」
$k

…俺の期待とは裏腹に、みちる先生は愛用の
椅子にどさりと座ってだらしなく足を伸ばし
た。
$k

大悟「仕事…、しないんですか？」
$k

$voice,51503403
みちる「こうして待機しているのも、養護教
　諭の立派な仕事だ。体はリラックスしてい
　ても、心はいつも緊張してるぞ」
$k

大悟「はいはい」
$k

俺のじと目に対しても、みちる先生は一向に
怯む様子はない。ここまで堂々とされると、
その言葉が正しいとさえ思えてくる。
$k

#center,0.5,michiru_hakui_004.png,0
$voice,51503503
みちる「あ…、そう言えば、大悟」
$k

大悟「はい？」
$k

みちる先生はそんなだらけた姿勢でありなが
らも、声だけは真面目になって俺に言った。
$k

#center,0.5,michiru_hakui_001.png,0
$voice,51503603
みちる「一応、優衣の単位が認められること
　になった」
$k

$voice,51503703
みちる「先週一週間の出席状況で、何とかお
　偉方も納得してくれたらしい。保健室登校
　のことも不問にしてくれるそうだ」
$k

大悟「おおっ、それじゃあ進級も全然問題な
　いんですね！」
$k

#center,0.5,michiru_hakui_021.png,0
$voice,51503803
みちる「ま、そういうことだな」
$k

彼女の顔に浮かぶ満足げな笑み。それにつら
れて、俺も拳をグッと握り締める。
$k

そう、今まで最大の懸念だった優衣ちゃんの
取得単位の問題が解決したのだ。保健室での
授業が『出席』と認められたのだ。
$k

これで彼女は名実共に教室に戻れたことにな
るし、
$k

それに何より、みちる先生と華奈姉さんのや
ってきた努力が無駄にならなかったことが喜
ばしい。
$k

大悟「やりましたね、みちる先生！」
$k

再度彼女に向けて力強いガッツポーズを掲げ
る。
$k

#center,0.5,michiru_hakui_001.png,0
$voice,51503903
みちる「その言葉は華奈と優衣に言ってやれ
　。別に私は何もやってない」
$k

大悟「いいんですよ、謙遜しなくたって。こ
　ういう結果になったのは、やっぱりみちる
　先生のおかげなんですから」
$k

大悟「いろいろと裏工作をしたり、他の先生
　達の弱みを握って脅したり、時には容赦な
　く実力行使に及んだり」
$k

大悟「今日の会議だってそうだったんじゃな
　いですか？」
$k

大悟「ついにこの学園の存続自体を危うくす
　るようなネタを掴んで、それをちらつかせ
　ながらお偉方に圧力を掛けて……」
$k

#center,0.5,michiru_hakui_005.png,0
$voice,51504003
みちる「（むっ）」
$k

// 効果音：６８０１：ぽかっ
$se,00006801,NO
（ぽかっ）
$k

大悟「ぐわっ！？」
$k

$voice,51504103
みちる「秘密を知った者は生かしておけんな
　」
$k

大悟「冗談です…、冗談ですよ、みちる先生
　……」
$k

その台詞とその拳は『冗談』で済まされるも
のではなかったが、これ以上言及するのはや
めたほうがいいだろう。
$k

彼女の裏の顔に迫るのは非常に危険だ。
$k

#center,0.5,erase,0
…などとふざけたことを考えている場合では
なく、ともかく優衣ちゃんの単位が認められ
たことは素直にうれしい。
$k

そしてその『うれしさ』は……、
$k

…つい先ほどまで俺が抱いていたもやもやを
吹き飛ばしてくれるのに十分だった。
$k

今だ机の上に無雑作に置かれているエアメー
ル。
$k

あれが気にならないと言えば嘘になるけど…
、まあ、今はいいか……。
$k

……。
$k

#hide,0.5

// ＢＧＭストップ。
$bgm,stop,YES

// 次のファイルへ。
$next,516i_0709_mi
