// 527.txt
// 　　ファイルナンバー５２７　・・・　みちるに再度問い掛ける
// 　　　　　　登場　・・・　３みちる
// 　　　　７月１２日（木）　午後６時００分　保健室
#screen,1.0,eye_background.jpg,eye_day_0712.png,eye_time_pm06.png,eye_loc_gakuen_hokenshitsu.png,eye_min_00.png,0
$k

// ＢＧＭスタート。
$bgm,05,YES

// 保健室（夜）。みちるスーツ。
#background,1.0,gakuen_hokenshitsu_yoru.jpg,erase,0
#center,0.5,michiru_suit_004.png,0
#show,0.5

$voice,52700003
みちる「う〜い、今帰ったぞぉ〜」
$k

大悟「お帰りなさい、みちる先生」
$k

#center,0.5,michiru_suit_141.png,0
気怠そうな顔をして彼女が保健室に戻ってき
たのは、下校時刻が近付いてのことだった。
$k

$voice,52700103
みちる「あ〜、疲れたぁ〜。まったく、よく
　もまああれほど嫌みを言えるもんだなあ、
　あのオヤジ共も」
$k

$voice,52700203
みちる「あれはもう、私に個人的な恨みがあ
　るとしか思えないぞ。さもなくば、完全に
　若手いびりだな」
$k

大悟「実際に恨みがあるんじゃないですか？
　」
$k

#center,0.5,michiru_suit_002.png,0
$voice,52700303
みちる「それはこの豊かな才能に対する嫉妬
　のことを言っているのか？　それとも輝く
　美貌に対する憧憬のことか？」
$k

#center,0.5,michiru_suit_024.png,0
$voice,52700403
みちる「…ならば仕方がないなあ。優れた人
　間には必ずつきまとう有名税のようなもの
　だ、私も素直に受け入れよう」
$k

$voice,52700503
みちる「はっはっはっは！」
$k

大悟「…さすがです、みちる先生」
$k

ちょっとした意地悪のつもりで言ったにも関
わらず、自分の都合の良いように解釈してし
まったようだ。
$k

これが人生を楽しく図太く過ごすための秘訣
なのだろうか。俺もちょっと見習いたい。
$k

#center,0.5,michiru_suit_001.png,0
$voice,52700603
みちる「大悟、コーヒー頼む」
$k

大悟「あ…、はい」
$k

そんなふざけたことを考えている間にも、み
ちる先生はどさりと愛用の椅子に座った。
$k

#center,0.5,michiru_suit_169.png,0
$voice,52700703
みちる「ふぅ……」
$k

そして胸の奥からこぼす大きなため息。それ
は先ほどの冗談とは違う、真に彼女の疲労を
示すものだった。
$k

大悟「優衣ちゃんのことはどうだったんです
　か？」
$k

#center,0.5,michiru_suit_001.png,0
$voice,52700803
みちる「特にお咎めなし。前回の会議と同じ
　方針で構わんそうだ」
$k

大悟「それじゃあ良かったじゃないですか。
　きっとお偉方の先生達も理解してくれたん
　ですよ、優衣ちゃんのことを」
$k

#center,0.5,michiru_suit_004.png,0
$voice,52700903
みちる「…まあ、あのオヤジ共もなるべく穏
　便に済ませたいと思ってるんじゃないのか
　」
$k

#center,0.5,michiru_suit_003.png,0
$voice,52701003
みちる「何と言っても、相手は神山のお嬢様
　だからな」
$k

俺の差し出したコーヒーを一口飲み、小さく
息をつくみちる先生。
$k

『説教』にはその辺りのことも含まれていた
のだろうか。…ならば確かに、彼女にとって
は疲れる内容だ。
$k

#center,0.5,michiru_suit_004.png,0
$voice,52701103
みちる「あれ？」
$k

ふと彼女の目が、机上のそれに気付いた。
$k

#center,0.5,michiru_suit_003.png,0
$voice,52701203
みちる「おかしいな、事務のおばちゃんに頼
　んでおいたのに。何か足りないものでもあ
　ったか？」
$k

大悟「……」
$k

#center,0.5,michiru_suit_004.png,0
$voice,52701303
みちる「まさか自費で出せと言うことでも…
　、ないよなあ。切手はもう貼ってあるし」
$k

// ＢＧＭストップ。
$bgm,stop,YES

// ＢＧＭスタート。
$bgm,25,YES

大悟「あの…、みちる先生」
$k

#center,0.5,michiru_suit_003.png,0
$voice,52701403
みちる「ん？」
$k

不思議そうにそれを眺める彼女に、俺は意を
決して語り掛けた。
$k

大悟「それって、例のドイツ行きの件を断る
　ための手紙ですよね？」
$k

#center,0.5,michiru_suit_002.png,0
$voice,52701503
みちる「ああ、そうだ。よくわかったな」
$k

大悟「ゴミ箱の中に、書き損ねの便箋がたく
　さん入ってましたから」
$k

#center,0.5,michiru_suit_005.png,0
$voice,52701603
みちる「何だ、趣味の悪いことをするなあ、
　お前は。他人様のゴミ箱をあさるなど、変
　態のすることだぞ、変態の」
$k

大悟「…それは自分でも失礼だと思いました
　けど、どうしても気になったんで」
$k

彼女の目がじとりと睨むが、それでも俺は話
を続けた。
$k

大悟「その手紙は、俺が事務員さんに頼んで
　返してもらいました」
$k

大悟「みちる先生が事務員さんに預けたのっ
　て、会議の直前でしたよね？　だから手紙
　を出す前に間に合ったんです」
$k

#center,0.5,michiru_suit_169.png,0
$voice,52701703
みちる「……」
$k

#center,0.5,michiru_suit_005.png,0
$voice,52701803
みちる「…どうしてそんなイタズラをするん
　だ、お前は？」
$k

一拍の間を置いた後の、あきれたような声。
$k

大悟「だから、それは……」
$k

大悟「……」
$k

…そこまで言って、言葉に詰まってしまった
。
$k

俺は今から、見当外れなことを言ってしまう
かもしれない。
$k

それが本当に良いことなのかはわからない。
もしかしたら、彼女の真意に反してしまうか
もしれない。
$k

でも…、やはり言わなければならないと思う
。
$k

その言葉は……。
$k

// （選択：手紙を取り戻してきた理由は…？）
// （『みちる先生は行くべきだと思うから』）ハッピーエンドへ。
// （『手紙すらも出す必要はないから』）バッドエンドへ。
// ここでみちる好感度のチェックが入る。みちる好感度が＋４以上、必須クリアフラグ１がオンで最終選択へ。
// 規定値以下なら、バッドエンドへ。

$next,527i_michiru_bunki
