// みちるルートの継続。

// ＢＧＭストップ。
$bgm,stop,YES

大悟「…別に追い掛ける必要はない、か」
$k

僅かな虚脱感を覚えつつも、俺は心を落ち着
かせるように小さく息を吐いた。
$k

今日はみんなで祭りに来ているんだ、自分だ
け勝手な行動を取るわけにはいかないし、
$k

…それに、単なる目の錯覚や思い込みだった
可能性も否定できない。特にこの喧噪の中な
らなおさらだ。
$k

だから、今は彼女を追い掛けるべきではない
。そういう結論にしておこう。
$k

// みちる外出着（左）。華奈浴衣（右）。
#character,0.5,michiru_outer_003.png,same,kana_yukata_004.png,0
$voice,50603902
華奈「メイドさん、見付かったの？」
$k

大悟「えっ？」
$k

$voice,50604003
みちる「どこにいるんだ？」
$k

大悟「あ…、え〜っと、その……」
$k

俺が迷っている間も、この二人の意識は先ほ
どと変わっていなかった。
$k

大悟「メイドさんじゃなくて…、そ、そう、
　ちょっとアイドルに似てる人がいたんだ。
　あれは何ていう名前だったかな〜」
$k

#right,0.5,kana_yukata_005.png,0
$voice,50604102
華奈「（む〜）」
$k

#right,0.5,kana_yukata_006.png,0
$voice,50604202
華奈「もぉ〜、駄目だよ、真面目に探さなき
　ゃあ」
$k

#left,0.5,michiru_outer_006.png,0
$voice,50604303
みちる「…そういうのには目敏いんだな、お
　前も」
$k

大悟「ごめんなさい……」
$k

#character,0.5,erase,same,erase,0
$voice,50604406
？？「…遅くなりました」
$k

大悟「えっ？」
$k

二人から非難の視線を浴びていると、ふと背
後から落ち着きのある声が一つ。
$k

// ＢＧＭスタート。
$bgm,17,YES

#center,0.5,maid_normal_003.png,0
$voice,50604506
メイド「申し訳ございません。仕事が少々長
　引いてしまいました」
$k

大悟「あ…、来たっ！」
$k

振り向くと、そこには待ちに待った彼女の姿
があった。
$k

神山家のメイドさん。
$k

いつもと変わらぬ澄ました表情でありながら
も、祭りの雰囲気に乗せられてか、今夜はど
こか艶やかに感じられる。
$k

// 華奈浴衣（左）。メイド（右）。
#character,0.5,kana_yukata_002.png,erase,maid_normal_003.png,0
$voice,50604602
華奈「良かった…、来てくれたんですね」
$k

はしゃぐよりも先に、ほっと安堵の息をつく
華奈姉さん。
$k

#left,0.5,michiru_outer_001.png,0
$voice,50604703
みちる「すいません、お忙しいところ無理に
　お呼び出ししてしまって」
$k

#right,0.5,maid_normal_169.png,0
$voice,50604806
メイド「いえ、とんでもございません。せっ
　かくのご厚意に深く感謝しております」
$k

#right,0.5,maid_normal_003.png,0
丁寧にお辞儀をして挨拶を交わす二人。みち
る先生の顔もどこかしら満足げである。
$k

そして、もう一人の主役は……。
$k

#left,0.5,yui_yukata_441.png,0
優衣「……」
$k

#right,0.5,maid_normal_004.png,0
$voice,50605006
メイド「…優衣様……」
$k

#left,0.5,yui_yukata_462.png,0
優衣「……」
$k

優衣ちゃんは恥ずかしげに視線を逸らしたま
まだったが、そこにあるのは決して『負』の
感情ではない。
$k

#right,0.5,maid_normal_001.png,0
$voice,50605206
メイド「……」
$k

ただ声もなく見詰める彼女。
$k

その優しさと穏やかさは、まるで……。
$k

……。
$k

#character,0.5,erase,kana_yukata_004.png,erase,0
$voice,50605302
華奈「…ねえねえ、だいちゃん」
$k

大悟「ん？」
$k

心の内にあたたかいものを感じていると、ふ
っと華奈姉さんが小さく耳打ちをしてきた。
$k

#center,0.5,kana_yukata_003.png,0
$voice,50605402
華奈「メイドさんって…、お祭りでもメイド
　さんなんだね」
$k

大悟「……、…えっ？」
$k

#center,0.5,kana_yukata_004.png,0
$voice,50605502
華奈「だって、今日もいつものメイド服だも
　ん」
$k

大悟「…どうしてこういう時にそういうこと
　を言うのかなあ、華奈姉さんは……」
$k

雰囲気にそぐわない台詞に、ついがっくりと
うなだれてしまう。確かに、さっきはそんな
ことも話していたけれど。
$k

// 優衣浴衣（左）。メイド（右）。
#character,0.5,yui_yukata_441.png,erase,maid_normal_001.png,0
$voice,50605606
メイド「とてもお美しゅうございます、優衣
　様」
$k

#left,0.5,yui_yukata_462.png,0
優衣「……」
$k

その言葉には、万感の思いと僅かな涙が含ま
れていた。
$k

#character,0.5,erase,maid_normal_003.png,erase,0
そして俺達のほうを向き、厳かに一礼して…
…。
$k

#center,0.5,maid_normal_169.png,0
$voice,50605806
メイド「本日はどうもありがとうございまし
　た。そろそろ時間ですので、これにて失礼
　させていただきます」
$k

// 華奈浴衣（左）。メイド（右）。
#character,0.5,kana_yukata_150.png,erase,maid_normal_003.png,0
$voice,50605902
華奈「え〜っ、もう行っちゃうの〜〜〜っ？
　」
$k

大悟「まあまあ、仕方ないよ。一時的に仕事
　を抜け出してきただけなんだから」
$k

#left,0.5,michiru_outer_001.png,0
$voice,50606003
みちる「ま、そういうことだな」
$k

残念そうな顔をする華奈姉さんを制して、み
ちる先生が前に出る。
$k

#left,0.5,michiru_outer_021.png,0
$voice,50606103
みちる「では、また何かあったら連絡します
　」
$k

#right,0.5,maid_normal_169.png,0
$voice,50606206
メイド「よろしくお願いいたします」
$k

#left,0.5,michiru_outer_001.png,0
$voice,50606303
みちる「それにしても…、あなたも大したも
　のですね」
$k

#right,0.5,maid_normal_004.png,0
$voice,50606406
メイド「はい？」
$k

#left,0.5,michiru_outer_002.png,0
$voice,50606503
みちる「この浴衣、優衣のサイズにぴったり
　じゃないですか。まさに寸分の狂いもない
　」
$k

#right,0.5,maid_normal_003.png,0
$voice,50606606
メイド「……」
$k

#right,0.5,maid_normal_169.png,0
$voice,50606706
メイド「職人の技術が良かったのでしょう」
$k

#left,0.5,michiru_outer_001.png,0
$voice,50606803
みちる「ほぉ〜」
$k

#character,0.5,erase,maid_normal_003.png,erase,0
$voice,50606906
メイド「それでは、失礼します」
$k

#center,0.5,maid_normal_169.png,0
そして彼女は最後にもう一度深くお辞儀をし
て、
$k

#center,0.5,erase,0

// ＢＧＭストップ。
$bgm,stop,YES

…人込みの中へと消えていった。
$k

その後ろ姿からはもう感情を読み取ることは
できない。またいつもの、仕事に忠実な彼女
に戻ったようである。
$k

// ＢＧＭスタート。
$bgm,03,YES

// 優衣浴衣（左）。華奈浴衣（右）。
#character,0.5,yui_yukata_441.png,same,kana_yukata_021.png,0
$voice,50607002
華奈「良かったね、優衣ちゃん♪」
$k

メイドさんとは対照的に、華奈姉さんは満面
の笑みを浮かべて優衣ちゃんの腕に絡み付く
。
$k

#left,0.5,yui_yukata_462.png,0
優衣「……」
$k

彼女はまだ頬を染めたまま。その火照りが抜
けるまで、しばらくの時間が必要らしい。
$k

#character,0.5,erase,michiru_outer_001.png,erase,0
$voice,50607203
みちる「さて、そろそろ帰るか」
$k

大悟「あれ？　もういいんですか？」
$k

#center,0.5,michiru_outer_002.png,0
$voice,50607303
みちる「何だ、まだおごってくれると言うの
　か。それなら遠慮なく出店回りを続けさせ
　てもらうぞ」
$k

大悟「帰りましょう帰りましょう、すぐに帰
　りましょう」
$k

#center,0.5,michiru_outer_001.png,0
ここは下手なことは言わずに、みちる先生に
素直に従うのが正解である。これ以上の出費
はたまったものではない。
$k

それによく見ると、出店にも『完売』の文字
がちらほら見受けられる。もう家族連れがゆ
ったりと回る時間は終わりだ。
$k

#center,0.5,michiru_outer_021.png,0
$voice,50607403
みちる「その肉は明日の晩飯だな」
$k

大悟「そうですね、今夜はたこ焼きとかお好
　み焼きとか、結構食べましたから」
$k

#center,0.5,michiru_outer_004.png,0
$voice,50607503
みちる「…いや、そういう意味で言ったので
　はないぞ、青年」
$k

大悟「はい？」
$k

#center,0.5,michiru_outer_024.png,0
$voice,50607603
みちる「これから寿司を買って、うちで二次
　会をやるのだっ！」
$k

大悟「えええ〜〜〜っ！？」
$k

// みちる外出着（左）。華奈浴衣（右）。
#character,0.5,michiru_outer_024.png,erase,kana_yukata_022.png,0
$voice,50607702
華奈「わ〜い、お寿司お寿司〜〜〜っ！」
$k

大悟「ちょ…、ちょっとそれはきついですよ
　、みちる先生……。もう財布の中身が……
　」
$k

#left,0.5,michiru_outer_001.png,0
$voice,50607803
みちる「安心しろ、青年。今回は私が特別に
　おごってやろう」
$k

大悟「な…、何だ、良かった……」
$k

#character,0.5,erase,same,erase,0
…と、そんなふうにわいわいとしながら俺達
は帰り道を歩いていった。
$k

空には鮮やかな天の川。今年の七夕も、織姫
と彦星は無事に出会えたことだろう。
$k

……。
$k

#hide,0.5

// ＢＧＭストップ。
$bgm,stop,YES

// 次のファイルへ。
$next,507i_0708_mi
