// 選択肢１を選んだ場合。（『そんなことない』と否定する。）

大悟「ま…、まさかっ！　そんなことないよ
　！」
$k

#center,0.5,ayumi_seifuku_004.png,0
$voice,51403005
歩美「えっ？」
$k

その一言を即座に打ち消す。
$k

#center,0.5,ayumi_seifuku_003.png,0
$voice,51403105
歩美「どうしたの、大悟君？　いきなり大声
　なんか出したりして」
$k

大悟「あ…、いや、その……」
$k

…そんなに、彼女が唖然とするほどの大声だ
ったのだろうか。自分では全く意識していな
かったけれど。
$k

大悟「そ、そうだ、同姓同名の人なんじゃな
　いのかな。ほら、ローマ字だから漢字に直
　したら全然違うかもしれないよ」
$k

場が気まずくなる前に、とりあえず思い付い
たことを彼女に言う。咄嗟に出た言葉にして
は、おかしなものではないと思う。
$k

$next,573i_514i_3
