// 集結。

#center,0.5,ayumi_seifuku_004.png,0
$voice,51403505
歩美「そうかしら？　名前はともかく、名字
　のほうはちょっと珍しいと思うわ」
$k

大悟「世間的には珍しい名字でも、ある地域
　では全然珍しくないことはよくあるよ。そ
　の名字の発祥の地とか、ね」
$k

#center,0.5,ayumi_seifuku_003.png,0
$voice,51403605
歩美「まあ、そういう話は私も聞いたことが
　あるけど……」
$k

#center,0.5,ayumi_seifuku_021.png,0
$voice,51403705
歩美「…無理にそうやって決め付けるよりも
　、少しは夢を膨らませたほうがいいんじゃ
　ない？」
$k

大悟「……」
$k

#center,0.5,ayumi_seifuku_001.png,0
茶目っ気ある笑顔と共に、手紙を俺の目の高
さに掲げる歩美ちゃん。
$k

彼女にしてみれば決して他意があるわけでは
なく、ただ好奇心で言っているだけだ。それ
くらいは今の俺にもわかる。
$k

だから、俺もそれに乗って一緒に楽しめばい
い。
$k

想像を膨らませて笑い合えばいいはずなのだ
が……。
$k

大悟「…みちる先生宛の手紙なんだから、勝
　手に触るのは良くないよ」
$k

とにかくこの話題を終わらせたかった。そし
て手紙を自分の目の届かない場所へ追いやり
たかった。
$k

#center,0.5,ayumi_seifuku_021.png,0
$voice,51403805
歩美「大丈夫大丈夫。こんなところに放り出
　しておいた海堂先生が悪いのよ」
$k

…しかし、そんな俺の気持ちも彼女には通じ
ず。さらに興味を駆り立てただけだった。
$k

#center,0.5,ayumi_seifuku_002.png,0
$voice,51403905
歩美「あ〜、これが本当にあの人からの手紙
　だったらすごいなぁ〜。海堂先生って、そ
　ういう方面にも顔が利くってことだもの」
$k

#center,0.5,ayumi_seifuku_001.png,0
$voice,51404005
歩美「それでプライベートでも親友同士だっ
　たり」
$k

#center,0.5,ayumi_seifuku_002.png,0
$voice,51404105
歩美「恋人同士だったりしたら…！」
$k

大悟「……」
$k

#center,0.5,ayumi_seifuku_022.png,0
$voice,51404205
歩美「うわぁ〜、いいないいなぁ〜！　こん
　な素敵な人が彼氏だったら、絶対幸せにな
　れると思うわ〜！」
$k

#center,0.5,ayumi_seifuku_002.png,0
$voice,51404305
歩美「未来の旦那様に求めるものは、豊かな
　才能と将来性…。結婚を前提に考えると、
　それが一番大切よね〜！」
$k

大悟「そんな…、話が飛躍しすぎだよ……」
$k

…と、歩美ちゃんの興奮が最大にまで達した
時だった。
$k

// ＢＧＭストップ。
$bgm,stop,YES

// 次のファイルへ。
$next,515i_0709_mi
