// 527.txt
// 　　ファイルナンバー５２７　・・・　みちるに再度問い掛ける
// 　　　　　　登場　・・・　３みちる
// 　　　　７月１２日（木）　午後６時００分　保健室
// 最終選択。
// ヒント付き選択。（これからの関係は…？）
// 無限ループを行うための構文。
$select,『手紙すらも出す必要はないから』,582i_527i_1
$select,『みちる先生は行くべきだと思うから』,583i_527i_2
$k
