// 529.txt
// 　　ファイルナンバー５２９　・・・　みちるハッピーエンド
// 　　　　　　登場　・・・　３みちる
// 　　　　７月１２日（木）　午後６時１５分　保健室
// アイキャッチなし。

大悟「みちる先生は、ドイツに行くべきだと
　思うからです」
$k

みちる「……」
$k

俺が胸に苦しささえも感じている一方で、彼
女の表情はほとんど変わらなかった。
$k

ただじっと、俺の顔を見詰めていた。
$k

#center,0.5,michiru_suit_004.png,0
$voice,52900103
みちる「…昨日のやり取りを繰り返すことに
　なるな」
$k

そして、今だに余裕のあるその言葉。
$k

#center,0.5,michiru_suit_005.png,0
$voice,52900203
みちる「そんなに私を日本から追い出したい
　のか？」
$k

大悟「……」
$k

#center,0.5,michiru_suit_006.png,0
$voice,52900303
みちる「私だって真面目に働いて正直に税金
　を払っている日本国民だ。どんな人間にだ
　って、私を追い出す権利などない」
$k

$voice,52900403
みちる「それとも何か？　将来的にやばそう
　だから今のうちに手を打っておくってこと
　か？」
$k

#center,0.5,michiru_suit_005.png,0
$voice,52900503
みちる「まあ、可能性がないとは言い切れん
　が、実行前に計画を漏らしてしまうほど私
　もバカではないさ」
$k

#center,0.5,michiru_suit_024.png,0
$voice,52900603
みちる「はっはっはっは！」
$k

大悟「はぐらかさないでくださいよ、みちる
　先生！」
$k

#center,0.5,michiru_suit_005.png,0
みちる「……」
$k

思わず強く言ってしまった言葉に、彼女の顔
から戯けが消える。
$k

ピンと張り詰めた空気。微かに震える指先。
$k

#center,0.5,michiru_suit_004.png,0
$voice,52900803
みちる「理由はちゃんと説明してやっただろ
　？」
$k

決して荒々しいものではない、丁寧に諭すよ
うな口調で彼女は発した。
$k

#center,0.5,michiru_suit_003.png,0
$voice,52900903
みちる「行く価値がないわけではないが、あ
　いつは私の元彼氏だ。何を考えて誘ってき
　たのかは、すぐにわかる」
$k

$voice,52901003
みちる「もしもあいつが『よりを戻そう』と
　迫ってきたら…、残念だが私には断る理由
　がない」
$k

#center,0.5,michiru_suit_169.png,0
$voice,52901103
みちる「『何を今さら』と思いつつもあいつ
　の言葉を受け入れ、そして過去の日々へと
　戻ってしまうだろう」
$k

#center,0.5,michiru_suit_003.png,0
$voice,52901203
みちる「…それくらい、恋愛ってもんは厄介
　なんだ」
$k

大悟「……」
$k

すでに二度三度と繰り返された台詞。その内
容が理解できないほど、俺も子供じゃない。
$k

でも…、これだけは彼女に伝えたかった。
$k

大悟「大丈夫です……」
$k

#center,0.5,michiru_suit_004.png,0
$voice,52901303
みちる「ん？」
$k

大悟「大丈夫ですよ、みちる先生なら。きっ
　と何を言われようと、よりを戻すことなん
　てしませんから」
$k

#center,0.5,michiru_suit_141.png,0
$voice,52901403
みちる「……」
$k

#center,0.5,michiru_suit_162.png,0
$voice,52901503
みちる「…そうありたいとは思っているが、
　自信はないな」
$k

大悟「みちる先生の『現在』は、容易く壊れ
　ませんから」
$k

#center,0.5,michiru_suit_004.png,0
$voice,52901603
みちる「えっ…？」
$k

…その瞬間、初めてみちる先生の表情が変わ
ったような気がした。
$k

とても意外だと感じているような…、俺がそ
んなことを口にするとは思ってなかったよう
な、そんな表情だった。
$k

大悟「きっとみちる先生が迷っているのは、
　『過去』のほうが『現在』よりも楽しかっ
　たからだと思います」
$k

大悟「それがどんな『過去』だったのかは、
　俺には予想すらできないし…」
$k

大悟「確かに誰でも『昔は良かった』と思う
　ことや、過去を懐かしむことは往々にして
　ありますけど……」
$k

#center,0.5,michiru_suit_141.png,0
みちる「……」
$k

大悟「みちる先生の『現在』は、とても貴重
　なものです」
$k

大悟「この学園にいる者全員が、みちる先生
　の『現在』を頼りにしています」
$k

大悟「…そんな強い『現在』が、『過去』に
　負けるわけありません」
$k

大悟「自信と誇りのある『現在』が、不安定
　だった『過去』に押しつぶされることはな
　いと思います」
$k

#center,0.5,michiru_suit_162.png,0
みちる「……」
$k

大悟「だから…、行ってください、みちる先
　生」
$k

大悟「『過去』の目の前で、『現在』の強さ
　を示してきてください」
$k

#center,0.5,michiru_suit_141.png,0
みちる「……」
$k

#center,0.5,erase,0
…果たして、それが彼女の望む言葉だったの
だろうか。
$k

正直言って自信はない。ただ思い付いたこと
ばかりを並べていたのかもしれない。
$k

その証拠にみちる先生は依然として黙ったま
まで、肯定も否定も表そうとはしていない。
$k

そして、…実際には数十秒だったのだろうか
、俺にとってはその何倍にも感じられた時間
が過ぎた後。
$k

// ＢＧＭストップ。
$bgm,stop,YES

#center,0.5,michiru_suit_005.png,0
$voice,52902003
みちる「利己的」
$k

大悟「えっ？」
$k

その視線と口調は完全にあきれ返っていた。
$k

$voice,52902103
みちる「自分勝手、わがまま、子供の理屈」
　
$k

大悟「…すいません……」
$k

#center,0.5,michiru_suit_001.png,0
$voice,52902203
みちる「だが……」
$k

…その瞬間、彼女の口許がふっと緩む。
$k

#center,0.5,michiru_suit_002.png,0
$voice,52902303
みちる「おもしろい奴だ、お前は」
$k

大悟「みちる先生…？」
$k

#center,0.5,michiru_suit_001.png,0
そしてゆっくりと俺の元に歩み寄る。
$k

さらに、わけもわからず硬直する俺の頬に手
を添え、
$k

しっかりと俺の頭を固定して、
$k

そして、その唇が徐々に近付いてきて……。
$k

// ＢＧＭスタート。
$bgm,20,YES

// ６３２０：みちる、大悟に強くキスをする（主人公ノーマル）
#background,1.0,00006320.jpg,same,0
$cfinto,20,1

$voice,52902403
みちる「ん……」
$k

大悟「…っ！？」
$k

$voice,52902503
みちる「んんっ…、ん……」
$k

大悟「……」
$k

…深く、強いキス。
$k

抗うこともできず、考えることもできず。た
だ、その熱さに心が捕らわれている……。
$k

$voice,52902603
みちる「初めてか、大悟？」
$k

大悟「は…、はい……」
$k

$voice,52902703
みちる「ふふっ…、純情青年の唇を強引に奪
　うのもなかなか乙なものだな」
$k

大悟「……」
$k

…笑えない。
$k

そんな冗談にツッコミの一つすら入れられな
いほど、彼女のキスは深く、艶やかなものだ
った。
$k

大悟「ど…、どうして、こんなこと……」
$k

かろうじて空いた隙間から、それだけを言う
。
$k

$voice,52902803
みちる「馬鹿者、日本に待ってる奴がいると
　でも言わんと、様にならないだろ」
$k

大悟「そ、そんな…、俺、そんなつもりは…
　…」
$k

$voice,52902903
みちる「いいんだよ、形だけで」
$k

$voice,52903003
みちる「んんっ…！」
$k

大悟「…っ！？」
$k

僅かな抵抗も、みちる先生の強引さによって
あっさりと塞がれてしまった。
$k

次第に高まる恍惚感。それに伴って全身に広
がる脱力感。
$k

ただ、彼女の腕の力だけが俺を支えているよ
うな、不思議な感覚だった…。
$k

……。
$k

// 保健室（夜）。みちるスーツ。
#background,1.0,gakuen_hokenshitsu_yoru.jpg,same,0
#center,0.5,michiru_suit_001.png,0
$voice,52903103
みちる「確かに、お前の言うことももっとも
　かもしれんな」
$k

大悟「……」
$k

まだ俺の頭の中がぼ〜っとしているにも関わ
らず、彼女の声は全く動じていない。
$k

$voice,52903203
みちる「私には、人に誇れる『現在』がある
　」
$k

$voice,52903303
みちる「大切にしたい『未来』がある」
$k

#center,0.5,michiru_suit_021.png,0
$voice,52903403
みちる「…それだけで、十分だったんだ」
$k

大悟「みちる先生……」
$k

#center,0.5,michiru_suit_002.png,0
$voice,52903503
みちる「行ってくるぞ、ドイツに」
$k

大悟「は…、はいっ！」
$k

#center,0.5,michiru_suit_024.png,0
$voice,52903603
みちる「そしてあいつに見せてやろうじゃな
　いか、今の私の姿を」
$k

大悟「そうです、その意気ですよ！」
$k

#center,0.5,michiru_suit_001.png,0
…みちる先生の表情には揺らぎのない自信が
みなぎっていた。
$k

今までいったい何に悩んでいたのだろう…、
そんなことすら思えるような彼女のほほ笑み
だった。
$k

#center,0.5,michiru_suit_002.png,0
$voice,52903703
みちる「…で、大悟君」
$k

大悟「えっ？」
$k

#center,0.5,michiru_suit_001.png,0
喜んだのも束の間、彼女の手が再び俺の頬に
当てられる。
$k

#center,0.5,michiru_suit_002.png,0
$voice,52903803
みちる「さっきのはお前の厚意に対する礼だ
　」
$k

#center,0.5,michiru_suit_001.png,0
$voice,52903903
みちる「そしてこれからのものは、今までの
　約二週間分の家賃だ」
$k

大悟「そ、そんな……、い…、いりませんよ
　、家賃なんて！」
$k

#center,0.5,michiru_suit_024.png,0
$voice,52904003
みちる「遠慮することはないぞ、青年。私の
　気が変わらないうちに、素直に受け取って
　おけ」
$k

大悟「わ…、わ〜〜〜っ！？」
$k

// ６３２１：みちる、大悟に強くキスをする（主人公冷や汗）
#background,1.0,00006321.jpg,same,0
$cfinto,0,0

これって、本当に家賃になっているのだろう
か？
$k

キスと言うのは、もっとロマンチックな雰囲
気でするものだと思っていたのに…。
$k

……。
$k

// 白。
#background,1.0,white.jpg,same,0

// 青空。
#background,1.0,aozora.jpg,same,0
…そして一学期の終業と同時に、みちる先生
はドイツへと旅立っていった。
$k

期間は夏休みが終わるまで。その間、優衣ち
ゃんは引き続き俺の家で生活し、経過を見守
ることになる。
$k

もし何かあった場合には神山家のメイドさん
を頼るようにと言われたが、実際にはその心
配もほとんどなかった。
$k

この真っ青な夏の空の下、優衣ちゃんは華奈
姉さんと一緒に勉強にも遊びにも励んでいた
のだから。
$k

……。
$k

#hide,0.5

// BGM ストップ。
$bgm,stop,YES

// 次のファイルへ。
$next,530i_0712_mi
