// 613.txt
// 　　ファイルナンバー６１３　・・・　珍しく早く起きた華奈
// 　　　　　　登場　・・・　２華奈、４優衣、７茜
// 　　　　７月９日（月）　午前７時００分　自宅の居間
// アイキャッチなし。

// ＢＧＭスタート。
$bgm,03,YES

// 自宅の居間（昼）ワイプ。華奈室内着。
#background,1.0,jitaku_ima_hiru.jpg,same,0
#center,0.5,kana_inner_003.png,0
$voice,61300002
華奈「おはよう、だいちゃん」
$k

大悟「か…、華奈姉さんっ！？」
$k

居間にやって来ると、そこにいた意外な人物
に思わず驚きの声を上げてしまった。
$k

いつもなら朝のまどろみを楽しんでいる時間
なのに、今、その目はぱっちりと開いている
。さらには髪のセットまで終わっている。
$k

まさか、華奈姉さんまで『別人』になってし
まったのでは…。心の中に、華奈姉さんでは
ない誰かが潜んでいるのでは……。
$k

#center,0.5,kana_inner_004.png,0
$voice,61300102
華奈「どうしたの？」
$k

茫然としている俺に、華奈姉さんが目をくる
りとさせて覗き込む。
$k

大悟「『どうしたの』って、それはこっちの
　台詞だよ！　どうして華奈姉さんがこんな
　時間に起きてるの！？」
$k

#center,0.5,kana_inner_005.png,0
$voice,61300202
華奈「あ〜、何だか失礼な言い方だなぁ〜、
　それって」
$k

大悟「…う」
$k

一転して、じとりと睨む華奈姉さん。確かに
、普通の人には言う必要のないことを言って
しまったのだけれど。
$k

#center,0.5,kana_inner_141.png,0
$voice,61300302
華奈「…今日は、自然に目が開いちゃったの
　」
$k

大悟「えっ？」
$k

華奈姉さんは僅かに視線を落として、ぽつり
と呟いた。
$k

#center,0.5,kana_inner_162.png,0
$voice,61300402
華奈「優衣ちゃんのことが心配で…、どうし
　てああなっちゃったのかな、とか…、これ
　からどうすればいいのかな、とか……」
$k

#center,0.5,kana_inner_141.png,0
$voice,61300502
華奈「そんなことを考えてたら、すっかり眠
　気が消えちゃって……」
$k

大悟「優衣ちゃんなら大丈夫だよ」
$k

#center,0.5,kana_inner_004.png,0
$voice,61300602
華奈「ふえっ？」
$k

// 優衣室内着（左）。華奈室内着（右）。
#character,0.5,yui_inner_003.png,erase,kana_inner_003.png,0
今まで俺の背の陰にいた彼女を前に出す。
$k

#right,0.5,kana_inner_002.png,0
$voice,61300702
華奈「優衣ちゃんっ！」
$k

#left,0.5,yui_inner_004.png,0
優衣「……」
$k

やはり一目でわかったのだろう、華奈姉さん
は満面の笑みで優衣ちゃんに抱き付いた。
$k

$voice,61300902
華奈「元気になったんだね、優衣ちゃん！」
$k

#left,0.5,yui_inner_303.png,0
優衣「……」
$k

#right,0.5,kana_inner_021.png,0
$voice,61301102
華奈「良かった…、本当に良かった……。優
　衣ちゃんのこと、すごく心配だったんだか
　ら……」
$k

優衣「……」
$k

泣き笑いの表情にすらなっている華奈姉さん
に反して、やはり優衣ちゃんは唖然としたま
まだった。
$k

『何も覚えていない』と言うのはいかにも非
現実的だが、この光景を見れば信じざるを得
ないことだと思う。
$k

// 優衣室内着（左）。茜室内着（右）。
#right,0.5,akane_inner_141.png,0
$voice,61301307
茜「優衣さん……」
$k

#left,0.5,yui_inner_141.png,0
優衣「……」
$k

…そして、俺達とはやや離れた位置でこちら
を見詰める彼女。
$k

#right,0.5,akane_inner_162.png,0
$voice,61301407
茜「お元気になられて、何よりです」
$k

安堵感と言うよりも、ただひたすら謝ってい
るかのようだった。彼女もまた眠れなかった
のか、顔色が優れない。
$k

#right,0.5,kana_inner_002.png,0
$voice,61301602
華奈「ほら、優衣ちゃん。茜さんにも元気な
　ところ、見せてあげようよ」
$k

彼女を気遣い、華奈姉さんが優衣ちゃんを前
に出す。
$k

優衣「……」
$k

…しかし、その表情は硬いまま。これは『彼
女』が現れる前と一向に変わらなかった。
$k

#character,0.5,erase,akane_inner_141.png,erase,0
$voice,61301807
茜「あ…、あの、私…、お食事の準備をしま
　すから」
$k

その空気に耐え切れず、茜さんの側が先に動
き出す。
$k

大悟「茜さん」
$k

#center,0.5,akane_inner_004.png,0
$voice,61301907
茜「はい？」
$k

大悟「朝食は俺が作りますから、茜さんは洗
　濯のほうをお願いできますか？」
$k

#center,0.5,akane_inner_141.png,0
$voice,61302007
茜「……」
$k

#center,0.5,akane_inner_162.png,0
$voice,61302107
茜「…はい、わかりました」
$k

俺の意図をすぐに理解してくれたようで、彼
女はやや視線を落としながらも素直に頷いて
くれた。
$k

茜さんにとっては酷なことかもしれないが、
こればかりは優衣ちゃんの健康に関わるので
仕方がない。
$k

// 優衣室内着（左）。華奈室内着（右）。
#character,0.5,yui_inner_003.png,erase,kana_inner_022.png,0
$voice,61302202
華奈「優衣ちゃん、学校行く準備しよっ！」
$k

場の空気を入れ換えようと、華奈姉さんは弾
んだ声で彼女を促した。
$k

#left,0.5,yui_inner_169.png,0
優衣「（こくり）」
$k

彼女もまた、それに応えるように小さく頷く
。
$k

言葉は発しなくても、周囲を思いやる心は忘
れていない。それが一番の、彼女が彼女であ
る証拠だと言えるだろう。
$k

……。
$k

#hide,0.5

// ＢＧＭストップ。
$bgm,stop,YES

// 次のファイルへ。
$next,614i_0709_ayu
