// 616.txt
// 　　ファイルナンバー６１６　・・・　メイドが『まい』について語る
// 　　　　　　登場　・・・　６メイド
// 　　　　７月９日（月）　午後６時３０分　土手の遊歩道
#screen,1.0,eye_background.jpg,eye_day_0709.png,eye_time_pm06.png,eye_loc_yuuhodou.png,eye_min_30.png,0
$k

// ＢＧＭスタート。
$bgm,16,YES

// 土手の遊歩道（夜）。
#background,1.0,yuuhodou_yoru.jpg,erase,0
#show,0.5

とっぷりと日が沈み、土手の遊歩道に一人佇
む。
$k

時計を確認すると、午後６時３０分少し前。
時間に正確な彼女なら、そろそろ来てもおか
しくはない。
$k

…まずは、何から話そうか。
$k

いきなり『まい』という名前を切り出しても
わからないだろうし、
$k

それが予想通り優衣ちゃんの母親のことであ
るとしても、ならばどうして俺が知っている
のかと言うことになるし、
$k

そこから説明するには、昨日の優衣ちゃんの
変貌のことも伝えなければならないだろうし
……。
$k

大悟「……」
$k

大悟「…よくよく考えると、現実離れしたこ
　とばかりだな」
$k

八木川の流れに目を向けて、小さくため息を
つく。
$k

『多重人格』なんて、本当にあるのだろうか
。
$k

みちる先生はかなり詳しい話をしていたが、
いまいち実感がわいてこない。
$k

昨日見た優衣ちゃんの変貌は、単なる一人芝
居だったのではないか。もしくは、ただ怒り
に我を忘れていただけではないだろうか。
$k

茶目っ気のある笑みを浮かべて『実はイタズ
ラでした』などと言われたほうが、まだ真実
味があるのだけれど……。
$k

……。
$k

// ＢＧＭストップ。
$bgm,stop,YES

$voice,61600006
？？「お待たせしました」
$k

そんな物思いに耽っている中、ふと背後から
聞こえる落ち着いた声。
$k

// ＢＧＭスタート。
$bgm,25,YES

#center,0.5,maid_normal_003.png,0
$voice,61600106
メイド「遅れてしまい、申し訳ございません
　」
$k

大悟「いえ、そんなに待ってませんから」
$k

それもメイドとしての作法なのだろうか、時
間通りなのは彼女のほうにも関わらず、俺に
対して深々と頭を下げた。
$k

いつも礼儀正しく、生真面目な表情のメイド
さん。その姿は、この場所に於いても変わら
ない。
$k

$voice,61600206
メイド「ご用と言うのは何でしょう？」
$k

大悟「あ…、はい」
$k

場を和ませる前振りも世間話もなく、彼女は
いきなり本題を求める。
$k

…無論、彼女だって仕事に忙しい身。こんな
ところで油を売っている時間はないはずだが
。
$k

大悟「実は、優衣ちゃんのことなんですけど
　……」
$k

メイド「……」
$k

ピンと張り詰める緊張感。胸の鼓動が加速す
る。
$k

大悟「彼女の口から、『まい』という言葉が
　出たんです」
$k

#center,0.5,maid_normal_004.png,0
$voice,61600406
メイド「『まい』…？」
$k

大悟「昨日の夜、こういうことがあって……
　」
$k

#center,0.5,maid_normal_003.png,0
メイド「……」
$k

…それからしばらくの間、俺は昨夕からのこ
とを説明した。
$k

優衣ちゃんが茜さんの作った食事を食べない
こと、怒りを露わにしたこと、まるで別人の
ようになってしまったこと……。
$k

…一度口から出てしまえば、それらの真偽は
関係ない。ただ自分が見たことを彼女に伝え
るのみだ。
$k

大悟「そして、優衣ちゃんは言ったんです」
　
$k

大悟「自分の名は『まい』である、と」
$k

#center,0.5,maid_normal_169.png,0
メイド「……」
$k

大悟「みちる先生の言葉を借りれば、その現
　象はおそらく『多重人格』と呼ばれるもの
　であり」
$k

大悟「優衣ちゃんの心を守るために『まい』
　という別人格が現れたのだと言うことにな
　ります」
$k

#center,0.5,maid_normal_003.png,0
メイド「……」
$k

大悟「…信じられない話かもしれませんけど
　、これは確かに自分の目の前で起きたこと
　です」
$k

大悟「そしてみちる先生の判断と分析もまた
　、間違っていないと思います」
$k

メイド「……」
$k

彼女の表情は何ら変わらなかった。
$k

疑うことも驚くことも、…無論、優衣ちゃん
に声が戻ったと言って喜ぶこともなく、
$k

ただ、俺の顔をじっと見詰めていた。
$k

その瞳の奥に切なさがあった。
$k

#center,0.5,maid_normal_169.png,0
$voice,61600906
メイド「『まい』という名前には心当たりが
　あります」
$k

大悟「えっ…？」
$k

…しばらくの間を置いた後、彼女の口がゆっ
くりと開く。
$k

#center,0.5,maid_normal_004.png,0
$voice,61601006
メイド「確かに、優衣様の実のお母様のお名
　前です」
$k

大悟「……」
$k

#center,0.5,maid_normal_003.png,0
$voice,61601106
メイド「彼女の名は、『久坂麻衣』」
$k

$voice,61601206
メイド「久しい坂に麻の衣と書きます」
$k

大悟「くさかまい…、久坂麻衣ですか……」
$k

$voice,61601306
メイド「もちろん、『久坂』というのは彼女
　の旧姓ですが…。いえ、むしろ『今』はそ
　れを使っているのかもしれません」
$k

大悟「……」
$k

優衣ちゃんの母親は、優衣ちゃんが幼い頃に
離婚していたと聞く。
$k

ならば…、他の誰かと再婚していない限りは
、旧姓の『久坂』に戻っているはずだ。
$k

大悟「どのような方だったんですか？　その
　、久坂麻衣さんという方は……」
$k

優衣ちゃんが執着し、そして心の拠り所とし
ている彼女。その人物像が優衣ちゃんに影響
を与えているのは十分に予想できる。
$k

#center,0.5,maid_normal_141.png,0
$voice,61601406
メイド「……」
$k

…が、メイドさんは言いづらそうに視線を逸
らした。
$k

大悟「あ…、別に言えないことだったらいい
　んですけど……。ただ、重要なことは重要
　でしょうから……」
$k

#center,0.5,maid_normal_169.png,0
メイド「……」
$k

#center,0.5,maid_normal_003.png,0
$voice,61601606
メイド「…二宮様」
$k

大悟「は…、はいっ！」
$k

彼女は意を決したのか、真剣な目で俺を見据
えた。
$k

その眼差しの強さは、俺の心の内を探ってい
るかのよう。そして同時に、何か思い詰めて
いるようでもある。
$k

#center,0.5,maid_normal_004.png,0
$voice,61601706
メイド「これからお話しすることは、本来な
　らば神山の一族以外は決して知り得ないこ
　とです」
$k

#center,0.5,maid_normal_003.png,0
$voice,61601806
メイド「私は当時働いていた執事から聞きま
　したが、今後、他の誰かに伝えることはな
　いでしょう」
$k

$voice,61601906
メイド「…それほどまでに重要な、そして神
　山家の沽券に関わる問題だと思ってくださ
　い」
$k

大悟「はい……」
$k

彼女の緊張した物言いに、こちらの心も引き
締まる。
$k

たらりと頬を伝う汗。それが川風にさらされ
て、涼しさどころか冷たささえも感じてしま
う。
$k

#center,0.5,maid_normal_004.png,0
$voice,61602006
メイド「麻衣様は、ごく平凡な家庭のお生ま
　れでした」
$k

大悟「……」
$k

#center,0.5,maid_normal_003.png,0
$voice,61602106
メイド「ごく平凡な少女として育ち、ごく平
　凡な学園へ進み、そしてごく平凡な青春時
　代を過ごしましたが……」
$k

#center,0.5,maid_normal_169.png,0
$voice,61602206
メイド「…しかし、彼女にはたった一つだけ
　非凡な才能がありました」
$k

#center,0.5,maid_normal_003.png,0
$voice,61602306
メイド「それは、誰もが目を見張るほどの美
　しさでございます」
$k

大悟「美しさ……」
$k

#center,0.5,maid_normal_004.png,0
$voice,61602406
メイド「麻衣様のお美しさは、この街では知
　らない者はいなかったようで」
$k

#center,0.5,maid_normal_003.png,0
$voice,61602506
メイド「容姿や職業、年齢を問わず、誰もが
　彼女に夢中になり、恥も外聞もなく交際を
　申し込んでいたそうです」
$k

$voice,61602606
メイド「そしてその中に旦那様…、つまり神
　山家の現当主の姿がありました」
$k

$voice,61602706
メイド「彼女はそれを見てたいそう喜ばれた
　ことでしょう、ほんの僅かな交際期間で麻
　衣様は神山家に嫁がれたのです」
$k

大悟「それって、まさに『玉の輿』ですよね
　」
$k

#center,0.5,maid_normal_169.png,0
$voice,61602806
メイド「はい」
$k

有数の資産家である神山氏と結婚するのだか
ら、その言葉が表す通りだ。女性ならば誰も
が憧れるシチュエーションである。
$k

#center,0.5,maid_normal_003.png,0
$voice,61602906
メイド「さらに付け加えるのであれば」
$k

$voice,61603006
メイド「その結婚の直前の七夕祭りで、彼女
　は織姫に選出されました」
$k

#center,0.5,maid_normal_004.png,0
$voice,61603106
メイド「神山家の後継者と親しげに話されて
　いる姿は、まさに天に輝く彦星と織姫その
　もの」
$k

#center,0.5,maid_normal_003.png,0
$voice,61603206
メイド「老若男女を問わず、理想のカップル
　として大いにもてはやされていたそうです
　」
$k

大悟「なるほど、それじゃあかなりのレベル
　ですね」
$k

七夕祭りの織姫選びには相当厳しい審査があ
る。それをパスしたのならば、その美貌も下
手なアイドルを遥かに上回るだろう。
$k

大悟「じゃあ、彼女はとても幸せだったんじ
　ゃないですか？」
$k

#center,0.5,maid_normal_141.png,0
$voice,61603306
メイド「……」
$k

#center,0.5,maid_normal_162.png,0
$voice,61603406
メイド「…確かに、彼女は幸せだったのかも
　しれませんね」
$k

大悟「えっ？」
$k

何か微妙に気になるメイドさんの言い方。及
び、その表情も麻衣さんを祝福しているもの
ではない。
$k

#center,0.5,maid_normal_004.png,0
$voice,61603506
メイド「彼女は、神山家に入ってから豹変し
　ました」
$k

大悟「豹変……」
$k

#center,0.5,maid_normal_003.png,0
$voice,61603606
メイド「家のしきたりを守らず、年長の者の
　言うことすら聞かず」
$k

$voice,61603706
メイド「贅沢を好み、金銭を湯水のように使
　い、そして昼夜を問わず歓楽街を歩き回り
　……」
$k

#center,0.5,maid_normal_169.png,0
$voice,61603806
メイド「…彼女は今までの人生の中では体験
　できなかった豪遊を、毎日のように楽しん
　でいたのです」
$k

#center,0.5,maid_normal_003.png,0
$voice,61603906
メイド「無論、旦那様から注意もされたそう
　ですが、…それに従うわけもなく、彼女の
　横柄さは日に日に増していきました」
$k

$voice,61604006
メイド「また、優衣様のご誕生後も彼女に母
　親としての自覚は生まれず、そのお世話は
　使用人に任せきりだったそうです」
$k

#center,0.5,maid_normal_004.png,0
$voice,61604106
メイド「…彼女は、出産の時にこんなことを
　言ったそうですよ」
$k

#center,0.5,maid_normal_169.png,0
$voice,61604206
メイド「『これで邪魔なものがなくなる』と
　」
$k

大悟「……」
$k

#center,0.5,maid_normal_003.png,0
$voice,61604306
メイド「そして数年後、ついに旦那様は親族
　の皆様の声を抑えきれなくなり、彼女との
　離婚を決意しました」
$k

$voice,61604406
メイド「彼女はその話を聞いても、反省する
　気など一切なく」
$k

$voice,61604506
メイド「膨大な額に及ぶ手切れ金を奪い取っ
　て、笑いながら屋敷から出ていったそうで
　す」
$k

大悟「……」
$k

#center,0.5,maid_normal_169.png,0
$voice,61604606
メイド「…それから後のことはわかりません
　」
$k

#center,0.5,maid_normal_003.png,0
$voice,61604706
メイド「彼女からの連絡も一切ありませんし
　、当時の使用人もほとんど残っていません
　から」
$k

$voice,61604806
メイド「当然、旦那様の側から接触を図るこ
　ともなく、…今はただ、若気の至りだった
　と苦笑するのみでございます」
$k

#center,0.5,maid_normal_004.png,0
$voice,61604906
メイド「…そんな彼女を一言で表すならば、
　『悪い女』」
$k

#center,0.5,maid_normal_003.png,0
$voice,61605006
メイド「優衣様から見れば、『悪い母親』だ
　ったのです」
$k

大悟「まさか…、そんな人が……」
$k

#center,0.5,erase,0
…にわかには信じがたい話だった。
$k

家庭に入る前は猫をかぶっていたと言う女性
の話はよくあるが、この久坂麻衣という人物
の場合はその比ではない。
$k

自分の美貌を使って名家に入り込み、そして
財産を思いの限りに食い潰す悪女。
$k

世が世なら、国さえ傾けさせるほどの魔力と
悪意を持った女狐である。
$k

#center,0.5,maid_normal_003.png,0
$voice,61605106
メイド「『まい』と言う名前で優衣様とご関
　係のある方と言えば、この久坂麻衣様以外
　に考えられません」
$k

…彼女は僅かに唇を噛んでいた。その表情を
変えないように努力はしていても。
$k

大悟「優衣ちゃんはそのことを…、麻衣さん
　が『悪い母親』だったことを知っているん
　ですか？」
$k

#center,0.5,maid_normal_004.png,0
$voice,61605206
メイド「旦那様から直接お話になられたそう
　です。確か、中学に上がられる直前だった
　と思います」
$k

大悟「それが、どうして……」
$k

#center,0.5,maid_normal_141.png,0
メイド「……」
$k

大悟「どうして今になって、『まい』という
　存在になって現れたんだ…？」
$k

#center,0.5,maid_normal_162.png,0
メイド「……」
$k

大悟「優衣ちゃんにとっては嫌な思い出のは
　ずなのに…、忘れてしまいたい記憶のはず
　なのに…」
$k

#center,0.5,maid_normal_003.png,0
メイド「……」
$k

#center,0.5,maid_normal_004.png,0
$voice,61605606
メイド「…素人考えではありますが」
$k

嫌な焦りと、底知れない恐怖心すら覚えてい
る俺に対して、彼女は落ち着いた口調で言っ
た。
$k

#center,0.5,maid_normal_003.png,0
$voice,61605706
メイド「人は誰しも、母親からの愛を信じて
　いるからではありませんか？」
$k

大悟「母親からの愛…？」
$k

$voice,61605806
メイド「悪評ばかりを聞かされていても、優
　衣様にとって麻衣様は実のお母様ですから
　」
$k

$voice,61605906
メイド「娘に対する愛情が微塵もなかったと
　考えるのは不可能だと思います」
$k

大悟「……」
$k

#center,0.5,maid_normal_169.png,0
$voice,61606006
メイド「…そして、茜様の存在」
$k

#center,0.5,maid_normal_003.png,0
$voice,61606106
メイド「麻衣様の愛情を信じているにも関わ
　らず、新しい義母を迎えなければならない
　と言うことは」
$k

#center,0.5,maid_normal_004.png,0
$voice,61606206
メイド「己の信念を完全に否定することにな
　ります」
$k

#center,0.5,maid_normal_169.png,0
$voice,61606306
メイド「…それを受け入れるには、優衣様に
　は思い出が少なすぎるのかもしれません」
$k

大悟「……」
$k

#center,0.5,erase,0
…ふっと静寂が広がる。
$k

八木川のせせらぎだけがこの耳に届く。
$k

確かに優衣ちゃんには酷なことだと思う。彼
女は麻衣さんのことを話にしか聞いていない
のだから。
$k

本能的に母親の愛を信じる子にとっては、茜
さんの入籍は最後の希望を打ち砕くものにな
るだろう。
$k

だから、彼女はあそこまで抵抗した。
$k

自分の中に『まい』という別人格すら作り上
げて…。
$k

……。
$k

#center,0.5,maid_normal_003.png,0
$voice,61606406
メイド「二宮様」
$k

彼女がそっと言葉を紡ぐ。時の流れを感じさ
せてくれるかのように。
$k

#center,0.5,maid_normal_004.png,0
$voice,61606506
メイド「私には、優衣様にとって何が良いの
　かわかりませんが」
$k

#center,0.5,maid_normal_169.png,0
$voice,61606606
メイド「…少なくとも、優衣様と茜様が普通
　の人間関係を築けるように」
$k

#center,0.5,maid_normal_003.png,0
$voice,61606706
メイド「それだけを、星に願いたいと思いま
　す」
$k

大悟「……、…はい」
$k

// 星空。
#background,1.0,hoshizora.jpg,same,0
見上げれば、夜を賑わす満天の星空。
$k

七夕は過ぎてしまっても、その美しさは変わ
りようがない。
$k

あの星達の中に、一つくらいは彼女の願いを
叶えてくれるものがあってもいいんじゃない
か。
$k

熱心に祈っていれば、いつかはそれに報いて
くれるんじゃないか。
$k

…そんなことが、自然に思えてしまうような
光景だった。
$k

……。
$k

#hide,0.5

// ＢＧＭストップ。
$bgm,stop,YES

// 次のファイルへ。
$next,617i_0709_mi
