// 617.txt
// 　　ファイルナンバー６１７　・・・　みちるに久坂麻衣のことを話す
// 　　　　　　登場　・・・　３みちる
// 　　　　７月９日（月）　午後１１時００分　自宅の居間
#screen,1.0,eye_background.jpg,eye_day_0709.png,eye_time_pm11.png,eye_loc_jitaku_ima.png,eye_min_00.png,0
$k

// ＢＧＭスタート。
$bgm,16,YES

// 自宅の居間（夜）。みちるパジャマ。
#background,1.0,jitaku_ima_yoru.jpg,erase,0
#center,0.5,michiru_nemaki_003.png,0
#show,0.5

$voice,61700003
みちる「なるほど、そういうことだったのか
　」
$k

大悟「…って、よく平然としていられますね
　」
$k

#center,0.5,michiru_nemaki_004.png,0
$voice,61700103
みちる「ここで大声を出して驚けとでも言う
　のか？　だとしたら、お前はその話を一か
　ら繰り返すことになるな」
$k

大悟「まあ、そうですけど」
$k

#center,0.5,erase,0
…あれから帰宅して皆が寝静まった頃、俺は
メイドさんから聞いた話をみちる先生に説明
した。
$k

華奈姉さんはともかく、茜さんにも聞かせる
べきかどうか迷ったが、
$k

…それはみちる先生の判断で、とりあえずは
後回しにすることになった。
$k

すでに寝室に入っている彼女達には聞こえな
いだろうが、心なしか声のトーンを落として
しまう。
$k

#center,0.5,michiru_nemaki_003.png,0
$voice,61700203
みちる「それにしても、優衣の母親がそんな
　人物だったとはな……」
$k

みちる先生はその形の良いあごに手を当てて
、しばらく考え込んだ。
$k

#center,0.5,michiru_nemaki_004.png,0
$voice,61700303
みちる「お前はどう思う？」
$k

大悟「何がですか？」
$k

#center,0.5,michiru_nemaki_003.png,0
$voice,61700403
みちる「だから、優衣の母親がいわゆる『悪
　女』だったことについて、だ」
$k

大悟「そうですね……」
$k

// 優衣の母親の印象について…？
$select,最初は驚いたけど……。,668i_617i_2
$select,意外だと思う。,667i_617i_1
$select,（仮にも優衣の母親なのですから……）,hint
$k
