// 630.txt
// 　　ファイルナンバー６３０　・・・　大悟が優衣を説得する（優衣ルート）
// 　　　　　　登場　・・・　４優衣、６メイド
// 　　　　７月１２日（木）　午後７時３０分　土手の遊歩道
#screen,1.0,eye_background.jpg,eye_day_0712.png,eye_time_pm07.png,eye_loc_yuuhodou.png,eye_min_30.png,0
$k

// ＢＧＭスタート。
$bgm,25,YES

// 土手の遊歩道（夜）
#background,1.0,yuuhodou_yoru.jpg,erase,0
#show,0.5

…息の荒さも、程なく収まっていた。
$k

八木川のせせらぎが耳に届く。川風が頬の汗
を拭う。
$k

その光景は、かつても見たもの。
$k

星達の輝きが作り出す幻想は、何年経っても
変わりはしない。
$k

#center,0.5,maid_normal_003.png,0
$voice,63000006
メイド「お待ちしておりました」
$k

…彼女は恭しく頭を下げた。
$k

大悟「良かった…、すぐに見付かって」
$k

#center,0.5,maid_normal_004.png,0
$voice,63000106
メイド「二宮様お一人ですか？」
$k

大悟「はい、そうです。これは俺がやらなけ
　ればならないと思って、一人で来させても
　らいました」
$k

#center,0.5,maid_normal_003.png,0
$voice,63000206
メイド「そうですか……」
$k

大悟「…いけませんでしたか？」
$k

#center,0.5,maid_normal_169.png,0
$voice,63000306
メイド「いえ、そのようなことはございませ
　ん」
$k

#center,0.5,maid_normal_003.png,0
$voice,63000406
メイド「『まい』様も、二宮様とお二人だけ
　でお話がしたいとおっしゃっておられます
　」
$k

大悟「……」
$k

その言葉に、一瞬にして緊張が走る。
$k

彼女はもしかすると、俺が話す前からその存
在を知っていたのかもしれない。それほど、
彼女の声は落ち着いている。
$k

#center,0.5,maid_normal_004.png,0
$voice,63000506
メイド「心の準備はよろしいですか？」
$k

大悟「…はい」
$k

まるで高貴な人物に謁見するかのような気持
ち。
$k

#center,0.5,maid_normal_169.png,0
$voice,63000606
メイド「それでは…、『まい』様」
$k

#center,0.5,erase,0
メイドさんは闇の中へ消えるかのようにすっ
と横に動き、
$k

そして、『彼女』が現れた。
$k

……。
$k

// ＢＧＭストップ。
$bgm,stop,YES

// ＢＧＭスタート。
$bgm,21,YES

// 土手の遊歩道（夜）。優衣外出着。
#center,0.5,yui_outer_005.png,0
優衣「……」
$k

大悟「優衣ちゃん……」
$k

優衣「……」
$k

大悟「…あ、いや、『まい』さんだったね」
　
$k

$voice,63000904
優衣「どちらでも構いませんが」
$k

…美しさの中にも威圧的な視線。華奢な中に
も、強烈に感じるプレッシャー。
$k

神山の血がそうさせているのだろうか。普段
の彼女の雰囲気とは異なっていても、今の姿
に違和感はない。
$k

#center,0.5,yui_outer_006.png,0
$voice,63001004
優衣「私を消せるとでも思っているのですか
　？」
$k

大悟「……」
$k

…やはり彼女は気付いていた。あの僅かな会
話の中から。
$k

#center,0.5,yui_outer_005.png,0
$voice,63001104
優衣「人が人の心に干渉するなど、ふざけて
　いるにも程があります」
$k

大悟「確かにそうかもしれない。実際問題と
　して、可能かどうかもわからない」
$k

大悟「でも、あなたは消えなければならない
　。これから優衣ちゃんが未来へ歩んでいく
　ために」
$k

#center,0.5,yui_outer_006.png,0
$voice,63001204
優衣「『優衣』が未来へ歩んでいくために…
　？」
$k

#center,0.5,yui_outer_005.png,0
$voice,63001304
優衣「…ふふっ、あなたは母親のいない子供
　が真っ当に育つとでも？」
$k

大悟「母親ならいるじゃないか。あなたでは
　なく、茜さんという『良い母親』が」
$k

$voice,63001404
優衣「『優衣』がどちらを必要としているか
　、尋ねてみますか？」
$k

大悟「……」
$k

何だろう、この自信は……。
$k

俺の言葉に対して身じろぎ一つせず、その口
許には薄笑いすら浮かんでいるように見える
。
$k

これは…、いや、だからこそ優衣ちゃんの『
理想』と言うべきか。彼女が望むままの人物
像を作り上げているのだから。
$k

しかし……。
$k

大悟「優衣ちゃんの意志は、あなたがコント
　ロールしているんじゃありませんか？」
$k

優衣「……」
$k

大悟「あなたが優衣ちゃんの心を束縛してい
　る」
$k

大悟「あなたが、優衣ちゃんに自らの必要性
　を強迫している」
$k

優衣「……」
$k

#center,0.5,yui_outer_006.png,0
$voice,63001704
優衣「…わかっていませんね、あなたは『優
　衣』のことを」
$k

彼女はやはり余裕のある表情で、俺の言葉を
軽くいなした。
$k

#center,0.5,yui_outer_005.png,0
$voice,63001804
優衣「『優衣』が今までどんな思いで生きて
　きたのか、考えたことはありますか？」
$k

大悟「優衣ちゃんが……？」
$k

$voice,63001904
優衣「あの子はいつも願っていましたよ。自
　分にも優しい母親がほしい、いつでも甘え
　させてくれる母親がほしいと」
$k

$voice,63002004
優衣「そして、母親に帰ってきてほしいと」
$k

大悟「……」
$k

#center,0.5,yui_outer_006.png,0
$voice,63002104
優衣「それを私が叶えているのです」
$k

$voice,63002204
優衣「私があの子を支えているのです」
$k

#center,0.5,yui_outer_005.png,0
$voice,63002304
優衣「あの子の思いは、私に対する感謝の気
　持ち」
$k

$voice,63002404
優衣「それを私の強迫などと言われるとは…
　…、『心外』を通り越して、『憤り』すら
　覚えます」
$k

大悟「……」
$k

…場の空気が震える。
$k

それはおそらく、彼女の感情に呼応してのも
のだろう。
$k

正直言って、彼女が怖い。
$k

この心の内には、底知れない恐怖が生まれて
いるけれども……。
$k

大悟「…でも、それは『現実』ではない！」
　
$k

優衣「……」
$k

大悟「ただ優衣ちゃんは、自分で作った偶像
　を自分で崇拝しているだけだ！」
$k

大悟「そこには、『自己満足』しかない！」
$k

#center,0.5,yui_outer_006.png,0
$voice,63002604
優衣「『自己満足』でいいではないですか。
　それであの子は平静を保っていられるので
　すから」
$k

$voice,63002704
優衣「あの子から私を消したら、どうなると
　思うのですか？」
$k

#center,0.5,yui_outer_005.png,0
$voice,63002804
優衣「…『優衣』は残酷な現実に身をさらさ
　れ、その心により深い傷を負うことになる
　でしょう」
$k

$voice,63002904
優衣「だから『優衣』にとっては、『今』が
　幸せなのです」
$k

$voice,63003004
優衣「私によって願いが叶えられている『今
　』が、あの子にとっては幸福なのです…！
　」
$k

大悟「違うっ！　優衣ちゃんにとっては『今
　』が幸せなんかじゃない！」
$k

大悟「彼女の幸せは、『現実』を受け止める
　ことにある！」
$k

大悟「過去の出来事を認めて、未来の可能性
　を選ぶことが幸せなんだ！」
$k

大悟「いつまでも『久坂麻衣』に固執してい
　たら、優衣ちゃんは不幸になるだけだ！」
$k

#center,0.5,yui_outer_006.png,0
$voice,63003104
優衣「言うなっ！　『お母さん』のことを悪
　く言うなっ！」
$k

大悟「…っ！」
$k

彼女は今、何と言った…？
$k

そこまで彼女は混乱しているのか…！
$k

$voice,63003204
優衣「『お母さん』はいつも優衣を支えてく
　れている！　『お母さん』が『優衣』を幸
　せにしてくれている！」
$k

$voice,63003304
優衣「そんな『お母さん』が『優衣』を不幸
　にするはずがない！」
$k

大悟「でもしてるじゃないか、彼女はっ！」
$k

大悟「幼い優衣ちゃんを不幸にした！　それ
　は事実だ！」
$k

$voice,63003404
優衣「違うっ！　違う違うっ！」
$k

大悟「君が信じているのは単なる偶像だよ、
　優衣ちゃん。そしてそれゆえに、今度は『
　現実』が不幸になろうとしている」
$k

大悟「『現実』の世界に生きる、茜さんが」
$k

#center,0.5,yui_outer_162.png,0
$voice,63003504
優衣「……っ！」
$k

$voice,63003604
優衣「くっ…、う、ううっ…！」
$k

大悟「それは許されないことなんだ」
$k

大悟「自分の満足のために、他人を苦しめて
　はいけないんだ」
$k

#center,0.5,yui_outer_141.png,0
$voice,63003704
優衣「うっ…、うあっ…、う、くううっ……
　」
$k

大悟「……」
$k

…彼女は突然、胸を押さえて苦しみ出した。
$k

きっと『彼女』が剥がれ始めているのだろう
。その存在意義に、優衣ちゃん自身が疑問を
感じて。
$k

だが…、手を出してはいけない。
$k

彼女がどんなに苦しくても、これは自分で乗
り越えなくてはならない。
$k

#center,0.5,yui_outer_150.png,0
$voice,63003804
優衣「『優衣』に…、現実なんて、関係ない
　……」
$k

…それでも彼女は、声を振り絞った。
$k

$voice,63003904
優衣「今の『優衣』を支えているのは、現実
　なんかじゃない……」
$k

#center,0.5,yui_outer_162.png,0
$voice,63004004
優衣「現実は…、『優衣』を幸せにしてくれ
　ない…」
$k

大悟「……」
$k

#center,0.5,yui_outer_141.png,0
$voice,63004104
優衣「『優衣』を幸せにできるのは、私だけ
　……」
$k

$voice,63004204
優衣「自分が作った、理想の母親…、だけ…
　…」
$k

大悟「……」
$k

#center,0.5,yui_outer_162.png,0
$voice,63004304
優衣「それが消えたら…、誰が『優衣』を支
　えるのですか……」
$k

大悟「……」
$k

#center,0.5,yui_outer_006.png,0
$voice,63004404
優衣「私以外の誰が、どうやって…、『優衣
　』を支えると言うのですかっ！」
$k

……。
$k

// バッドエンドへ。
$next,632i_0712_yui
