// 651.txt
// 　　ファイルナンバー６５１　・・・　優衣の回想
// 　　　　　　登場　・・・　４優衣、６メイド、７茜
// 　　　　（日付表示なし）
#screen,1.0,eye_background.jpg,same,same,same,same,0
$k

// 全面黒。
#background,1.0,black.jpg,same,0
$wait,1.0

// ＢＧＭスタート。
$bgm,08,YES

#background,1.0,hoshizora.jpg,same,0
#show,0.5

$voice,65100004
…ただ一つ私の中に残っているのは、二人で
見上げた星空の記憶。
$k

$voice,65100104
賑やかだった七夕祭り。
$k

$voice,65100204
もう、何年前のことかも覚えていない。私が
何才の時のことかもわからない。
$k

$voice,65100304
手を繋いでいたのか、おんぶされていたのか
…、それさえも記憶にないけれど、
$k

$voice,65100404
確かに私は、お母さんと星空を見上げた。
$k

$voice,65100504
お付きの人もなく、お父さんも挨拶回りをし
ていて、
$k

$voice,65100604
お母さんと二人だけで出掛けた七夕祭りだっ
た。
$k

$voice,65100704
…ちょっと、うれしかった。
$k

$voice,65100806
『あれが織姫様で、あれが彦星様よ』
$k

$voice,65100904
お母さんは星を指差しながら、七夕のお話を
してくれた。
$k

$voice,65101006
『二人は一年に一度しか会えないけれど、ず
っとず〜っと愛し合っているの』
$k

$voice,65101104
…ただお母さんの声を聞いていられることが
、幸せだった。
$k

……。
$k

// 全面黒。
#background,1.0,black.jpg,same,0
$voice,65101204
私の中にはそんな記憶が残っているのに、ど
うして周りの大人達はお母さんのことを悪く
言うのだろう？
$k

$voice,65101304
お母さんは、自分から出ていった。
$k

$voice,65101404
お母さんは、神山家を嫌っていた。
$k

$voice,65101504
お母さんは、ただ金だけが目的だった。
$k

$voice,65101604
お母さんは、私を愛していなかった。
$k

……。
$k

// 星空。
#background,1.0,hoshizora.jpg,same,0
$voice,65101704
…一年経ったら、お母さんに会えると思って
いた。七夕の織姫と彦星のように。
$k

$voice,65101804
たった一日でも、一年分の声が聞けると思っ
ていた。
$k

$voice,65101904
…でも、お母さんが帰ってくることはなかっ
た。
$k

$voice,65102004
大人達の繰り返す言葉が、僅かな記憶を上書
きしていった。
$k

$voice,65102104
…そして月日が経って、神山家に新しいお母
さんがやって来ると聞いた。
$k

$voice,65102204
私のよく知っている人。
$k

$voice,65102304
お父様のオフィスへ行くと、いつもケーキと
紅茶を出して楽しい話をしてくれる人。
$k

$voice,65102404
彼女はお父様に欠かせない人だと思った。
$k

$voice,65102504
『再婚』は決して悪いことではなく、お父様
がこれからの人生を歩んでいく上で必要なこ
とだと思った。
$k

$voice,65102604
…でも、彼女が私の『お母さん』になること
は信じられなかった。
$k

$voice,65102704
吐き気がした。
$k

……。
$k

// 全面黒。
#background,1.0,black.jpg,same,0
$voice,65102804
周りの大人達は悪い人ではない。長年神山家
に仕えてくれている、信頼できる人達ばかり
だ。
$k

$voice,65102904
だけど、お母さんのことを悪く言った。
$k

$voice,65103004
だから、新しいお母さんが来てくれて良かっ
たね、と言った。
$k

$voice,65103104
…それが本当に良いのだろうか？
$k

$voice,65103204
お母さんは本当に悪い人だったのだろうか？
$k

$voice,65103304
…そんなことを考えていると、不意に自分の
中から何かが沸き上がってきた。
$k

$voice,65103404
それが私を、支配した。
$k

$voice,65103504
『お母さんは、悪くない』
$k

$voice,65103604
『私のお母さんは、一人だけ』
$k

$voice,65103704
『記憶の中にいる、一人だけ』
$k

$voice,65103804
『私を愛してくれるのは、お母さんだけ』
$k

$voice,65103504
『お母さんは、悪くない……』
$k

……。
$k

// 白枠表示。
// ６６７０：優衣、茜の胸に抱かれる（表情が茫然と）
#background,1.0,00006670.jpg,shiro_waku.png,0
$cfinto,34,1

$voice,65103907
「…そう、ですね」
$k

$voice,65104004
…その声は心に深く染み込んできた。
$k

$voice,65104107
「あなたのお母さんは、あなたをちゃんと愛
　していましたよ」
$k

$voice,65104204
…涙がこぼれ落ちる。
$k

$voice,65104307
「久坂麻衣さんは、とても優しい方でした」
$k

$voice,65104404
…聞きたかった言葉。
$k

$voice,65104507
「そしてこれからは、私も麻衣さんのことを
　愛しましょう」
$k

$voice,65104607
「彼女が果たせなかった思いを、この胸に抱
　き締めて」
$k

$voice,65104704
…お母さんの名誉が、回復された。
$k

……。
$k

// 全面白。
#background,1.0,white.jpg,same,0

// ６６８０：優衣、『まい』との別れ。＜撫でる手がある＞
#background,1.0,00006680.jpg,erase,0
$cfinto,35,1

$voice,65104904
『良かったわね、優衣……』
$k

$voice,65105004
お母さん……。
$k

$voice,65105204
『あなたの願いは叶ったのよ』
$k

$voice,65105304
……。
$k

$voice,65105504
『そして、『私』ももう必要ないでしょう』
　
$k

$voice,65105704
『あなたには、彼女がついているのですから
　』
$k

$voice,65105804
そんな……。
$k

$voice,65106004
『さようなら、優衣』
$k

$voice,65106204
『あなたの幸せを、祈っています』
$k

$voice,65106304
お母さん……。
$k

// ６６８１：優衣、『まい』との別れ。＜撫でる手がない＞
#background,1.0,00006681.jpg,same,0
$cfinto,0,0

$voice,65106404
お母さん…！　お母さんっ！
$k

$voice,65106504
お母さーーーんっ！
$k

……。
$k

#hide,0.5
$wait,1.0

// 全面白
#background,1.0,white.jpg,same,0

// ＢＧＭストップ。
$bgm,stop,YES
$wait,1.0

// 次のファイルへ。
$next,652i_0712_yui