// 選択肢１を選んだ場合。（『謝る必要なんてありませんけど……』）
大悟「謝る必要なんてありませんけど、呼ぶ
　ことは呼びますね」
$k

#center,0.5,maid_normal_004.png,0
$voice,60201306
メイド「二宮様……」
$k

#center,0.5,erase,0
俺はなおも恐縮する彼女を制し、今だに騒ぎ
立てている電話の向こうへ大声を発した。
$k

大悟「みちる先生！　ちょっとこっちに来て
　ほしいんですけど！」
$k

$next,662i_602i_3
