// 選択肢２を選んだ場合。
// 優衣好感度（＋１）
$pfplus,40,1

大悟「みちる先生ではなく、優衣ちゃんに謝
　るべきだと思いますよ」
$k

#center,0.5,maid_normal_162.png,0
$voice,60201406
メイド「……」
$k

深い反省の色に染まる彼女の顔。どうやら、
主家の人間に対する非礼だけを感じているわ
けではないようだ。
$k

#center,0.5,erase,0
大悟「みちる先生！　ちょっとこっちに来て
　ほしいんですけど！」
$k

とにもかくにも、俺は今だ騒ぎ立っている電
話の向こうへ大声を発した。
$k

$next,662i_602i_3
