// 選択肢１を選んだ場合。（『茜さんの責任ではない』と言う）
// 優衣好感度（＋１）
$pfplus,40,1

大悟「茜さんの責任ではありませんよ」
$k

#center,0.5,akane_inner_004.png,0
$voice,60800407
茜「えっ…？」
$k

俺は彼女の目を見て、きっぱりと言った。
$k

大悟「誰にでも食欲のない時はあります。特
　に今日は朝食が遅かったんで、優衣ちゃん
　のお腹も膨れていたのかもしれません」
$k

大悟「きっと夜になればお腹を空かせて、何
　でも食べてくれますよ」
$k

#center,0.5,akane_inner_169.png,0
$voice,60800507
茜「……」
$k

#center,0.5,akane_inner_001.png,0
$voice,60800607
茜「…それなら、頑張って作らないといけま
　せんね」
$k

彼女の顔に浮かぶ小さな安堵感。
$k

おそらく彼女も真の理由はわかっているのだ
ろうが、敢えてそれを言わず、こうして励ま
すことが大切だ。
$k

$next,665i_608i_3
