// 集結。

#center,0.5,akane_inner_004.png,0
$voice,60801007
茜「そう言えば、お食事の準備はいつも誰が
　なさっているのでしょうか？」
$k

大悟「あ…、それは、その……」
$k

気持ちを切り換えるように顔を上げた茜さん
だったが、その質問はなかなか答えにくいも
のだった。
$k

この家には多くの女性がいるにも関わらず、
…優衣ちゃんはともかく、他の二人は全く家
事をしようとしない。
$k

だから答えは決まっているのだが…、それを
正直に言うのも何となくはばかられてしまう
。
$k

#center,0.5,akane_inner_001.png,0
$voice,60801107
茜「今井先生でしょうか？　明るくて優しそ
　うな方で、お料理もお上手なように見えま
　すけど」
$k

大悟「違います」
$k

#center,0.5,akane_inner_004.png,0
…俺は速攻で答えていた。彼女が大きな誤解
を抱かないように。
$k

#center,0.5,akane_inner_021.png,0
$voice,60801207
茜「それでは海堂先生ですか？　凛々しくて
　聡明な方で、お料理もしっかり学んでいそ
　うですね」
$k

大悟「全然違います」
$k

#center,0.5,akane_inner_004.png,0
…これもまた速攻で答える。先ほど以上に彼
女が誤解をしないように。
$k

#center,0.5,akane_inner_003.png,0
$voice,60801307
茜「では、誰なのでしょう…？」
$k

大悟「……」
$k

#center,0.5,akane_inner_169.png,0
$voice,60801407
茜「……」
$k

#center,0.5,akane_inner_004.png,0
$voice,60801507
茜「…あ」
$k

しばらく思いを巡らせた後、彼女は俺の顔を
見て、ついに気付いてしまった。
$k

$voice,60801607
茜「二宮さんがお作りになられてるんですか
　…？」
$k

大悟「……、…はい」
$k

もはや無駄な抵抗はできず、素直に頷くだけ
だった。
$k

大悟「以前は俺と華奈姉さんだけで住んでた
　んですけど、華奈姉さんが料理どころか家
　事の類が全然駄目で」
$k

大悟「…仕方なく、俺が全部やってたんです
　」
$k

$voice,60801707
茜「……」
$k

大悟「みちる先生が来てからも、ごく自然に
　それが継続されてしまって……」
$k

大悟「昨日まで、この家の食事は全部俺が作
　ってました」
$k

$voice,60801807
茜「……」
$k

大悟「……」
$k

…何とも呆気に取られたような茜さんの目。
$k

虚しい…。男としてとんでもなく情けないこ
とを打ち明けてしまったような気がするぞ…
…。
$k

大悟「おかしいですよね…、情けないですよ
　ね、俺って……」
$k

#center,0.5,akane_inner_026.png,0
$voice,60801907
茜「…い、いえ、とんでもありませんっ！」
$k

$voice,60802007
茜「とっても素敵なことだと思いますよ！　
　ほら…、最近は男性向けの料理雑誌だって
　ありますし！」
$k

$voice,60802107
茜「『男子厨房に入らず』なんて死語ですよ
　、死語！　今の世の中、男の方が料理した
　って誰も文句は言いません！」
$k

大悟「そのお気持ち、深く感謝いたします…
　…」
$k

慌ててフォローしてくれる彼女だったが、残
念なことに俺の心を癒すには十分ではなかっ
た。
$k

確かに最近は『男の料理』がもてはやされて
はいても、それはあくまで趣味の範囲であっ
て、
$k

俺のように『日常』になってしまっている人
はなかなかいないんですよ……。
$k

#center,0.5,akane_inner_141.png,0
$voice,60802207
茜「あの、二宮さん……」
$k

同情の眼差し。
$k

俺の胸中を察してか、茜さんもやや沈んだ面
持ちで俺を見詰めている。
$k

大悟「…心配しないでください、もう慣れま
　したから」
$k

大悟「俺はこの家にいる以上、みんなのため
　に尽くさないといけないんです。みんなの
　生活を支えないといけないんです」
$k

大悟「これはもう、俺の運命みたいなものな
　んですよ。はは、ははは……」
$k

#center,0.5,akane_inner_162.png,0
$voice,60802307
茜「……」
$k

虚しい笑い声が辺りに響く。
$k

彼女もまたそれを理解してくれたのだろう、
しばらく視線を下に落として、俺に遠慮する
ような素振りを見せていたが、
$k

#center,0.5,akane_inner_005.png,0
…しかし、その次の言葉はとても意外なもの
だった。
$k

#center,0.5,akane_inner_006.png,0
$voice,60802407
茜「私にやらせてくれませんか？」
$k

大悟「えっ？」
$k

真っ直ぐな目、強く感じる意志。
$k

$voice,60802507
茜「この家の全ての家事を、私にやらせてく
　ださい！」
$k

大悟「あ…、茜さんがですかっ！？」
$k

#center,0.5,akane_inner_001.png,0
$voice,60802607
茜「こう見えても一通りの家事は心得てるん
　ですよ？　お料理だってお掃除だってお洗
　濯だって」
$k

#center,0.5,akane_inner_021.png,0
$voice,60802707
茜「元々学生時代は一人暮らしでしたし、神
　山の家に入る直前にもしっかりと勉強しま
　したので、ご安心ください」
$k

大悟「ああっ、そういうことを心配してるわ
　けじゃないんですけど……」
$k

#center,0.5,erase,0
…そう、彼女の申し出に大きく驚いてしまっ
たのには全く別の理由があった。
$k

まさかこの家で、身内以外の人間が家事をし
てくれるなんて…。しかも『俺の手伝い』で
はなく、全てをやってくれるなんて……。
$k

喜びや感動を覚える前に、何だか申し訳なさ
のような…、気恥ずかしさのようなものを感
じてしまうぞ。
$k

#center,0.5,akane_inner_141.png,0
$voice,60802807
茜「いけませんか…？」
$k

『出過ぎた真似をしてしまった』と反省して
いるのだろうか、彼女の気勢もふっと収まる
。
$k

大悟「い…、いえ、そんなことは！」
$k

妙に落ち着かない自分。なぜか高鳴る胸の鼓
動。
$k

素直に受け入れるべきなのか、それとも丁重
に断るべきなのか。その両方にれっきとした
理由があるように思えたが……。
$k

#center,0.5,erase,0
$voice,60802903
？？「よろしくお願いします、茜さん」
$k

大悟「えっ…？」
$k

…その瞬間、俺の背後から何気ない声が放た
れた。
$k

// みちる室内着（左）。茜室内着（右）。
#character,0.5,michiru_inner_001.png,same,akane_inner_003.png,0
$voice,60803003
みちる「いくら家事が得意な彼でも、五人の
　生活を一手に担うのは大変でしょう」
$k

$voice,60803103
みちる「あなたが代わりに家事を請け負って
　くれれば、彼もその分、勉強に集中できる
　と言うものです」
$k

大悟「……」
$k

#left,0.5,michiru_inner_004.png,0
$voice,60803203
みちる「…ほら、お前からもお願いしないか
　、大悟」
$k

大悟「あ……」
$k

大悟「は…、はい、よろしくお願いします！
　」
$k

#character,0.5,erase,akane_inner_022.png,erase,0
$voice,60803307
茜「はい、お任せください」
$k

慌てて頭を下げる俺を見て、茜さんの顔に満
足そうな笑みが浮かぶ。
$k

もし彼女の申し出を断っていたらどうなって
いただろうか。少なくとも、この表情を見る
ことはできなかったと思う。
$k

#center,0.5,michiru_inner_001.png,0
大悟「…って、いきなり現れないでください
　よ、みちる先生」
$k

#center,0.5,michiru_inner_004.png,0
$voice,60803403
みちる「何を言うか、青年。私が口出しして
　やらなければ、お前はあのまま固まってい
　ただろ」
$k

大悟「ううっ……」
$k

ニヤリと笑う彼女に何も言い返すことができ
ない。確かにそれは事実であり、認めざるを
得ないところなのだが。
$k

// みちる室内着（左）。茜室内着（右）。
#character,0.5,michiru_inner_003.png,erase,akane_inner_003.png,0
$voice,60803503
みちる「それはそうと…、茜さん、少しお時
　間をよろしいですか？」
$k

$voice,60803607
茜「ええ」
$k

…それがみちる先生がここに来た本当の理由
なのだろう、彼女は椅子に座って足を組んだ
。
$k

#left,0.5,michiru_inner_004.png,0
$voice,60803703
みちる「大悟、コーヒー二人前」
$k

大悟「三人前でもいいですか？」
$k

#left,0.5,michiru_inner_003.png,0
$voice,60803803
みちる「……、…あんまりおもしろい話じゃ
　ないぞ？」
$k

#right,0.5,akane_inner_004.png,0
$voice,60803907
茜「あ、私がやります」
$k

大悟「いいですよ、茜さんは。こっちに座っ
　てください」
$k

#right,0.5,akane_inner_003.png,0
俺は茜さんを制してみちる先生の前に座らせ
、そして手早くコーヒーを用意した。
$k

#left,0.5,michiru_inner_004.png,0
$voice,60804003
みちる「コーヒーでよろしかったですか？　
　もし苦手でしたら、紅茶もありますが」
$k

#right,0.5,akane_inner_001.png,0
$voice,60804107
茜「いえ、お構いなく」
$k

#left,0.5,michiru_inner_001.png,0
食卓にコーヒーの香ばしい匂いが広がる。落
ち着いた雰囲気と適度なリラックス感がもた
らされる。
$k

#left,0.5,michiru_inner_004.png,0
$voice,60804203
みちる「優衣は以前からあんな調子だったの
　ですか？」
$k

…余計な前置きをすることなく、みちる先生
の質問はいきなり核心を突いた。
$k

#right,0.5,akane_inner_004.png,0
$voice,60804307
茜「『毎食』と言うわけではありませんが、
　何度かお食事を全くしない時がありました
　」
$k

戸惑いつつも、しっかりと答える茜さん。そ
の姿には、なるべく正確な情報を伝えようと
する強い意志が垣間見える。
$k

#left,0.5,michiru_inner_003.png,0
$voice,60804403
みちる「食事の準備はいつもあなたが？」
$k

#right,0.5,akane_inner_003.png,0
$voice,60804507
茜「いえ、私は主人が休みの日に…、お義父
　様も合わせて家族が揃った時に作る程度で
　」
$k

$voice,60804607
茜「普段の食事は使用人に任せています」
$k

#left,0.5,michiru_inner_169.png,0
$voice,60804703
みちる「う〜ん……」
$k

何かを考えながらコーヒーを口に含む。そし
て小さく息をつく。
$k

#left,0.5,michiru_inner_004.png,0
$voice,60804803
みちる「この家に来てからは、特にそのよう
　なことはありませんでしたが」
$k

#right,0.5,akane_inner_141.png,0
$voice,60804907
茜「……」
$k

#left,0.5,michiru_inner_003.png,0
$voice,60805003
みちる「…全く食べなかったのは、あなたの
　作った食事ですね？」
$k

茜「……」
$k

#right,0.5,akane_inner_162.png,0
$voice,60805207
茜「…はい」
$k

肩を落とすようにして小さく頷く茜さん。改
めて突き付けられた現実に、罪悪感さえも覚
えているように見える。
$k

$voice,60805303
みちる「何か心当たりは？」
$k

#right,0.5,akane_inner_141.png,0
$voice,60805407
茜「いえ、何も思い浮かびません」
$k

$voice,60805507
茜「主人は、優衣さんには人見知りするとこ
　ろがあるからだと言っていましたが」
$k

$voice,60805607
茜「それでも神山の家に入る前は普通に話し
　ていましたし、私が作ったケーキやお菓子
　も喜んで食べていました」
$k

#right,0.5,akane_inner_162.png,0
$voice,60805707
茜「ですが、私の入籍後はまるで人が変わっ
　たかのようになってしまって……」
$k

みちる「……」
$k

#right,0.5,akane_inner_141.png,0
$voice,60805907
茜「…やはり、私の責任なのでしょうか？」
　
$k

$voice,60806007
茜「私がご迷惑をお掛けしているから、優衣
　さんは……」
$k

#left,0.5,michiru_inner_169.png,0
みちる「……」
$k

…重い空気。
$k

茜さんの顔に現れる沈痛の色。自分自身を責
めているような、大きな過ちを悔いているよ
うな悲愴感。
$k

$next,666i_608i_4
