// 選択肢２を選んだ場合。（別の名前を……。）
// 優衣好感度（＋１）
$pfplus,40,1

大悟「『まい』さん……」
$k

優衣「……」
$k

大悟「『まい』さんって呼んで、いいのかな
　…？」
$k

優衣「……」
$k

……。
$k

// ベランダ（夜）。優衣パジャマ。
#background,1.0,jitaku_veranda_yoru.jpg,same,0
#center,0.5,yui_nemaki_001.png,0
$voice,62100604
優衣「…どうぞ、お好きなように」
$k

大いに恐縮する俺の声にも、彼女は穏やかに
ほほ笑んだ。
$k

$voice,62100704
優衣「誰かと親密な関係になりたいのならば
　、まずはその人のことを、名字ではなく名
　前で呼んでみるべきでしょう」
$k

#center,0.5,yui_nemaki_021.png,0
$voice,62100804
優衣「名前には両親の願いがこめられている
　もの。声に出してみると、その人のことが
　よくわかります」
$k

大悟「ははは…、なかなかおもしろいことを
　言うね」
$k

おかしな緊張を解くために言っているのだろ
うか。その気遣いに、俺の心もだいぶ軽くな
ったように感じる。
$k

$next,672i_620i_3
