// 627.txt
// 　　ファイルナンバー６２７　・・・　茜に対して補足をする
// 　　　　　　登場　・・・　７茜
// 　　　　７月１１日（水）　午後９時３０分　住宅街

大悟「…あ、何でもありません」
$k

のどまで声が出かかったが、それをぐっと飲
み込む。
$k

大悟「とにかく、頑張ってください。俺は茜
　さんの味方ですから」
$k

#center,0.5,akane_inner_141.png,0
$voice,62702407
茜「……」
$k

#center,0.5,akane_inner_162.png,0
$voice,62702507
茜「…ありがとうございます」
$k

そんなことを言って彼女が安らぐとも思えな
いが、茜さんは丁寧にお辞儀をした。
$k

$next,675i_627i_3
