// 627.txt
// 　　ファイルナンバー６２７　・・・　茜に対して補足をする
// 　　　　　　登場　・・・　７茜
// 　　　　７月１１日（水）　午後９時３０分　住宅街
// 分岐の集結。

#center,0.5,erase,0
久坂麻衣さんが傷付けているのは優衣ちゃん
だけではない。この茜さんだって、彼女の存
在に苦しめられているのだ。
$k

茜さんには何の罪もない。
$k

ただ、優衣ちゃんを精一杯愛そうとしている
だけなのに……。
$k

……。
$k

#hide,0.5

// ＢＧＭストップ。
$bgm,stop,YES

// 次のファイルへ。
$next,628i_0712_mi
