// 選択肢２を選んだ場合。（『かわいいね』と言う。）
大悟「かわいいね、華奈姉さん……」
$k

…感嘆の息を交えながら、俺は自然とそう呟
いていた。
$k

#center,0.5,kana_yukata_021.png,0
$voice,70200902
華奈「うふふっ、ありがとう、だいちゃん♪
　」
$k

華奈姉さんは、子供の頃と全く同じ笑顔でそ
れに応えた。
$k

#center,0.5,kana_yukata_022.png,0
$voice,70201002
華奈「し〜んぴんの〜、ゆ〜かた〜、ゆ〜か
　た〜、う〜れし〜いな〜〜〜♪」
$k

$voice,70201102
華奈「た〜なば〜たま〜つり〜で、ゆ〜かた
　〜、ゆ〜かた〜♪　だ〜いちゃんもい〜っ
　しょ〜に、ゆ〜かた〜です〜♪」
$k

大悟「…ああっ、そんなにはしゃぐと転んじ
　ゃうよ」
$k

謎のフレーズを口ずさみながら、無邪気な様
子でくるくると回る華奈姉さん。
$k

本当にこの辺りは昔と全然変わってないんだ
よな…。それが俺に『かわいい』と言わせた
のかもしれない。
$k

$next,762i_702i_3
