// 集結。

#center,0.5,kana_yukata_001.png,0
$voice,70201202
華奈「それじゃ、行こっか」
$k

大悟「わ……」
$k

にこやかな笑みを浮かべて、華奈姉さんが俺
の腕に絡まり付く。
$k

#center,0.5,kana_yukata_022.png,0
$voice,70201302
華奈「だいちゃんと一緒に七夕祭りに行くな
　んて、久しぶりだよねぇ〜」
$k

大悟「う…、うん、そうだね」
$k

#center,0.5,kana_yukata_001.png,0
$voice,70201402
華奈「昔は私のほうが背が高かったけど、う
　ふふっ、今はだいちゃんのほうがお兄さん
　みたい♪」
$k

大悟「あ…、あはは……」
$k

#center,0.5,kana_yukata_021.png,0
…などと華奈姉さんは声と表情を弾ませてい
たが、俺は緊張しっぱなしだった。
$k

ほのかに漂ってくる石鹸の匂いと、ちょうど
肘の辺りに押し当てられるやわらかさ。
$k

前者は子供の頃からの淡い思いを、そして後
者は二人の成長の度合いを改めて感じさせて
いた。
$k

……。
$k

#hide,0.5

// ＢＧＭストップ。
$bgm,stop,YES

// 次のファイルへ。
$next,703i_0707_ka
