// 集結。
// ヒント付き選択（ここまで）
#center,0.5,kana_yukata_169.png,0
華奈「……」
$k

華奈姉さんはただ無言で星に祈っていた。
$k

その願いの中に俺のことも含まれていたら、
それ以上にうれしいことはないと思う。
$k

……。
$k

#center,0.5,erase,0

// ＢＧＭストップ。
$bgm,stop,YES

// 効果音：６００４：拍手（大勢）
$se,00006004,NO
（ぱちぱちぱちぱちっ）
$k

星空から目を下ろすのと同時に、周囲の観客
から大きな拍手が沸き上がる。
$k

#center,0.5,kana_yukata_002.png,0
$voice,70302902
華奈「もうパレードが始まる時間だね」
$k

大悟「うん」
$k

七夕祭りのメインである織姫と彦星のパレー
ドは午後７時ちょうどから。先ほどの拍手は
、その開始に合わせたものだろう。
$k

#center,0.5,kana_yukata_022.png,0
$voice,70303002
華奈「行こうよ、だいちゃん！」
$k

大悟「ちょ…、ちょっと、華奈姉さん！？」
$k

#center,0.5,kana_yukata_001.png,0
先ほどと同じように、華奈姉さんはご機嫌な
調子で俺の腕を絡み付いてきた。
$k

周囲の視線がだいぶ気になるけれど…、祭り
の夜なんだから少しは大目に見てくださいね
、みなさん。
$k

……。
$k

#hide,0.5

// 次のファイルへ。
$next,704i_0707_ka
